<svg width="70" height="70" viewBox="0 0 70 70" fill="none" xmlns="http://www.w3.org/2000/svg">
    <path d="M34.9449 69.8898C54.2444 69.8898 69.8898 54.2444 69.8898 34.9449C69.8898 15.6454 54.2444 0 34.9449 0C15.6454 0 0 15.6454 0 34.9449C0 54.2444 15.6454 69.8898 34.9449 69.8898Z"
          fill="#43C0C0"/>
    <path d="M26.0156 50.7087L43.9841 68.6772C58.866 64.7087 69.8896 51.1496 69.8896 34.9449C69.8896 34.6142 69.8896 34.2835 69.8896 33.9528L55.7794 20.9449L26.0156 50.7087Z"
          fill="#007E7E"/>
    <path d="M35.8268 42.7717C37.3702 44.315 37.3702 46.9606 35.8268 48.5039L32.63 51.7008C31.0867 53.2441 28.441 53.2441 26.8977 51.7008L12.8977 37.5906C11.3544 36.0472 11.3544 33.4016 12.8977 31.8583L16.0946 28.6614C17.6379 27.1181 20.2835 27.1181 21.8268 28.6614L35.8268 42.7717Z"
          fill="white"/>
    <path d="M48.0637 18.4094C49.6071 16.8661 52.2527 16.8661 53.796 18.4094L56.9929 21.6063C58.5362 23.1496 58.5362 25.7953 56.9929 27.3386L32.7409 51.4803C31.1976 53.0236 28.5519 53.0236 27.0086 51.4803L23.8118 48.2835C22.2685 46.7402 22.2685 44.0945 23.8118 42.5512L48.0637 18.4094Z"
          fill="white"/>
</svg>
