<?xml version="1.0" encoding="UTF-8"?>
<svg width="554px" height="286px" viewBox="0 0 554 286" version="1.1" xmlns="http://www.w3.org/2000/svg" xmlns:xlink="http://www.w3.org/1999/xlink">
    <!-- Generator: Sketch 54.1 (76490) - https://sketchapp.com -->
    <title>img/0006</title>
    <desc>Created with Sketch.</desc>
    <g id="Design-&amp;-Wareframe" stroke="none" stroke-width="1" fill="none" fill-rule="evenodd">
        <g id="1.-Maine-v.3" transform="translate(-104.000000, -2740.000000)">
            <g id="Block-03" transform="translate(0.000000, 1538.000000)">
                <g id="all-info" transform="translate(104.000000, 80.000000)">
                    <g id="Group-7" transform="translate(0.000000, 763.000000)">
                        <g id="img/0006" transform="translate(0.000000, 360.000000)">
                            <g>
                                <path d="M372.61652,5.73253961 C374.836039,6.01095849 376.980042,6.5848691 379.001249,7.41881244 L383.693758,3.4861458 L391.754946,9.62121082 L389.214976,15.192215 C390.557194,16.9178867 391.682714,18.8313598 392.542285,20.8971753 L398.639395,21.4343136 L400,31.4724961 L394.267337,33.6151395 C393.990225,35.8352674 393.414989,37.9798807 392.580371,40.0003875 L396.513122,44.6934529 L390.379239,52.7538107 L384.807458,50.2145518 C383.081749,51.5567409 381.168235,52.6802661 379.101718,53.5404754 L378.565225,59.6374548 L368.52617,61 L366.38348,55.2668037 C364.163304,54.9896982 362.019302,54.4144743 359.998751,53.5805309 L355.304928,57.5138542 L347.244397,51.3787892 L349.785024,45.8071284 C348.442806,44.0814567 347.319256,42.1679836 346.458372,40.102168 L340.361918,39.5643731 L339,29.5261906 L344.732663,27.3842038 C345.009775,25.164076 345.585011,23.018806 346.419629,20.9982992 L342.486221,16.3052338 L348.620761,8.24487599 L354.192542,10.7847916 C355.917594,9.44260248 357.831765,8.3184206 359.898282,7.45821133 L360.434775,1.36188856 L370.472517,0 L372.61652,5.73253961 L372.61652,5.73253961 Z M369.605723,19.5746857 C362.701574,19.8209288 357.790396,26.2705283 359.391995,32.9926369 C360.576614,37.9641212 365.206741,41.4863826 370.314261,41.2998945 C377.21447,41.0483982 382.118425,34.6040518 380.522079,27.8871964 C379.340087,22.9163688 374.712586,19.3927941 369.605723,19.5746857 Z" id="Shape" stroke="#4A4A4A" stroke-width="0.3"></path>
                                <path d="M436,283.5 C436,283.644 338.390502,283.76 218.010713,283.76 C97.5893712,283.76 0,283.643 0,283.5 C0,283.357 97.5887219,283.24 218.010713,283.24 C338.390502,283.24 436,283.357 436,283.5 Z" id="Path" fill="#263238" fill-rule="nonzero"></path>
                                <g id="Group" transform="translate(51.000000, 210.000000)" fill="#263238" fill-rule="nonzero">
                                    <g transform="translate(0.538765, 0.217344)" id="Path">
                                        <path d="M28.7987992,16.9643938 C28.7987992,16.9643938 29.6261398,17.0214126 30.9678617,17.6343649 C32.2813715,18.238246 34.1414115,19.5568061 35.2902404,21.9548361 C35.8485804,23.1405683 36.231086,24.5751099 36.1726932,26.1282247 C36.1070834,27.6690286 35.6898045,29.337477 34.7187784,30.8070074 C34.2562287,31.5514917 33.6545862,32.2370134 32.9538727,32.8344151 C32.2616885,33.4415359 31.454687,33.9547052 30.5689537,34.3292152 C28.8112651,35.1184074 26.7268393,35.3244527 24.7270503,34.8994033 C22.7338222,34.440661 20.9374238,33.3747979 19.6888679,31.9201702 C19.0491716,31.207435 18.5420072,30.403988 18.1778724,29.5623125 C17.8025839,28.7264685 17.5545786,27.8530439 17.4587881,26.9848028 C17.2160316,25.2463769 17.5611396,23.5610821 18.1680309,22.1401473 C18.786732,20.7107892 19.7531655,19.5755964 20.7714308,18.7391044 C22.8479834,17.0551055 25.0997144,16.6481985 26.5483804,16.6559738 C28.0259149,16.6669888 28.7987992,16.9643938 28.7987992,16.9643938 C28.7889577,17.027892 27.9963904,16.8069441 26.5529731,16.8581314 C25.1364559,16.9112626 22.9732983,17.3674131 21.0102508,19.0203109 C20.0477539,19.8412522 19.1410254,20.9408083 18.5689073,22.3099078 C18.0079428,23.67188 17.6956398,25.277478 17.9397085,26.9232484 C18.0368112,27.7461336 18.2769433,28.5716106 18.6377976,29.3608028 C18.9861861,30.1558266 19.470387,30.9139176 20.0779344,31.5851846 C21.2635049,32.9568759 22.9588641,33.956649 24.8418676,34.3914175 C26.7320881,34.7918451 28.6971039,34.6026463 30.3616265,33.8626976 C31.2014329,33.5121614 31.966444,33.0307412 32.6251672,32.4586092 C33.2917636,31.8968443 33.8665061,31.2521429 34.3100288,30.5491268 C35.2423452,29.1644767 35.6543752,27.5809086 35.7363876,26.1126741 C35.8111828,24.6327767 35.466731,23.2565498 34.9523495,22.1083981 C33.8920939,19.7855293 32.1337492,18.4604898 30.8753518,17.8151404 C29.5920226,17.160072 28.7797723,17.0259482 28.7987992,16.9643938 Z"></path>
                                        <path d="M36.1556347,7.26730734 C36.1490737,7.27119498 36.1431688,7.1642847 36.1359517,6.9498162 C36.1307029,6.71266976 36.1228297,6.39517862 36.1129882,5.98373602 C36.1005224,5.09800055 36.0828077,3.82155659 36.0598442,2.16541914 L36.1254541,2.24576384 C33.985916,1.78442978 31.1732206,1.17860485 27.7706924,0.445135533 L27.920283,0.373214071 C27.2543427,1.7721189 26.5149194,3.32717753 25.7230082,4.99109026 L25.6836423,5.07467467 L25.589164,5.07856231 C23.8531267,5.15177966 22.0068648,5.44659286 20.1422321,6.03297955 L20.0425051,6.06408072 L19.9677098,5.99086338 C18.8228175,4.87122116 17.5834469,3.65957131 16.2942128,2.39932588 L16.5271279,2.42459558 C14.255714,3.8533057 11.8452071,5.36883992 9.31463417,6.9608312 L9.39861481,6.71914917 C9.937928,8.20682193 10.5323535,9.84546496 11.1418692,11.5249283 L11.186484,11.6473891 L11.0965984,11.7432844 C9.93136701,12.9879793 8.81403081,14.508697 7.92698528,16.2024151 L7.8639998,16.3229321 L7.72556296,16.32358 C6.12402588,16.3294115 4.357808,16.335243 2.55944128,16.3417224 L2.78776365,16.1609468 C2.20317965,18.7501194 1.57266874,21.5427456 0.926411457,24.4040534 L0.792567309,24.1325661 C2.24648217,24.8129043 3.84342657,25.5599804 5.46136612,26.3174235 L5.59783467,26.3815697 L5.60373956,26.5312441 C5.67131773,28.2353292 5.97443536,30.0903845 6.55311447,31.889069 L6.59969748,32.0342078 L6.49078509,32.142414 C5.34917323,33.2763109 4.10324168,34.5125825 2.84550035,35.7618129 L2.88027358,35.4462656 C4.33025185,37.7043403 5.88454983,40.1250483 7.45984296,42.5788012 L7.15147654,42.4738347 C8.68937205,41.9328039 10.3493019,41.349009 12.0216977,40.7606785 L12.1719443,40.7081953 L12.2887299,40.8151055 C13.571403,41.9904707 15.1073302,43.0835473 16.7849747,43.9433651 L16.786943,43.944661 L16.7882552,43.945309 C16.8518968,44.0483316 16.6478501,43.7159378 16.9312847,44.175976 L16.9312847,44.1811595 L16.9312847,44.1915266 L16.9312847,44.2116128 L16.9312847,44.2517851 L16.9312847,44.3321298 L16.9319408,44.4928192 L16.9325969,44.814198 L16.9339091,45.4556597 L16.9365335,46.7353433 C16.9385018,47.5867379 16.939814,48.4348928 16.9417823,49.2791601 L16.7364234,49.026463 C19.5563359,49.6517262 22.3388508,50.2685661 25.0813436,50.8769828 L24.7887236,51.017586 C25.535364,49.4664151 26.2747873,47.9301467 27.0069935,46.408781 L27.0745717,46.2688257 L27.2307232,46.2629943 C29.0927315,46.1930166 30.9225909,45.8735817 32.657316,45.3338467 L32.8049383,45.2878429 L32.9138507,45.3954011 C34.151909,46.6141783 35.3709405,47.8148132 36.5742257,48.9998975 L36.2632349,48.9662045 C38.7308223,47.4254006 41.1406731,45.9208814 43.4908189,44.4539427 L43.392404,44.7364451 C42.8058518,43.1036335 42.2304531,41.5006272 41.664896,39.9248345 L41.6170008,39.7913586 L41.7141034,39.688336 C42.9961204,38.3250679 44.0616248,36.8199007 44.8968385,35.2421642 L44.9611362,35.1209992 L45.0989169,35.1209992 C46.8703836,35.1203512 48.5880502,35.1190554 50.2656947,35.1184074 L50.0524626,35.28752 C50.7170907,32.3899275 51.3449772,29.6543202 51.9420271,27.0508928 L52.0522517,27.2737846 C50.4126608,26.5001429 48.8741092,25.7738009 47.3900138,25.0733766 L47.2863502,25.024781 L47.2824136,24.9120393 C47.2089306,22.9643283 46.8671031,21.1740671 46.3494412,19.5315364 L46.3179484,19.4324014 L46.3914315,19.359832 C47.7213437,18.0496951 48.918724,16.8697944 50.0504943,15.7546878 L50.0294992,15.9451824 C48.2685301,13.1739384 46.7686883,10.812841 45.484703,8.79126479 L45.623796,8.83856449 C43.6745265,9.50983147 42.0756138,10.0605814 40.7430772,10.5193237 L40.6938698,10.5361702 L40.6571283,10.5018293 C39.2845697,9.23510445 38.1180261,8.46535042 37.3385807,7.97745078 C36.9567313,7.75002345 36.6641112,7.57637524 36.450223,7.44873084 C36.2428958,7.3282138 36.1497298,7.27054704 36.1556347,7.26730734 C36.1615396,7.26406763 36.2697959,7.31136733 36.469906,7.40791055 C36.6739527,7.51158113 36.9823191,7.66838287 37.3825394,7.90164167 C38.1796994,8.36815926 39.3692064,9.11977093 40.7712895,10.3767767 L40.6853405,10.3592822 C42.0113161,9.88369348 43.6030118,9.31285738 45.5437519,8.6163207 L45.6316691,8.58457158 L45.6828448,8.6636204 C46.9852009,10.6741816 48.5060378,13.0223202 50.2912826,15.7780136 L50.3582046,15.8810363 L50.2702874,15.9685083 C49.1463902,17.0907423 47.9562271,18.2790663 46.6355002,19.5976264 L46.6781467,19.425922 C47.2148355,21.0917786 47.5737215,22.9118451 47.6590143,24.8945449 L47.5514141,24.7332075 C49.03879,25.4265045 50.5812782,26.1450712 52.2241495,26.9109376 L52.3698035,26.9789714 L52.3350302,27.1344772 C51.7484779,29.7404963 51.1324012,32.4786954 50.4795829,35.3788797 L50.4415292,35.5473444 L50.2663508,35.5479924 C48.5887063,35.5544718 46.8716958,35.5609512 45.1002291,35.5680785 L45.3016515,35.4469136 C44.4533158,37.0628786 43.3681284,38.6049785 42.0611797,40.0025874 L42.1103871,39.7660889 C42.6798808,41.3399378 43.2598721,42.9422962 43.8497049,44.5731639 L43.9146587,44.7532915 L43.750634,44.8563142 C41.4037687,46.3284363 38.9965423,47.8374911 36.5322354,49.3828307 L36.3629619,49.489093 L36.2205884,49.3491377 C35.015335,48.1659973 33.7943352,46.9673062 32.5543085,45.7504729 L32.8101871,45.8120273 C31.0334716,46.3673128 29.1589974,46.6971148 27.2504061,46.7703322 L27.4734797,46.6245454 C26.7425857,48.146559 26.0051307,49.6828274 25.2598025,51.2352942 L25.170573,51.4212533 L24.9671824,51.3765454 C22.2246896,50.7700725 19.4415186,50.1545285 16.6216061,49.5305612 L16.4169033,49.4852053 L16.4162472,49.2778642 C16.4142789,48.4335969 16.4123106,47.5854421 16.4103423,46.7340475 L16.4077179,45.4543638 L16.4064057,44.8129021 L16.4057496,44.4915233 L16.4057496,44.3308339 L16.4057496,44.2504892 L16.4057496,44.2103169 L16.4057496,44.1902307 L16.4057496,44.1798636 L16.4057496,44.1746801 C16.6891843,44.6340704 16.4831693,44.3016766 16.5461548,44.4040513 L16.5448426,44.4034033 L16.5428743,44.4021074 C14.8219272,43.5202596 13.2472902,42.3986736 11.9324682,41.1935031 L12.1988443,41.2472822 C10.5264486,41.8349648 8.86651872,42.4181118 7.32796711,42.9584947 L7.13113748,43.0278244 L7.01894459,42.8535282 C5.44561975,40.3984794 3.89329007,37.9764756 2.4452801,35.717105 L2.33505551,35.5447527 L2.48005333,35.4009097 C3.73976296,34.1529752 4.98700672,32.9179995 6.13058686,31.7860464 L6.06825748,32.0387434 C5.47842469,30.194703 5.17071437,28.2936439 5.1044484,26.5487385 L5.24682183,26.7619111 C3.63019447,26.0018762 2.03521837,25.2515604 0.582615704,24.5679825 L0.405469037,24.4850461 L0.448771556,24.2964952 C1.10224593,21.4364832 1.73931783,18.6458009 2.33046281,16.0579242 L2.37179704,15.8771486 L2.55944128,15.8771486 C4.357808,15.8765007 6.12468198,15.8752048 7.72556296,15.8739089 L7.52479674,15.994426 C8.43611793,14.2657191 9.58363467,12.716492 10.7777344,11.4504151 L10.7324636,11.6681233 C10.1295088,9.98606818 9.54164435,8.34548132 9.00823605,6.8552168 L8.95246765,6.70035888 L9.09221669,6.61353477 C11.6306628,5.03320644 14.0477307,3.52868721 16.3257056,2.11034415 L16.4529887,2.03129534 L16.5586206,2.13561385 C17.8406376,3.40298664 19.0734472,4.62176384 20.2117786,5.74788546 L20.0379124,5.70576929 C21.9366622,5.12067848 23.8144169,4.83364058 25.5766982,4.77208617 L25.4435101,4.85891028 C26.2485433,3.20147696 27.0010886,1.6522498 27.6781825,0.258528497 L27.7247655,0.162633215 L27.8284291,0.185959095 C31.222428,0.958304881 34.0279064,1.59652686 36.1621957,2.08183474 L36.2284616,2.09673739 L36.2278055,2.16282738 C36.2127153,3.80471012 36.2009055,5.07013908 36.1923762,5.94809926 C36.184503,6.36472539 36.1785981,6.68675211 36.1740054,6.92713826 C36.1681005,7.14938206 36.1621957,7.26341969 36.1556347,7.26730734 Z"></path>
                                    </g>
                                </g>
                                <g id="Group" transform="translate(383.000000, 49.000000)" fill="#263238" fill-rule="nonzero">
                                    <path d="M24.6800769,16.4573077 C24.6800769,16.4573077 25.4575,16.2284615 26.8979231,16.3409231 C28.3089231,16.4546923 30.4666154,17.0444615 32.3457692,18.8785 C33.2657308,19.788 34.1105,20.9891154 34.5910769,22.4498077 C35.0618462,23.9013462 35.2540769,25.5908846 34.8709231,27.2843462 C34.7035385,28.1323846 34.3890385,28.9725769 33.9522692,29.7650385 C33.5272692,30.5640385 32.9649615,31.314 32.2823462,31.9626154 C30.9439231,33.2925385 29.1053077,34.1922308 27.1267692,34.4779615 C25.143,34.7303462 23.1304615,34.3524231 21.4853846,33.4278846 C20.6543462,32.9845769 19.9122308,32.4111538 19.2891154,31.7546923 C18.6575,31.1073846 18.1298462,30.3809615 17.7427692,29.6081154 C16.9215385,28.0781154 16.6573846,26.3977308 16.7240769,24.8736154 C16.7986154,23.3377308 17.2929231,21.9548462 17.9369615,20.8335 C19.2596923,18.5653077 21.182,17.4217308 22.5119231,16.9365769 C23.8699615,16.4442308 24.6800769,16.4573077 24.6800769,16.4573077 C24.6931538,16.5194231 23.8908846,16.5841538 22.5864615,17.1222692 C21.3075385,17.6531923 19.4826538,18.8124615 18.2534231,21.0133077 C17.6551538,22.1019615 17.2026923,23.4299231 17.1497308,24.8951923 C17.1052692,26.3493462 17.3720385,27.9453846 18.1625385,29.3884231 C18.5345769,30.1187692 19.0393462,30.8026923 19.6415385,31.4120769 C20.2345769,32.0312692 20.9387692,32.5700385 21.7266538,32.9858846 C23.2854231,33.8555 25.1828846,34.2059615 27.0574615,33.9686154 C28.9268077,33.6966154 30.6614615,32.8538077 31.9318846,31.6003846 C32.5798462,30.9896923 33.1153462,30.2828846 33.5220385,29.5283462 C33.9398462,28.781 34.2438846,27.9872308 34.408,27.1843077 C34.7852692,25.5823846 34.6172308,23.9739231 34.1863462,22.5838462 C33.7456538,21.1859231 32.9558077,20.0266538 32.0888077,19.1361154 C30.3175385,17.3419615 28.2500769,16.711 26.8756923,16.5396923 C25.4745,16.3690385 24.6846538,16.5207308 24.6800769,16.4573077 Z" id="Path"></path>
                                    <path d="M28.0800769,4.96007692 C28.0755,4.96596154 28.033,4.86919231 27.9525769,4.67173077 C27.8656154,4.454 27.7498846,4.16173077 27.5988462,3.78315385 C27.2823846,2.96584615 26.8266538,1.78761538 26.2349231,0.258923077 L26.3225385,0.311230769 C24.2040769,0.611346154 21.4180385,1.00561538 18.0487692,1.48292308 L18.1612308,1.36523077 C18.0330769,2.88934615 17.8911923,4.58346154 17.7388462,6.39592308 L17.7316538,6.48680769 L17.6466538,6.52276923 C16.0813462,7.18119231 14.4911923,8.08284615 12.9853846,9.26107692 L12.9049615,9.32384615 L12.8114615,9.28134615 C11.3769231,8.63207692 9.82403846,7.92984615 8.20903846,7.19884615 L8.43069231,7.14326923 C6.84184615,9.24080769 5.15623077,11.4671538 3.38561538,13.804 L3.37973077,13.5509615 C4.38665385,14.7475 5.49557692,16.065 6.63196154,17.4158462 L6.715,17.5145769 L6.66596154,17.6342308 C6.02715385,19.1845 5.52696154,20.9753846 5.29811538,22.848 L5.28176923,22.9807308 L5.15557692,23.0284615 C3.69030769,23.5783462 2.07465385,24.1851154 0.428923077,24.8023462 L0.576038462,24.5565 C0.932384615,27.1568462 1.31619231,29.9618462 1.70980769,32.8361538 L1.49338462,32.6301923 C3.05934615,32.7668462 4.77961538,32.9165769 6.52276923,33.0689231 L6.66988462,33.082 L6.72676923,33.2186538 C7.37538462,34.7761154 8.29273077,36.3937308 9.44153846,37.8661923 L9.53438462,37.9851923 L9.47161538,38.1225 C8.81580769,39.5622692 8.10115385,41.1334615 7.37865385,42.7196923 L7.30215385,42.415 C9.40819231,44.0162692 11.6659231,45.7332692 13.9537308,47.4731538 L13.6346538,47.4803462 C14.8573462,46.4551154 16.1768077,45.3488077 17.5060769,44.2346538 L17.6250769,44.1346154 L17.7689231,44.1941154 C19.3486154,44.8479615 21.1323077,45.3396538 22.9650385,45.5671923 L22.9676538,45.5671923 L22.9689615,45.5671923 C23.0624615,45.6410769 22.7610385,45.4024231 23.1788462,45.7326154 L23.1808077,45.7371923 L23.1840769,45.7463462 L23.1912692,45.7653077 L23.205,45.8025769 L23.2331154,45.8771154 L23.2886923,46.0261923 L23.3998462,46.3236923 L23.6221538,46.9180385 L24.0654615,48.1041154 C24.3603462,48.8933077 24.6539231,49.6792308 24.9461923,50.4618846 L24.6709231,50.2971154 C27.4693846,49.9178846 30.2312308,49.5438846 32.9525385,49.1751154 L32.7335,49.4052692 C32.8832308,47.7124615 33.0316538,46.036 33.1781154,44.3758846 L33.1918462,44.2235385 L33.3330769,44.1646923 C35.0147692,43.4663846 36.5807308,42.5483846 37.9838846,41.4571154 L38.1028846,41.3642692 L38.2401923,41.4270385 C39.7937308,42.1364615 41.3237308,42.8354231 42.8347692,43.5252308 L42.5385769,43.5997692 C44.268,41.3315769 45.9575385,39.1156923 47.6052308,36.9553846 L47.6124231,37.2509231 C46.5133077,35.9360385 45.4338077,34.6446923 44.3726154,33.3755769 L44.2830385,33.2683462 L44.3366538,33.1395385 C45.0415,31.4388846 45.4991923,29.6800385 45.7208462,27.9329615 L45.7378462,27.7989231 L45.8640385,27.7518462 C47.4868846,27.1483462 49.0600385,26.5638077 50.5959231,25.9923462 L50.4586154,26.2211923 C50.0695769,23.307 49.7027692,20.5562692 49.3529615,17.9382692 L49.5308077,18.1076154 C47.7621538,17.9474231 46.1026923,17.7970385 44.5027308,17.6525385 L44.3909231,17.6427308 L44.3484231,17.5400769 C43.6102308,15.7583462 42.6798077,14.2139615 41.6408462,12.8663846 L41.5780769,12.7846538 L41.6205769,12.6918077 C42.3875385,11.0245 43.078,9.52196154 43.7311923,8.10311538 L43.7769615,8.28684615 C41.2093077,6.31484615 39.0221923,4.63446154 37.1495769,3.19665385 L37.2934231,3.19338462 C35.7385769,4.47884615 34.4635769,5.53415385 33.4010769,6.41226923 L33.3625,6.44430769 L33.3167308,6.42534615 C31.6232692,5.71723077 30.2894231,5.40011538 29.4073846,5.21246154 C28.9791154,5.13138462 28.6515385,5.06926923 28.4109231,5.02415385 C28.1814231,4.98753846 28.0761538,4.96530769 28.0800769,4.96007692 C28.0846538,4.95484615 28.1997308,4.96203846 28.4161538,4.98361538 C28.6391154,5.01042308 28.9751923,5.05096154 29.4217692,5.13073077 C30.3129615,5.29223077 31.6605385,5.5845 33.3781923,6.27430769 L33.2938462,6.28738462 C34.3445769,5.39488462 35.6058462,4.32388462 37.1436923,3.01815385 L37.2136538,2.95865385 L37.2875385,3.01423077 C39.1725769,4.43569231 41.3747308,6.09711538 43.9593846,8.04623077 L44.0561538,8.11880769 L44.0058077,8.22996154 C43.3624231,9.65338462 42.6817692,11.1598462 41.9259231,12.8330385 L41.9056538,12.6591154 C42.9707692,14.0217308 43.9266923,15.5883462 44.6871154,17.3981923 L44.5328077,17.2850769 C46.1340769,17.4223846 47.7941923,17.5642692 49.5635,17.7159615 L49.7197692,17.7296923 L49.7413462,17.8859615 C50.1016154,20.5033077 50.4801923,23.2520769 50.881,26.1643077 L50.9045385,26.3336538 L50.7436923,26.3938077 C49.2097692,26.9705 47.6385769,27.5609231 46.0176923,28.1696538 L46.1608846,27.9885385 C45.9398846,29.7755 45.4776154,31.5755385 44.7616538,33.3160769 L44.7250385,33.0800385 C45.7888462,34.3465385 46.8716154,35.6352692 47.974,36.9475385 L48.0956154,37.0920385 L47.9805385,37.2430769 C46.3374231,39.4066538 44.6524615,41.6258077 42.9269615,43.8972692 L42.8086154,44.0528846 L42.6301154,43.9718077 C41.1184231,43.2839615 39.5871154,42.5876154 38.0322692,41.8808077 L38.2879231,41.8507308 C36.8514231,42.9701154 35.2481923,43.9136154 33.5253077,44.6308846 L33.6796154,44.4203462 C33.5344615,46.0804615 33.3873462,47.7569231 33.2395769,49.4503846 L33.2219231,49.6530769 L33.0198846,49.6805385 C30.2985769,50.0506154 27.5373846,50.4265769 24.7389231,50.8071154 L24.5355769,50.8345769 L24.4636538,50.6423462 C24.1713846,49.8596923 23.8771538,49.0737692 23.5822692,48.2845769 L23.1389615,47.0985 L22.9166538,46.5041538 L22.8055,46.2066538 L22.7499231,46.0575769 L22.7224615,45.9830385 L22.7087308,45.9457692 L22.7021923,45.9274615 L22.6982692,45.9183077 L22.6963077,45.9137308 C23.1141154,46.2439231 22.8113846,46.0052692 22.9042308,46.0785 L22.9029231,46.0785 L22.9003077,46.0778462 C21.0198462,45.8450769 19.1910385,45.3403077 17.5721154,44.6694615 L17.8349615,44.6289231 C16.5056923,45.7424231 15.1855769,46.8480769 13.9622308,47.8726538 L13.8053077,48.0040769 L13.6431538,47.8805 C11.356,46.138 9.10023077,44.4196923 6.9955,42.8164615 L6.83530769,42.6941923 L6.919,42.5111154 C7.64346154,40.9255385 8.36073077,39.3556538 9.01784615,37.9165385 L9.04792308,38.1721923 C7.87230769,36.6624615 6.936,35.0036538 6.27430769,33.4076154 L6.47830769,33.5573462 C4.73580769,33.4017308 3.01619231,33.2487308 1.44957692,33.1088077 L1.25865385,33.0918077 L1.23315385,32.9021923 C0.846730769,30.0265769 0.469461538,27.2215769 0.119653846,24.6199231 L0.0954615385,24.4381538 L0.266769231,24.3740769 C1.91446154,23.7614231 3.53142308,23.1598846 4.99865385,22.6139231 L4.85611538,22.7937308 C5.09607692,20.8805769 5.61326923,19.0530769 6.27103846,17.4720769 L6.30438462,17.6898077 C5.17323077,16.3343846 4.06953846,15.0123077 3.06784615,13.8118462 L2.96388462,13.6869615 L3.06196154,13.5588077 C4.84303846,11.2298077 6.53911538,9.01130769 8.13776923,6.92096154 L8.22734615,6.80392308 L8.36007692,6.86473077 C9.97115385,7.60423077 11.5194615,8.31561538 12.9507308,8.97273077 L12.7768077,8.993 C14.3146538,7.80430769 15.9361923,6.89938462 17.5296154,6.24292308 L17.4374231,6.36911538 C17.6041538,4.55796154 17.7597692,2.86515385 17.9003462,1.34169231 L17.9101538,1.23707692 L18.0128077,1.224 C21.3879615,0.785923077 24.1779231,0.423692308 26.2996538,0.148423077 L26.3656923,0.139923077 L26.3879231,0.201384615 C26.9397692,1.72942308 27.3641154,2.907 27.659,3.72430769 C27.7956538,4.114 27.9009231,4.41411538 27.9793846,4.63838462 C28.0506538,4.84630769 28.0846538,4.95419231 28.0800769,4.96007692 Z" id="Path"></path>
                                </g>
                                <g id="Group" transform="translate(75.000000, 27.000000)" fill-rule="nonzero">
                                    <g>
                                        <g>
                                            <rect id="Rectangle" fill="#F2F2F2" x="0.558348485" y="0.6383" width="299.721727" height="206.7156"></rect>
                                            <path d="M300.280727,207.3539 C300.280076,206.2359 300.227303,126.3951 300.143909,0.6383 L300.280727,0.7748 C217.164985,0.7839 113.155803,0.7956 0.583106061,0.80795 L0.559,0.80795 L0.728393939,0.63895 C0.723181818,74.4783 0.717969697,144.6159 0.713409091,207.35455 L0.558348485,207.19985 C177.446667,207.29085 298.90147,207.35325 300.280727,207.3539 C298.902773,207.35455 177.446667,207.41695 0.559,207.5086 L0.403939394,207.5086 L0.403939394,207.3539 C0.399378788,144.61525 0.394166667,74.47765 0.388954545,0.6383 L0.388954545,0.4693 L0.558348485,0.4693 L0.582454545,0.4693 C113.155152,0.48165 217.164333,0.49335 300.280076,0.50245 L300.416894,0.50245 L300.416894,0.63895 C300.334152,126.39575 300.281379,206.2372 300.280727,207.3539 Z" id="Path" fill="#263238"></path>
                                        </g>
                                        <rect id="Rectangle" stroke="#4A4A4A" stroke-width="0.3" fill="#F2F2F2" x="0.558348485" y="0.6383" width="299.721727" height="11.9951"></rect>
                                        <path d="M9.11013636,6.40835 C9.11013636,7.4256 8.28336364,8.25045 7.26374242,8.25045 C6.24412121,8.25045 5.41734848,7.4256 5.41734848,6.40835 C5.41734848,5.3911 6.24412121,4.56625 7.26374242,4.56625 C8.28401515,4.5669 9.11013636,5.3911 9.11013636,6.40835 Z" id="Path" fill="#4A4A4A"></path>
                                        <path d="M15.7699242,6.40835 C15.7699242,7.4256 14.9431515,8.25045 13.9235303,8.25045 C12.9039091,8.25045 12.0771364,7.4256 12.0771364,6.40835 C12.0771364,5.3911 12.9039091,4.56625 13.9235303,4.56625 C14.9431515,4.56625 15.7699242,5.3911 15.7699242,6.40835 Z" id="Path" fill="#4A4A4A"></path>
                                        <path d="M22.4290606,6.40835 C22.4290606,7.4256 21.6022879,8.25045 20.5826667,8.25045 C19.5630455,8.25045 18.7362727,7.4256 18.7362727,6.40835 C18.7362727,5.3911 19.5630455,4.56625 20.5826667,4.56625 C21.6022879,4.56625 22.4290606,5.3911 22.4290606,6.40835 Z" id="Path" fill="#4A4A4A"></path>
                                    </g>
                                    <g transform="translate(12.378788, 27.300000)">
                                        <path d="M277.179303,167.06105 C277.178,166.3129 277.142167,142.38315 277.07897,99.9167 L277.179303,100.0168 C215.355076,100.0324 114.378697,100.05775 0.484075758,100.0857 L0.467787879,100.0857 L0.637181818,99.9167 C0.635878788,122.9176 0.635227273,145.3894 0.633924242,167.06105 L0.467787879,166.8953 C158.256288,166.98955 275.532924,167.0604 277.179303,167.06105 C275.533576,167.06235 158.256288,167.13255 0.467136364,167.2268 L0.300348485,167.2268 L0.300348485,167.0604 C0.299045455,145.38875 0.298393939,122.91695 0.297090909,99.91605 L0.297090909,99.7464 L0.466484848,99.7464 L0.482772727,99.7464 C114.378045,99.775 215.353773,99.80035 277.178,99.81595 L277.278333,99.81595 L277.278333,99.91605 C277.216439,142.3838 277.180606,166.31355 277.179303,167.06105 Z" id="Path" fill="#4A4A4A"></path>
                                        <g transform="translate(0.651515, 0.000000)">
                                            <path d="M134.219939,94.2799 C134.219939,94.2799 134.210167,93.69425 134.204955,92.56975 C134.201697,91.44265 134.196485,89.7767 134.189318,87.59985 C134.1815,83.2429 134.169773,76.84625 134.154136,68.66405 C134.137197,52.3133 134.112439,28.83075 134.08247,0.28665 L134.219288,0.42315 C96.9747727,0.43225 50.5979697,0.4433 0.441727273,0.45565 L0.430651515,0.45565 L0.600045455,0.28665 C0.594833333,33.91115 0.589621212,65.8294 0.585060606,94.2799 L0.430651515,94.12585 C39.9300606,94.15705 73.3573485,94.1837 96.9161364,94.2019 C108.704,94.21945 118.02197,94.23375 124.397697,94.24285 C127.584909,94.25065 130.035909,94.25715 131.695318,94.26105 C132.521439,94.26495 133.1495,94.2682 133.576242,94.27015 C133.999727,94.27405 134.219939,94.2799 134.219939,94.2799 C134.219939,94.2799 134.012106,94.28575 133.594485,94.289 C133.171652,94.29095 132.549455,94.2942 131.7305,94.2981 C130.078258,94.30265 127.637682,94.3085 124.4635,94.3163 C118.095591,94.32605 108.79,94.3397 97.0171212,94.35725 C73.4342273,94.3761 39.9711061,94.4021 0.430651515,94.4333 L0.276242424,94.4333 L0.276242424,94.27925 C0.271681818,65.82875 0.266469697,33.9105 0.261257576,0.286 L0.261257576,0.11635 L0.430651515,0.11635 L0.441727273,0.11635 C50.5986212,0.1287 96.9747727,0.13975 134.219288,0.14885 L134.356758,0.14885 L134.356758,0.286 C134.326788,28.8665 134.302682,52.3783 134.285091,68.74985 C134.270106,76.9184 134.258379,83.3053 134.250561,87.65445 C134.244045,89.82025 134.238833,91.47775 134.234924,92.59835 C134.229712,93.71375 134.219939,94.2799 134.219939,94.2799 Z" id="Path" fill="#4A4A4A"></path>
                                            <path d="M14.8962424,76.5037 L24.5308485,62.5989 C26.4906061,59.7701 30.3931818,59.0915 33.1966515,61.0922 L34.5505,62.0581 C37.9129697,64.45725 42.6429697,62.94405 43.9798788,59.04145 L48.6584091,45.3856 C50.5614848,39.83135 58.4343939,39.83135 60.3374697,45.3856 L62.6014848,51.9935 C64.4172576,57.29425 71.808697,57.6173 74.0831364,52.4966 L76.0461515,48.07595 C78.0046061,43.66635 84.0545758,43.11385 86.7824697,47.09575 L86.7824697,47.09575 C89.6497879,51.2798 96.0730758,50.4088 97.716197,45.61245 L99.9052879,39.2236 C101.915864,33.35475 110.380348,33.8 111.761561,39.84695 L120.134182,76.5037 C120.134182,76.5037 15.1900758,76.21055 14.8962424,76.5037 Z" id="Path" fill="#035858"></path>
                                            <path d="M14.6252121,76.8638 L22.4544697,54.0124 C24.2891364,48.6577 31.8467121,48.56475 33.8123333,53.8733 L37.561803,63.99705 C39.1853788,68.37935 44.978,69.3225 47.9130758,65.68185 L50.9510909,61.91315 C52.9701364,59.4087 56.6062424,58.9303 59.2070909,60.8283 L66.2818939,65.9906 C67.3145455,66.74395 68.5608939,67.1502 69.8404697,67.1502 L78.8437576,67.1502 C80.1233333,67.1502 81.3696818,67.55645 82.4023333,68.3098 L89.1018636,73.19845 C91.849303,75.2037 95.7153939,74.542 97.6367121,71.73855 L103.924485,62.5625 C104.004621,62.4455 104.088015,62.3324 104.174667,62.2232 C106.698636,59.0356 111.755045,59.709 113.588409,63.336 L120.315303,76.648 C120.315303,76.648 14.6252121,76.4322 14.6252121,76.8638 Z" id="Path" fill="#007E7E"></path>
                                            <path d="M120.27947,76.6473507 L112.099045,70.00305 C100.878652,61.7695 95.5577273,77.44165 86.7375152,65.68185 L83.6995,61.91315 C81.6804545,59.4087 78.0443485,58.9303 75.4435,60.8283 L71.9272727,63.39385 C68.5823939,65.8346 64.5456061,67.1502 60.4013182,67.1502 L55.8068333,67.1502 C54.5272576,67.1502 53.2809091,67.55645 52.2482576,68.3098 L45.5487273,73.19845 C42.8012879,75.2037 40.8845303,75.47345 36.486803,71.7899 C36.486803,71.7899 31.7131515,67.9185 31.6004394,67.78135 C29.260197,64.93825 24.3705758,64.93955 22.2622727,67.78135 C21.7560455,68.46385 21.2270152,69.07095 20.6549848,69.70015 L14.3352879,76.6473507 C14.3352879,76.648 120.27947,76.21575 120.27947,76.6473507 Z" id="Path" fill="#43C0C0"></path>
                                            <path d="M43.6840909,23.8823 C43.6840909,23.9759 39.9404848,24.0513 35.3238485,24.0513 C30.7052576,24.0513 26.9629545,23.97525 26.9629545,23.8823 C26.9629545,23.7887 30.7059091,23.7133 35.3238485,23.7133 C39.9404848,23.7133 43.6840909,23.7887 43.6840909,23.8823 Z" id="Path" fill="#263238"></path>
                                            <rect id="Rectangle" fill="#007E7E" x="22.2746515" y="22.4549" width="2.86145455" height="2.8548"></rect>
                                            <path d="M75.2285,23.8823 C75.2285,23.9759 71.4848939,24.0513 66.8682576,24.0513 C62.2496667,24.0513 58.5067121,23.97525 58.5067121,23.8823 C58.5067121,23.7887 62.2496667,23.7133 66.8682576,23.7133 C71.4848939,23.7133 75.2285,23.7887 75.2285,23.8823 Z" id="Path" fill="#263238"></path>
                                            <rect id="Rectangle" fill="#007E7E" x="53.8190606" y="22.4549" width="2.86145455" height="2.8548"></rect>
                                            <path d="M106.772909,23.8823 C106.772909,23.9759 103.029303,24.0513 98.4126667,24.0513 C93.7940758,24.0513 90.0511212,23.97525 90.0511212,23.8823 C90.0511212,23.7887 93.7940758,23.7133 98.4126667,23.7133 C103.029303,23.7133 106.772909,23.7887 106.772909,23.8823 Z" id="Path" fill="#263238"></path>
                                            <rect id="Rectangle" fill="#007E7E" x="85.3634697" y="22.4549" width="2.86145455" height="2.8548"></rect>
                                        </g>
                                        <g transform="translate(107.500000, 109.200000)" id="Path">
                                            <path d="M0.339439394,46.3814 L7.22595455,36.5846 C8.0279697,35.44385 9.61831818,35.1936 10.7324091,36.0334 L14.3548333,38.76145 C15.5379848,39.6526 17.2371364,39.30875 17.9785606,38.0276 L28.4275606,19.97125 C29.2999394,18.4639 31.4212727,18.31115 32.5014848,19.67745 L39.0257576,27.9318 C40.0779545,29.263 42.1328333,29.159 43.0449545,27.72835 L47.8120909,20.25205 C48.806303,18.6927 51.104197,18.7421 52.0306515,20.3424 L55.9671061,27.14465 C56.8929091,28.74365 59.188197,28.79435 60.1837121,27.2376 L73.6433636,6.1906 C74.6010909,4.693 76.7849697,4.6696 77.7746212,6.1464 L100.012788,39.3341 C100.904061,40.66465 102.811697,40.8057 103.890606,39.6214 L117.401076,24.78385 C118.349682,23.7419 119.979121,23.70485 120.975288,24.70195 L131.72203,35.4627 C132.868697,36.6106 134.794576,36.3597 135.606364,34.95635 L154.832576,1.73355 C156.094561,-0.4472 159.436833,0.4459 159.436833,2.96465 L159.436833,46.3827 L0.339439394,46.3827 L0.339439394,46.3814 Z" fill="#007E7E"></path>
                                            <path d="M159.032242,51.8089 C159.028333,51.8089 159.024424,51.7465 159.020515,51.61845 C159.017909,51.47935 159.014,51.2889 159.009439,51.0341 C159.004879,50.49785 158.997712,49.70095 158.987288,48.61155 L159.031591,48.65575 C149.844576,48.7279 117.880591,48.78055 79.9213636,48.78055 C41.9491061,48.78055 9.98968182,48.7279 0.802666667,48.65575 L0.847621212,48.61155 C0.837848485,49.70095 0.830681818,50.49785 0.825469697,51.0341 C0.820257576,51.28825 0.817,51.47935 0.814393939,51.61845 C0.810484848,51.7465 0.806575758,51.8089 0.802666667,51.8089 C0.798757576,51.8089 0.794848485,51.7465 0.790939394,51.61845 C0.788333333,51.47935 0.784424242,51.2889 0.779863636,51.0341 C0.77530303,50.49785 0.768136364,49.70095 0.757712121,48.61155 L0.757060606,48.56735 L0.802015152,48.5667 C9.98837879,48.49455 41.9484545,48.4419 79.9207121,48.4419 C117.879939,48.4419 149.843924,48.49455 159.030939,48.5667 L159.075894,48.56735 L159.075242,48.61155 C159.06547,49.70095 159.058303,50.49785 159.053091,51.0341 C159.047879,51.28825 159.044621,51.47935 159.042015,51.61845 C159.040061,51.7465 159.036152,51.8089 159.032242,51.8089 Z" fill="#263238"></path>
                                            <path d="M18.3844545,51.5554 C18.2906364,51.5554 18.2150606,51.25445 18.2150606,50.88265 C18.2150606,50.51085 18.2912879,50.2099 18.3844545,50.2099 C18.4782727,50.2099 18.5538485,50.51085 18.5538485,50.88265 C18.5538485,51.25445 18.4782727,51.5554 18.3844545,51.5554 Z" fill="#263238"></path>
                                            <path d="M35.9655909,51.5554 C35.8717727,51.5554 35.796197,51.25445 35.796197,50.88265 C35.796197,50.51085 35.8724242,50.2099 35.9655909,50.2099 C36.0594091,50.2099 36.1349848,50.51085 36.1349848,50.88265 C36.1349848,51.25445 36.0594091,51.5554 35.9655909,51.5554 Z" fill="#263238"></path>
                                            <path d="M53.5467273,51.5554 C53.4529091,51.5554 53.3773333,51.25445 53.3773333,50.88265 C53.3773333,50.51085 53.4535606,50.2099 53.5467273,50.2099 C53.6405455,50.2099 53.7161212,50.51085 53.7161212,50.88265 C53.7161212,51.25445 53.6398939,51.5554 53.5467273,51.5554 Z" fill="#263238"></path>
                                            <path d="M71.1272121,51.5554 C71.0333939,51.5554 70.9578182,51.25445 70.9578182,50.88265 C70.9578182,50.51085 71.0340455,50.2099 71.1272121,50.2099 C71.2210303,50.2099 71.2966061,50.51085 71.2966061,50.88265 C71.2972576,51.25445 71.2210303,51.5554 71.1272121,51.5554 Z" fill="#263238"></path>
                                            <path d="M88.7083485,51.5554 C88.6145303,51.5554 88.5389545,51.25445 88.5389545,50.88265 C88.5389545,50.51085 88.6151818,50.2099 88.7083485,50.2099 C88.8015152,50.2099 88.8777424,50.51085 88.8777424,50.88265 C88.8783939,51.25445 88.8021667,51.5554 88.7083485,51.5554 Z" fill="#263238"></path>
                                            <path d="M106.289485,51.5554 C106.195667,51.5554 106.120091,51.25445 106.120091,50.88265 C106.120091,50.51085 106.195667,50.2099 106.289485,50.2099 C106.383303,50.2099 106.458879,50.51085 106.458879,50.88265 C106.458879,51.25445 106.383303,51.5554 106.289485,51.5554 Z" fill="#263238"></path>
                                            <path d="M123.870621,51.5554 C123.776803,51.5554 123.701227,51.25445 123.701227,50.88265 C123.701227,50.51085 123.777455,50.2099 123.870621,50.2099 C123.964439,50.2099 124.040015,50.51085 124.040015,50.88265 C124.040015,51.25445 123.963788,51.5554 123.870621,51.5554 Z" fill="#263238"></path>
                                            <path d="M141.451106,51.5554 C141.357288,51.5554 141.281712,51.25445 141.281712,50.88265 C141.281712,50.51085 141.357939,50.2099 141.451106,50.2099 C141.544924,50.2099 141.6205,50.51085 141.6205,50.88265 C141.621152,51.25445 141.544924,51.5554 141.451106,51.5554 Z" fill="#263238"></path>
                                        </g>
                                        <g transform="translate(143.984848, 8.450000)">
                                            <path d="M134.066833,64.2967 C134.066833,64.2967 134.058364,63.9067 134.053803,63.1579 C134.050545,62.4052 134.045985,61.29565 134.040121,59.8416 C134.032955,56.9283 134.02253,52.6422 134.008848,47.125 C133.993212,36.10035 133.970409,20.163 133.941742,0.4875 L134.066182,0.61165 C99.202303,0.62335 52.0677879,0.63895 0.286666667,0.6565 L0.277545455,0.6565 L0.446939394,0.4875 C0.443681818,22.9528 0.440424242,44.53995 0.437818182,64.2967 L0.277545455,64.1368 C39.2570455,64.168 72.6830303,64.194 96.3708182,64.2135 C108.223833,64.23235 117.638227,64.2473 124.096045,64.2577 C127.323652,64.26615 129.811788,64.2733 131.498561,64.27785 C132.337712,64.2824 132.976848,64.28565 133.411409,64.2876 C133.842712,64.2902 134.066833,64.2967 134.066833,64.2967 C134.066833,64.2967 133.855742,64.3032 133.430955,64.30645 C133.000303,64.3084 132.367682,64.31165 131.536348,64.3162 C129.857394,64.32075 127.380333,64.32725 124.167061,64.33635 C117.717712,64.34675 108.315045,64.3617 96.4783182,64.38055 C72.7638182,64.3994 39.3000455,64.42605 0.27819697,64.45725 L0.117924242,64.45725 L0.117924242,64.29735 C0.115318182,44.5406 0.112060606,22.95345 0.10880303,0.48815 L0.10880303,0.3185 L0.27819697,0.3185 L0.287318182,0.3185 C52.0677879,0.33605 99.2029545,0.35165 134.066833,0.36335 L134.191924,0.36335 L134.191924,0.4875 C134.163909,20.19485 134.141106,36.1582 134.124818,47.20105 C134.111136,52.7059 134.100712,56.9829 134.093545,59.8897 C134.087682,61.33335 134.083121,62.43575 134.079864,63.18325 C134.075955,63.9236 134.066833,64.2967 134.066833,64.2967 Z" id="Path" fill="#4A4A4A"></path>
                                            <g transform="translate(9.772727, 13.000000)">
                                                <g id="Path">
                                                    <path d="M94.0136364,15.3114 L1.85225758,15.3114 C1.00398485,15.3114 0.315984848,14.625 0.315984848,13.7787 C0.315984848,12.9324 1.00398485,12.246 1.85225758,12.246 L94.0136364,12.246 C94.8619091,12.246 95.5499091,12.9324 95.5499091,13.7787 C95.5492576,14.62565 94.8619091,15.3114 94.0136364,15.3114 Z" fill="#CBCBCB"></path>
                                                    <path d="M94.0136364,3.1759 L1.85225758,3.1759 C1.00398485,3.1759 0.315984848,2.4895 0.315984848,1.6432 C0.315984848,0.7969 1.00398485,0.1105 1.85225758,0.1105 L94.0136364,0.1105 C94.8619091,0.1105 95.5499091,0.7969 95.5499091,1.6432 C95.5492576,2.4895 94.8619091,3.1759 94.0136364,3.1759 Z" fill="#C4DFDF"></path>
                                                    <path d="M43.495803,15.3114 L1.85225758,15.3114 C1.00398485,15.3114 0.315984848,14.625 0.315984848,13.7787 C0.315984848,12.9324 1.00398485,12.246 1.85225758,12.246 L43.495803,12.246 C44.3440758,12.246 45.0320758,12.9324 45.0320758,13.7787 C45.0314242,14.62565 44.3434242,15.3114 43.495803,15.3114 Z" fill="#455A64"></path>
                                                </g>
                                                <g transform="translate(102.287879, 11.700000)" fill="#263238">
                                                    <polygon id="Path" points="3.40937879 2.7326 2.72854545 2.7326 2.72854545 3.6114 2.23143939 3.6114 2.23143939 2.7326 0.239757576 2.7326 0.239757576 2.3751 2.07312121 0.03575 2.62625758 0.03575 0.870424242 2.29385 2.24707576 2.29385 2.24707576 1.51775 2.72854545 1.51775 2.72854545 2.29385 3.40937879 2.29385"></polygon>
                                                    <path d="M6.21545455,2.53825 C6.21545455,3.1564 5.7750303,3.6517 4.859,3.6517 C4.35212121,3.6517 3.85045455,3.48855 3.54293939,3.2175 L3.77878788,2.8145 C4.01919697,3.0394 4.41857576,3.19735 4.85378788,3.19735 C5.3965,3.19735 5.70401515,2.9471 5.70401515,2.55905 C5.70401515,2.1554 5.44731818,1.90515 4.61859091,1.90515 L3.80419697,1.90515 L3.99378788,0.0351 L6.01609091,0.0351 L6.01609091,0.4797 L4.42443939,0.4797 L4.32736364,1.46055 L4.72674242,1.46055 C5.79522727,1.4612 6.21545455,1.90515 6.21545455,2.53825 Z" id="Path"></path>
                                                    <path d="M6.53274242,0.98085 C6.53274242,0.39845 6.87087879,0.0052 7.36668182,0.0052 C7.86378788,0.0052 8.19606061,0.39325 8.19606061,0.98085 C8.19606061,1.56845 7.86313636,1.9565 7.36668182,1.9565 C6.87087879,1.9565 6.53274242,1.5626 6.53274242,0.98085 Z M7.869,0.98085 C7.869,0.55185 7.67940909,0.2964 7.36733333,0.2964 C7.0604697,0.2964 6.86566667,0.55705 6.86566667,0.98085 C6.86566667,1.40465 7.0604697,1.6653 7.36733333,1.6653 C7.67940909,1.6653 7.869,1.40985 7.869,0.98085 Z M9.52775758,0.03575 L9.92192424,0.03575 L7.47418182,3.6114 L7.08001515,3.6114 L9.52775758,0.03575 Z M8.80587879,2.6663 C8.80587879,2.0839 9.13880303,1.69065 9.63460606,1.69065 C10.1317121,1.69065 10.469197,2.0839 10.469197,2.6663 C10.469197,3.24805 10.1310606,3.64195 9.63460606,3.64195 C9.13880303,3.64195 8.80587879,3.2487 8.80587879,2.6663 Z M10.1369242,2.6663 C10.1369242,2.2425 9.94212121,1.98185 9.63460606,1.98185 C9.3225303,1.98185 9.13293939,2.2373 9.13293939,2.6663 C9.13293939,3.0953 9.32187879,3.35075 9.63460606,3.35075 C9.94277273,3.35075 10.1369242,3.0901 10.1369242,2.6663 Z" id="Shape"></path>
                                                </g>
                                            </g>
                                            <g transform="translate(9.772727, 35.750000)">
                                                <g transform="translate(0.000000, 0.650000)" id="Path">
                                                    <path d="M94.0136364,3.14925 L1.85225758,3.14925 C1.00398485,3.14925 0.315984848,2.46285 0.315984848,1.61655 C0.315984848,0.77025 1.00398485,0.08385 1.85225758,0.08385 L94.0136364,0.08385 C94.8619091,0.08385 95.5499091,0.77025 95.5499091,1.61655 C95.5499091,2.46285 94.8619091,3.14925 94.0136364,3.14925 Z" fill="#CBCBCB"></path>
                                                    <path d="M57.0636061,3.14925 L1.94672727,3.14925 C0.802015152,3.14925 0.315984848,2.46285 0.315984848,1.61655 C0.315984848,0.77025 0.802015152,0.08385 1.40075758,0.08385 L56.5176364,0.08385 C57.597197,0.08385 58.2819394,0.77025 58.2819394,1.61655 C58.2819394,2.8717 57.1170303,3.14925 57.0636061,3.14925 Z" fill="#455A64"></path>
                                                </g>
                                                <g transform="translate(102.287879, 0.000000)" fill="#263238">
                                                    <polygon id="Path" points="2.9025 0.2236 2.9025 0.57135 1.4535303 3.79925 0.910818182 3.79925 2.32916667 0.6682 0.690606061 0.6682 0.690606061 1.3065 0.198712121 1.3065 0.198712121 0.2236"></polygon>
                                                    <path d="M3.25040909,2.01175 C3.25040909,0.84695 3.87521212,0.1833 4.71501515,0.1833 C5.54895455,0.1833 6.17375758,0.8476 6.17375758,2.01175 C6.17375758,3.17655 5.54895455,3.8402 4.71501515,3.8402 C3.87521212,3.8402 3.25040909,3.17655 3.25040909,2.01175 Z M5.66166667,2.01175 C5.66166667,1.0972 5.27271212,0.63765 4.71501515,0.63765 C4.15145455,0.63765 3.7625,1.0972 3.7625,2.01175 C3.7625,2.9263 4.15145455,3.38585 4.71501515,3.38585 C5.27336364,3.3852 5.66166667,2.92565 5.66166667,2.01175 Z" id="Shape"></path>
                                                    <path d="M6.60962121,1.1687 C6.60962121,0.5863 6.94710606,0.19305 7.44356061,0.19305 C7.94066667,0.19305 8.27293939,0.5811 8.27293939,1.1687 C8.27293939,1.75565 7.94001515,2.14435 7.44356061,2.14435 C6.94775758,2.14435 6.60962121,1.7511 6.60962121,1.1687 Z M7.94587879,1.1687 C7.94587879,0.7397 7.75628788,0.48425 7.44421212,0.48425 C7.13734848,0.48425 6.94254545,0.7449 6.94254545,1.1687 C6.94254545,1.5925 7.13734848,1.85315 7.44421212,1.85315 C7.75628788,1.85315 7.94587879,1.5977 7.94587879,1.1687 Z M9.60463636,0.2236 L9.99945455,0.2236 L7.55171212,3.79925 L7.15754545,3.79925 L9.60463636,0.2236 Z M8.88340909,2.8548 C8.88340909,2.2724 9.21633333,1.87915 9.71213636,1.87915 C10.2092424,1.87915 10.5467273,2.2724 10.5467273,2.8548 C10.5467273,3.4372 10.2092424,3.83045 9.71213636,3.83045 C9.21568182,3.83045 8.88340909,3.43655 8.88340909,2.8548 Z M10.2144545,2.8548 C10.2144545,2.431 10.0196515,2.17035 9.71213636,2.17035 C9.40006061,2.17035 9.2104697,2.4258 9.2104697,2.8548 C9.2104697,3.2838 9.39940909,3.53925 9.71213636,3.53925 C10.0196515,3.5386 10.2144545,3.27795 10.2144545,2.8548 Z" id="Shape"></path>
                                                </g>
                                            </g>
                                            <g transform="translate(9.772727, 46.800000)">
                                                <g transform="translate(0.000000, 0.650000)" id="Path">
                                                    <path d="M94.0136364,3.0706 L1.85225758,3.0706 C1.00398485,3.0706 0.315984848,2.3842 0.315984848,1.5379 C0.315984848,0.6916 1.00398485,0.0052 1.85225758,0.0052 L94.0136364,0.0052 C94.8619091,0.0052 95.5499091,0.6916 95.5499091,1.5379 C95.5499091,2.3842 94.8619091,3.0706 94.0136364,3.0706 Z" fill="#CBCBCB"></path>
                                                    <path d="M36.0835152,3.0706 L1.85225758,3.0706 C1.00398485,3.0706 0.315984848,2.3842 0.315984848,1.5379 C0.315984848,0.6916 1.00398485,0.0052 1.85225758,0.0052 L36.0835152,0.0052 C36.9317879,0.0052 37.6197879,0.6916 37.6197879,1.5379 C37.6197879,2.3842 36.9317879,3.0706 36.0835152,3.0706 Z" fill="#455A64"></path>
                                                </g>
                                                <g transform="translate(102.287879, 0.000000)" fill="#263238">
                                                    <path d="M2.80542424,2.6481 C2.80542424,3.26625 2.365,3.76155 1.4489697,3.76155 C0.942090909,3.76155 0.440424242,3.59775 0.132909091,3.32735 L0.368106061,2.9237 C0.608515152,3.1486 1.00789394,3.30655 1.44310606,3.30655 C1.98581818,3.30655 2.29333333,3.0563 2.29333333,2.66825 C2.29333333,2.2646 2.03663636,2.01435 1.20790909,2.01435 L0.393515152,2.01435 L0.583106061,0.1443 L2.60540909,0.1443 L2.60540909,0.5889 L1.01375758,0.5889 L0.916681818,1.56975 L1.31606061,1.56975 C2.38519697,1.5704 2.80542424,2.015 2.80542424,2.6481 Z" id="Path"></path>
                                                    <path d="M3.23021212,1.9331 C3.23021212,0.7683 3.85501515,0.10465 4.69481818,0.10465 C5.52875758,0.10465 6.15356061,0.76895 6.15356061,1.9331 C6.15356061,3.0979 5.52875758,3.76155 4.69481818,3.76155 C3.85501515,3.76155 3.23021212,3.0979 3.23021212,1.9331 Z M5.6414697,1.9331 C5.6414697,1.01855 5.25251515,0.559 4.69481818,0.559 C4.13125758,0.559 3.74230303,1.01855 3.74230303,1.9331 C3.74230303,2.84765 4.13125758,3.3072 4.69481818,3.3072 C5.25251515,3.30655 5.6414697,2.847 5.6414697,1.9331 Z" id="Shape"></path>
                                                    <path d="M6.58942424,1.09005 C6.58942424,0.50765 6.92756061,0.1144 7.42336364,0.1144 C7.9204697,0.1144 8.25274242,0.50245 8.25274242,1.09005 C8.25274242,1.677 7.91981818,2.0657 7.42336364,2.0657 C6.92756061,2.0657 6.58942424,1.67245 6.58942424,1.09005 Z M7.92568182,1.09005 C7.92568182,0.66105 7.73609091,0.4056 7.42336364,0.4056 C7.1165,0.4056 6.92169697,0.66625 6.92169697,1.09005 C6.92169697,1.51385 7.1165,1.7745 7.42336364,1.7745 C7.73609091,1.7745 7.92568182,1.51905 7.92568182,1.09005 Z M9.58443939,0.14495 L9.97860606,0.14495 L7.53086364,3.7206 L7.13669697,3.7206 L9.58443939,0.14495 Z M8.86256061,2.77615 C8.86256061,2.19375 9.19548485,1.8005 9.69128788,1.8005 C10.1883939,1.8005 10.5258788,2.19375 10.5258788,2.77615 C10.5258788,3.35855 10.1877424,3.7518 9.69128788,3.7518 C9.19548485,3.75115 8.86256061,3.3579 8.86256061,2.77615 Z M10.1936061,2.77615 C10.1936061,2.35235 9.99880303,2.0917 9.69128788,2.0917 C9.37921212,2.0917 9.18962121,2.34715 9.18962121,2.77615 C9.18962121,3.20515 9.37856061,3.4606 9.69128788,3.4606 C9.99945455,3.45995 10.1936061,3.1993 10.1936061,2.77615 Z" id="Shape"></path>
                                                </g>
                                            </g>
                                            <g transform="translate(9.772727, 12.350000)">
                                                <path d="M62.8666515,3.8259 L1.85225758,3.8259 C1.00398485,3.8259 0.315984848,3.1395 0.315984848,2.2932 C0.315984848,1.4469 1.00398485,0.7605 1.85225758,0.7605 L62.8666515,0.7605 C63.7149242,0.7605 64.4029242,1.4469 64.4029242,2.2932 C64.4029242,3.1395 63.7149242,3.8259 62.8666515,3.8259 Z" id="Path" fill="#007E7E"></path>
                                                <g transform="translate(102.287879, 0.000000)" fill="#263238" id="Shape">
                                                    <path d="M3.06668182,2.7378 C3.06668182,3.42745 2.50898485,3.86685 1.79687879,3.86685 C0.833939394,3.86685 0.291227273,3.22335 0.291227273,2.0839 C0.291227273,0.8632 0.982484848,0.2093 1.9864697,0.2093 C2.32460606,0.2093 2.64710606,0.2756 2.87709091,0.4186 L2.68228788,0.81705 C2.49790909,0.69485 2.25228788,0.6487 1.99624242,0.6487 C1.26915152,0.6487 0.803318182,1.10305 0.803318182,1.9968 C0.803318182,2.03775 0.803318182,2.0787 0.808530303,2.12485 C1.01310606,1.81805 1.39163636,1.6549 1.83727273,1.6549 C2.54937879,1.6549 3.06668182,2.0787 3.06668182,2.7378 Z M2.56957576,2.75795 C2.56957576,2.33935 2.25228788,2.06895 1.75062121,2.06895 C1.26393939,2.06895 0.92580303,2.3699 0.92580303,2.7638 C0.92580303,3.13105 1.22289394,3.45345 1.7760303,3.45345 C2.24186364,3.4528 2.56957576,3.1824 2.56957576,2.75795 Z"></path>
                                                    <path d="M3.45042424,2.03775 C3.45042424,0.8736 4.07522727,0.2093 4.9150303,0.2093 C5.7489697,0.2093 6.37377273,0.8736 6.37377273,2.03775 C6.37377273,3.20255 5.7489697,3.86685 4.9150303,3.86685 C4.07522727,3.86685 3.45042424,3.20255 3.45042424,2.03775 Z M5.86168182,2.03775 C5.86168182,1.1232 5.47272727,0.66365 4.9150303,0.66365 C4.3514697,0.66365 3.96251515,1.1232 3.96251515,2.03775 C3.96251515,2.9523 4.3514697,3.41185 4.9150303,3.41185 C5.47272727,3.41185 5.86168182,2.9523 5.86168182,2.03775 Z"></path>
                                                    <path d="M6.80963636,1.19535 C6.80963636,0.61295 7.14777273,0.2197 7.64357576,0.2197 C8.14068182,0.2197 8.47295455,0.60775 8.47295455,1.19535 C8.47295455,1.78295 8.1400303,2.171 7.64357576,2.171 C7.14777273,2.171 6.80963636,1.7771 6.80963636,1.19535 Z M8.14589394,1.19535 C8.14589394,0.76635 7.95630303,0.5109 7.64422727,0.5109 C7.33736364,0.5109 7.14256061,0.77155 7.14256061,1.19535 C7.14256061,1.61915 7.33736364,1.8798 7.64422727,1.8798 C7.95630303,1.8798 8.14589394,1.62435 8.14589394,1.19535 Z M9.80465152,0.25025 L10.1988182,0.25025 L7.75107576,3.8259 L7.35756061,3.8259 L9.80465152,0.25025 Z M9.08277273,2.8808 C9.08277273,2.2984 9.41569697,1.90515 9.9115,1.90515 C10.4086061,1.90515 10.7460909,2.2984 10.7460909,2.8808 C10.7460909,3.46255 10.4079545,3.85645 9.9115,3.85645 C9.41569697,3.85645 9.08277273,3.4632 9.08277273,2.8808 Z M10.4138182,2.8808 C10.4138182,2.457 10.2190152,2.19635 9.91215152,2.19635 C9.59942424,2.19635 9.41048485,2.4518 9.41048485,2.8808 C9.41048485,3.3098 9.59942424,3.56525 9.91215152,3.56525 C10.2190152,3.56525 10.4138182,3.3046 10.4138182,2.8808 Z"></path>
                                                </g>
                                            </g>
                                        </g>
                                        <path d="M245.622515,79.2844 C245.622515,79.378 223.065106,79.4534 195.244758,79.4534 C167.415288,79.4534 144.862439,79.37735 144.862439,79.2844 C144.862439,79.1908 167.415288,79.1154 195.244758,79.1154 C223.064455,79.1154 245.622515,79.1908 245.622515,79.2844 Z" id="Path" fill="#4A4A4A"></path>
                                        <path d="M245.622515,85.2449 C245.622515,85.3385 223.065106,85.41455 195.244758,85.41455 C167.415288,85.41455 144.862439,85.3385 144.862439,85.2449 C144.862439,85.1513 167.415288,85.0759 195.244758,85.0759 C223.064455,85.07525 245.622515,85.1513 245.622515,85.2449 Z" id="Path" fill="#4A4A4A"></path>
                                        <path d="M245.622515,90.63535 C245.622515,90.72895 223.065106,90.80435 195.244758,90.80435 C167.415288,90.80435 144.862439,90.7283 144.862439,90.63535 C144.862439,90.5424 167.415288,90.46635 195.244758,90.46635 C223.064455,90.46635 245.622515,90.54175 245.622515,90.63535 Z" id="Path" fill="#4A4A4A"></path>
                                        <g transform="translate(16.287879, 113.750000)">
                                            <g>
                                                <g transform="translate(0.651515, 0.000000)" id="Path">
                                                    <path d="M1.94477273,37.93855 L1.94477273,37.93855 C0.94469697,37.93855 0.134212121,37.12995 0.134212121,36.13155 L0.134212121,2.236 C0.134212121,1.23825 0.94469697,0.429 1.94477273,0.429 L1.94477273,0.429 C2.94484848,0.429 3.75598485,1.2376 3.75598485,2.236 L3.75598485,36.1322 C3.75598485,37.12995 2.94484848,37.93855 1.94477273,37.93855 Z" fill="#C4DFDF"></path>
                                                    <path d="M1.94477273,38.09845 L1.94477273,38.09845 C0.94469697,38.09845 0.134212121,37.28985 0.134212121,36.29145 L0.134212121,14.43975 C0.134212121,13.442 0.94469697,12.6334 1.94477273,12.6334 L1.94477273,12.6334 C2.94484848,12.6334 3.75598485,13.442 3.75598485,14.43975 L3.75598485,36.29145 C3.75598485,37.2892 2.94484848,38.09845 1.94477273,38.09845 Z" fill="#007E7E"></path>
                                                </g>
                                                <g transform="translate(0.000000, 39.000000)" fill="#263238">
                                                    <polygon id="Path" points="1.45678788 0.51285 1.45678788 3.52625 1.14601515 3.52625 1.14601515 0.78845 0.433909091 0.78845 0.433909091 0.51285"></polygon>
                                                    <path d="M2.17606061,2.01955 C2.17606061,1.05885 2.68098485,0.48685 3.38006061,0.48685 C4.07913636,0.48685 4.58862121,1.0595 4.58862121,2.01955 C4.58862121,2.9796 4.07913636,3.5516 3.38006061,3.5516 C2.68098485,3.55225 2.17606061,2.9796 2.17606061,2.01955 Z M4.26872727,2.01955 C4.26872727,1.2142 3.90648485,0.7709 3.38006061,0.7709 C2.85363636,0.7709 2.49139394,1.2142 2.49139394,2.01955 C2.49139394,2.82425 2.85428788,3.26755 3.38006061,3.26755 C3.90648485,3.26755 4.26872727,2.8249 4.26872727,2.01955 Z" id="Shape"></path>
                                                </g>
                                            </g>
                                            <g transform="translate(7.166667, 0.000000)">
                                                <g transform="translate(0.651515, 0.000000)" id="Path">
                                                    <path d="M2.01709091,37.93855 L2.01709091,37.93855 C1.01701515,37.93855 0.206530303,37.12995 0.206530303,36.13155 L0.206530303,2.236 C0.206530303,1.23825 1.01701515,0.429 2.01709091,0.429 L2.01709091,0.429 C3.01716667,0.429 3.82765152,1.2376 3.82765152,2.236 L3.82765152,36.1322 C3.82830303,37.12995 3.01716667,37.93855 2.01709091,37.93855 Z" fill="#C4DFDF"></path>
                                                    <path d="M2.01709091,38.09845 L2.01709091,38.09845 C1.01701515,38.09845 0.206530303,37.28985 0.206530303,36.29145 L0.206530303,7.5569 C0.206530303,6.55915 1.01701515,5.7499 2.01709091,5.7499 L2.01709091,5.7499 C3.01716667,5.7499 3.82765152,6.5585 3.82765152,7.5569 L3.82765152,36.29145 C3.82830303,37.2892 3.01716667,38.09845 2.01709091,38.09845 Z" fill="#007E7E"></path>
                                                </g>
                                                <g transform="translate(0.000000, 39.000000)" fill="#263238">
                                                    <path d="M2.23730303,3.25065 L2.23730303,3.52625 L0.119227273,3.52625 L0.119227273,3.30655 L1.37469697,2.07935 C1.71543939,1.74395 1.78059091,1.5418 1.78059091,1.33445 C1.78059091,0.98605 1.53431818,0.7709 1.07304545,0.7709 C0.719272727,0.7709 0.447590909,0.8788 0.248878788,1.10695 L0.0286666667,0.9178 C0.261909091,0.6422 0.637181818,0.48685 1.09910606,0.48685 C1.7115303,0.48685 2.09983333,0.7969 2.09983333,1.30065 C2.09983333,1.5886 2.00927273,1.8473 1.60337879,2.24315 L0.576590909,3.25065 L2.23730303,3.25065 L2.23730303,3.25065 Z" id="Path"></path>
                                                    <path d="M2.60606061,2.01955 C2.60606061,1.05885 3.11098485,0.48685 3.81006061,0.48685 C4.50913636,0.48685 5.01862121,1.0595 5.01862121,2.01955 C5.01862121,2.9796 4.50913636,3.5516 3.81006061,3.5516 C3.11098485,3.55225 2.60606061,2.9796 2.60606061,2.01955 Z M4.69872727,2.01955 C4.69872727,1.2142 4.33648485,0.7709 3.81006061,0.7709 C3.28363636,0.7709 2.92139394,1.2142 2.92139394,2.01955 C2.92139394,2.82425 3.28428788,3.26755 3.81006061,3.26755 C4.33648485,3.26755 4.69872727,2.8249 4.69872727,2.01955 Z" id="Shape"></path>
                                                </g>
                                            </g>
                                            <g transform="translate(14.333333, 0.000000)">
                                                <g transform="translate(0.651515, 0.000000)" id="Path">
                                                    <path d="M2.09006061,37.93855 L2.09006061,37.93855 C1.08998485,37.93855 0.2795,37.12995 0.2795,36.13155 L0.2795,2.236 C0.2795,1.23825 1.08998485,0.429 2.09006061,0.429 L2.09006061,0.429 C3.09013636,0.429 3.90062121,1.2376 3.90062121,2.236 L3.90062121,36.1322 C3.90062121,37.12995 3.09013636,37.93855 2.09006061,37.93855 Z" fill="#C4DFDF"></path>
                                                    <path d="M2.09006061,38.09845 L2.09006061,38.09845 C1.08998485,38.09845 0.2795,37.28985 0.2795,36.29145 L0.2795,19.6014 C0.2795,18.60365 1.08998485,17.79505 2.09006061,17.79505 L2.09006061,17.79505 C3.09013636,17.79505 3.90062121,18.60365 3.90062121,19.6014 L3.90062121,36.29145 C3.90062121,37.2892 3.09013636,38.09845 2.09006061,38.09845 Z" fill="#007E7E"></path>
                                                </g>
                                                <g transform="translate(0.000000, 39.000000)" fill="#263238">
                                                    <path d="M2.27118182,2.6611 C2.27118182,3.1642 1.90437879,3.55225 1.17533333,3.55225 C0.739469697,3.55225 0.32119697,3.40145 0.0879545455,3.1642 L0.239106061,2.91915 C0.433257576,3.12195 0.783121212,3.26755 1.17533333,3.26755 C1.67569697,3.26755 1.95193939,3.0355 1.95193939,2.66045 C1.95193939,2.2984 1.69719697,2.0618 1.13689394,2.0618 L0.921242424,2.0618 L0.921242424,1.83365 L1.75843939,0.7878 L0.21369697,0.7878 L0.21369697,0.5122 L2.15521212,0.5122 L2.15521212,0.7319 L1.30042424,1.8031 C1.94737879,1.83885 2.27118182,2.1788 2.27118182,2.6611 Z" id="Path"></path>
                                                    <path d="M2.70509091,2.01955 C2.70509091,1.05885 3.21001515,0.48685 3.90909091,0.48685 C4.60816667,0.48685 5.117,1.0595 5.117,2.01955 C5.117,2.9796 4.60751515,3.5516 3.90909091,3.5516 C3.21001515,3.55225 2.70509091,2.9796 2.70509091,2.01955 Z M4.79775758,2.01955 C4.79775758,1.2142 4.43551515,0.7709 3.90909091,0.7709 C3.38266667,0.7709 3.02042424,1.2142 3.02042424,2.01955 C3.02042424,2.82425 3.38331818,3.26755 3.90909091,3.26755 C4.43551515,3.26755 4.79775758,2.8249 4.79775758,2.01955 Z" id="Shape"></path>
                                                </g>
                                            </g>
                                            <g transform="translate(21.500000, 0.000000)">
                                                <g transform="translate(0.651515, 0.000000)" id="Path">
                                                    <path d="M2.16237879,37.93855 L2.16237879,37.93855 C1.16230303,37.93855 0.351818182,37.12995 0.351818182,36.13155 L0.351818182,2.236 C0.351818182,1.23825 1.16230303,0.429 2.16237879,0.429 L2.16237879,0.429 C3.16245455,0.429 3.97293939,1.2376 3.97293939,2.236 L3.97293939,36.1322 C3.97359091,37.12995 3.16245455,37.93855 2.16237879,37.93855 Z" fill="#C4DFDF"></path>
                                                    <path d="M2.16237879,38.09845 L2.16237879,38.09845 C1.16230303,38.09845 0.351818182,37.28985 0.351818182,36.29145 L0.351818182,7.5569 C0.351818182,6.55915 1.16230303,5.7499 2.16237879,5.7499 L2.16237879,5.7499 C3.16245455,5.7499 3.97293939,6.5585 3.97293939,7.5569 L3.97293939,36.29145 C3.97359091,37.2892 3.16245455,38.09845 2.16237879,38.09845 Z" fill="#007E7E"></path>
                                                </g>
                                                <g transform="translate(0.000000, 39.000000)" fill="#263238">
                                                    <polygon id="Path" points="2.8295303 2.7339 2.22557576 2.7339 2.22557576 3.52625 1.91480303 3.52625 1.91480303 2.7339 0.210439394 2.7339 0.210439394 2.5103 1.81056061 0.51285 2.15586364 0.51285 0.611121212 2.4583 1.92262121 2.4583 1.92262121 1.7615 2.22427273 1.7615 2.22427273 2.4583 2.82822727 2.4583 2.82822727 2.7339"></polygon>
                                                    <path d="M3.11163636,2.01955 C3.11163636,1.05885 3.61656061,0.48685 4.31563636,0.48685 C5.01471212,0.48685 5.52419697,1.0595 5.52419697,2.01955 C5.52419697,2.9796 5.01471212,3.5516 4.31563636,3.5516 C3.61656061,3.55225 3.11163636,2.9796 3.11163636,2.01955 Z M5.20430303,2.01955 C5.20430303,1.2142 4.84206061,0.7709 4.31563636,0.7709 C3.78921212,0.7709 3.4269697,1.2142 3.4269697,2.01955 C3.4269697,2.82425 3.78986364,3.26755 4.31563636,3.26755 C4.84206061,3.26755 5.20430303,2.8249 5.20430303,2.01955 Z" id="Shape"></path>
                                                </g>
                                            </g>
                                            <g transform="translate(28.666667, 0.000000)">
                                                <g transform="translate(0.651515, 0.000000)" id="Path">
                                                    <path d="M2.23534848,37.93855 L2.23534848,37.93855 C1.23527273,37.93855 0.424787879,37.12995 0.424787879,36.13155 L0.424787879,2.236 C0.424787879,1.23825 1.23527273,0.429 2.23534848,0.429 L2.23534848,0.429 C3.23542424,0.429 4.04590909,1.2376 4.04590909,2.236 L4.04590909,36.1322 C4.04590909,37.12995 3.23542424,37.93855 2.23534848,37.93855 Z" fill="#C4DFDF"></path>
                                                    <path d="M2.23534848,38.09845 L2.23534848,38.09845 C1.23527273,38.09845 0.424787879,37.28985 0.424787879,36.29145 L0.424787879,13.06305 C0.424787879,12.0653 1.23527273,11.25605 2.23534848,11.25605 L2.23534848,11.25605 C3.23542424,11.25605 4.04590909,12.0653 4.04590909,13.06305 L4.04590909,36.29145 C4.04590909,37.2892 3.23542424,38.09845 2.23534848,38.09845 Z" fill="#007E7E"></path>
                                                </g>
                                                <g transform="translate(0.000000, 39.000000)" fill="#263238">
                                                    <path d="M2.72528788,2.63965 C2.72528788,3.15185 2.36760606,3.55225 1.62943939,3.55225 C1.19357576,3.55225 0.779212121,3.40145 0.545969697,3.1642 L0.697121212,2.91915 C0.891272727,3.12195 1.23657576,3.26755 1.62487879,3.26755 C2.13827273,3.26755 2.40995455,3.01795 2.40995455,2.652 C2.40995455,2.2646 2.16824242,2.02345 1.40075758,2.02345 L0.757712121,2.02345 L0.912772727,0.51285 L2.56566667,0.51285 L2.56566667,0.78845 L1.18510606,0.78845 L1.08151515,1.7485 L1.46981818,1.7485 C2.38063636,1.74785 2.72528788,2.10535 2.72528788,2.63965 Z" id="Path"></path>
                                                    <path d="M3.11619697,2.01955 C3.11619697,1.05885 3.62112121,0.48685 4.32019697,0.48685 C5.01927273,0.48685 5.52810606,1.0595 5.52810606,2.01955 C5.52810606,2.9796 5.01862121,3.5516 4.32019697,3.5516 C3.62177273,3.5516 3.11619697,2.9796 3.11619697,2.01955 Z M5.20886364,2.01955 C5.20886364,1.2142 4.84662121,0.7709 4.32019697,0.7709 C3.79377273,0.7709 3.4315303,1.2142 3.4315303,2.01955 C3.4315303,2.82425 3.79442424,3.26755 4.32019697,3.26755 C4.84662121,3.26755 5.20886364,2.8249 5.20886364,2.01955 Z" id="Shape"></path>
                                                </g>
                                            </g>
                                            <g transform="translate(35.833333, 0.000000)">
                                                <g transform="translate(0.651515, 0.000000)" id="Path">
                                                    <path d="M2.30766667,37.93855 L2.30766667,37.93855 C1.30759091,37.93855 0.496454545,37.12995 0.496454545,36.13155 L0.496454545,2.236 C0.496454545,1.23825 1.30693939,0.429 2.30766667,0.429 L2.30766667,0.429 C3.30774242,0.429 4.11822727,1.2376 4.11822727,2.236 L4.11822727,36.1322 C4.11822727,37.12995 3.30774242,37.93855 2.30766667,37.93855 Z" fill="#C4DFDF"></path>
                                                    <path d="M2.30766667,37.93855 L2.30766667,37.93855 C1.30759091,37.93855 0.496454545,37.12995 0.496454545,36.29145 L0.496454545,19.6014 C0.496454545,18.44375 1.30693939,17.63515 2.30766667,17.63515 L2.30766667,17.63515 C3.30774242,17.63515 4.11822727,18.44375 4.11822727,19.4415 L4.11822727,36.13155 C4.11822727,37.12995 3.30774242,37.93855 2.30766667,37.93855 Z" fill="#007E7E"></path>
                                                </g>
                                                <g transform="translate(0.000000, 39.000000)" fill="#263238" id="Shape">
                                                    <path d="M2.7220303,2.62665 C2.7220303,3.1902 2.27769697,3.55225 1.69133333,3.55225 C0.888666667,3.55225 0.45280303,2.99715 0.45280303,2.04555 C0.45280303,1.02115 1.01375758,0.4875 1.83336364,0.4875 C2.10569697,0.4875 2.35978788,0.53495 2.5500303,0.6513 L2.42493939,0.9009 C2.26987879,0.7982 2.06269697,0.7592 1.83857576,0.7592 C1.18706061,0.7592 0.768136364,1.1765 0.768136364,1.9942 C0.768136364,2.06245 0.77269697,2.1489 0.781166667,2.23925 C0.932318182,1.90775 1.28609091,1.72315 1.70436364,1.72315 C2.30375758,1.7225 2.7220303,2.07545 2.7220303,2.62665 Z M2.41516667,2.6351 C2.41516667,2.23925 2.12198485,1.9851 1.6555,1.9851 C1.19422727,1.9851 0.878893939,2.2698 0.878893939,2.6442 C0.878893939,2.9757 1.15513636,3.28965 1.677,3.28965 C2.11351515,3.28965 2.41516667,3.0355 2.41516667,2.6351 Z"></path>
                                                    <path d="M3.07775758,2.01955 C3.07775758,1.05885 3.58268182,0.48685 4.28175758,0.48685 C4.98083333,0.48685 5.48966667,1.0595 5.48966667,2.01955 C5.48966667,2.9796 4.98018182,3.5516 4.28175758,3.5516 C3.58268182,3.55225 3.07775758,2.9796 3.07775758,2.01955 Z M5.17042424,2.01955 C5.17042424,1.2142 4.80818182,0.7709 4.28175758,0.7709 C3.75533333,0.7709 3.39309091,1.2142 3.39309091,2.01955 C3.39309091,2.82425 3.75598485,3.26755 4.28175758,3.26755 C4.80818182,3.26755 5.17042424,2.8249 5.17042424,2.01955 Z"></path>
                                                </g>
                                            </g>
                                            <g transform="translate(43.000000, 0.000000)">
                                                <g transform="translate(0.651515, 0.000000)" id="Path">
                                                    <path d="M2.37998485,37.93855 L2.37998485,37.93855 C1.37990909,37.93855 0.568772727,37.12995 0.568772727,36.13155 L0.568772727,2.236 C0.568772727,1.23825 1.37925758,0.429 2.37998485,0.429 L2.37998485,0.429 C3.38006061,0.429 4.19054545,1.2376 4.19054545,2.236 L4.19054545,36.1322 C4.19119697,37.12995 3.38006061,37.93855 2.37998485,37.93855 Z" fill="#C4DFDF"></path>
                                                    <path d="M2.37998485,38.09845 L2.37998485,38.09845 C1.37990909,38.09845 0.568772727,37.28985 0.568772727,36.29145 L0.568772727,5.83635 C0.568772727,4.8386 1.37925758,4.03 2.37998485,4.03 L2.37998485,4.03 C3.38006061,4.03 4.19054545,4.8386 4.19054545,5.83635 L4.19054545,36.29145 C4.19119697,37.2892 3.38006061,38.09845 2.37998485,38.09845 Z" fill="#007E7E"></path>
                                                </g>
                                                <g transform="translate(0.000000, 39.000000)" fill="#263238">
                                                    <polygon id="Path" points="2.64580303 0.51285 2.64580303 0.73255 1.38186364 3.52625 1.0450303 3.52625 2.2874697 0.78845 0.734257576 0.78845 0.734257576 1.352 0.428045455 1.352 0.428045455 0.51285"></polygon>
                                                    <path d="M2.96765152,2.01955 C2.96765152,1.05885 3.47257576,0.48685 4.17165152,0.48685 C4.87072727,0.48685 5.37956061,1.0595 5.37956061,2.01955 C5.37956061,2.9796 4.87007576,3.5516 4.17165152,3.5516 C3.47192424,3.55225 2.96765152,2.9796 2.96765152,2.01955 Z M5.05966667,2.01955 C5.05966667,1.2142 4.69742424,0.7709 4.171,0.7709 C3.64457576,0.7709 3.28233333,1.2142 3.28233333,2.01955 C3.28233333,2.82425 3.64522727,3.26755 4.171,3.26755 C4.69742424,3.26755 5.05966667,2.8249 5.05966667,2.01955 Z" id="Shape"></path>
                                                </g>
                                            </g>
                                            <g transform="translate(50.166667, 0.000000)">
                                                <g transform="translate(0.651515, 0.000000)" id="Path">
                                                    <path d="M2.45295455,37.93855 L2.45295455,37.93855 C1.45287879,37.93855 0.642393939,37.12995 0.642393939,36.13155 L0.642393939,2.236 C0.642393939,1.23825 1.45287879,0.429 2.45295455,0.429 L2.45295455,0.429 C3.4530303,0.429 4.26351515,1.2376 4.26351515,2.236 L4.26351515,36.1322 C4.26351515,37.12995 3.4530303,37.93855 2.45295455,37.93855 Z" fill="#C4DFDF"></path>
                                                    <path d="M2.45295455,38.09845 L2.45295455,38.09845 C1.45287879,38.09845 0.642393939,37.28985 0.642393939,36.29145 L0.642393939,23.0425 C0.642393939,22.04475 1.45287879,21.23615 2.45295455,21.23615 L2.45295455,21.23615 C3.4530303,21.23615 4.26351515,22.04475 4.26351515,23.0425 L4.26351515,36.29145 C4.26351515,37.2892 3.4530303,38.09845 2.45295455,38.09845 Z" fill="#007E7E"></path>
                                                </g>
                                                <g transform="translate(0.000000, 39.000000)" fill="#263238" id="Shape">
                                                    <path d="M2.74418182,2.6871 C2.74418182,3.22075 2.29137879,3.55225 1.57080303,3.55225 C0.845666667,3.55225 0.405893939,3.22075 0.405893939,2.6871 C0.405893939,2.32505 0.613075758,2.07155 0.988348485,1.9461 C0.682136364,1.8252 0.513393939,1.5977 0.513393939,1.2831 C0.513393939,0.79235 0.932318182,0.4862 1.57080303,0.4862 C2.20928788,0.4862 2.63668182,0.79235 2.63668182,1.2831 C2.63668182,1.59705 2.4640303,1.8252 2.15325758,1.9461 C2.53243939,2.07155 2.74418182,2.3296 2.74418182,2.6871 Z M2.42493939,2.68255 C2.42493939,2.3127 2.10569697,2.07935 1.57080303,2.07935 C1.03590909,2.07935 0.720575758,2.31205 0.720575758,2.68255 C0.720575758,3.05695 1.03525758,3.28965 1.57080303,3.28965 C2.10569697,3.28965 2.42493939,3.05695 2.42493939,2.68255 Z M1.57080303,1.8343 C2.04119697,1.8343 2.32134848,1.6237 2.32134848,1.2961 C2.32134848,0.95615 2.02360606,0.74945 1.57080303,0.74945 C1.11343939,0.74945 0.824166667,0.95615 0.824166667,1.2922 C0.824166667,1.6237 1.10040909,1.8343 1.57080303,1.8343 Z"></path>
                                                    <path d="M3.17287879,2.01955 C3.17287879,1.05885 3.67780303,0.48685 4.37687879,0.48685 C5.07595455,0.48685 5.58478788,1.0595 5.58478788,2.01955 C5.58478788,2.9796 5.07530303,3.5516 4.37687879,3.5516 C3.67780303,3.55225 3.17287879,2.9796 3.17287879,2.01955 Z M5.26554545,2.01955 C5.26554545,1.2142 4.90330303,0.7709 4.37687879,0.7709 C3.85045455,0.7709 3.48821212,1.2142 3.48821212,2.01955 C3.48821212,2.82425 3.85110606,3.26755 4.37687879,3.26755 C4.90330303,3.26755 5.26554545,2.8249 5.26554545,2.01955 Z"></path>
                                                </g>
                                            </g>
                                            <g transform="translate(57.333333, 0.000000)">
                                                <g transform="translate(1.303030, 0.000000)" id="Path">
                                                    <path d="M1.87375758,37.93855 L1.87375758,37.93855 C0.873681818,37.93855 0.0625454545,37.12995 0.0625454545,36.13155 L0.0625454545,2.236 C0.0625454545,1.23825 0.873030303,0.429 1.87375758,0.429 L1.87375758,0.429 C2.87383333,0.429 3.68431818,1.2376 3.68431818,2.236 L3.68431818,36.1322 C3.6849697,37.12995 2.87383333,37.93855 1.87375758,37.93855 Z" fill="#C4DFDF"></path>
                                                    <path d="M1.87375758,37.93855 L1.87375758,37.93855 C0.873681818,37.93855 0.0625454545,37.12995 0.0625454545,36.29145 L0.0625454545,31.6459 C0.0625454545,30.4889 0.873030303,29.67965 1.87375758,29.67965 L1.87375758,29.67965 C2.87383333,29.67965 3.68431818,30.4889 3.68431818,31.486 L3.68431818,36.13155 C3.6849697,37.12995 2.87383333,37.93855 1.87375758,37.93855 Z" fill="#007E7E"></path>
                                                </g>
                                                <g transform="translate(0.000000, 39.000000)" fill="#263238" id="Shape">
                                                    <path d="M2.6314697,1.99355 C2.6314697,3.01795 2.07051515,3.5516 1.25090909,3.5516 C0.979227273,3.5516 0.724484848,3.50415 0.534893939,3.3878 L0.659984848,3.1382 C0.81569697,3.2409 1.02222727,3.2799 1.247,3.2799 C1.89851515,3.2799 2.31678788,2.8626 2.31678788,2.0449 C2.31678788,1.97665 2.31287879,1.8902 2.30375758,1.79985 C2.15260606,2.13135 1.79883333,2.31595 1.37990909,2.31595 C0.780515152,2.31595 0.361590909,1.963 0.361590909,1.4118 C0.361590909,0.84825 0.805924242,0.4862 1.39293939,0.4862 C2.19625758,0.48685 2.6314697,1.0426 2.6314697,1.99355 Z M2.20472727,1.3949 C2.20472727,1.0634 1.92848485,0.74945 1.40662121,0.74945 C0.970757576,0.74945 0.668454545,1.0036 0.668454545,1.404 C0.668454545,1.79985 0.962287879,2.054 1.4274697,2.054 C1.89004545,2.054 2.20472727,1.76995 2.20472727,1.3949 Z"></path>
                                                    <path d="M3.07840909,2.01955 C3.07840909,1.05885 3.58333333,0.48685 4.28240909,0.48685 C4.98148485,0.48685 5.49031818,1.0595 5.49031818,2.01955 C5.49031818,2.9796 4.98083333,3.5516 4.28240909,3.5516 C3.58398485,3.5516 3.07840909,2.9796 3.07840909,2.01955 Z M5.17107576,2.01955 C5.17107576,1.2142 4.80883333,0.7709 4.28240909,0.7709 C3.75598485,0.7709 3.39374242,1.2142 3.39374242,2.01955 C3.39374242,2.82425 3.75663636,3.26755 4.28240909,3.26755 C4.80883333,3.26755 5.17107576,2.8249 5.17107576,2.01955 Z"></path>
                                                </g>
                                            </g>
                                            <g transform="translate(63.848485, 0.000000)">
                                                <g transform="translate(1.954545, 0.000000)" id="Path">
                                                    <path d="M1.94607576,37.93855 L1.94607576,37.93855 C0.946,37.93855 0.134863636,37.12995 0.134863636,36.13155 L0.134863636,2.236 C0.134863636,1.23825 0.945348485,0.429 1.94607576,0.429 L1.94607576,0.429 C2.94615152,0.429 3.75728788,1.2376 3.75728788,2.236 L3.75728788,36.1322 C3.75728788,37.12995 2.94680303,37.93855 1.94607576,37.93855 Z" fill="#C4DFDF"></path>
                                                    <path d="M1.94607576,37.93855 L1.94607576,37.93855 C0.946,37.93855 0.134863636,37.12995 0.134863636,36.29145 L0.134863636,19.6014 C0.134863636,18.44375 0.945348485,17.63515 1.94607576,17.63515 L1.94607576,17.63515 C2.94615152,17.63515 3.75728788,18.44375 3.75728788,19.4415 L3.75728788,36.13155 C3.75728788,37.12995 2.94680303,37.93855 1.94607576,37.93855 Z" fill="#007E7E"></path>
                                                </g>
                                                <g transform="translate(0.000000, 39.000000)" fill="#263238">
                                                    <polygon id="Path" points="1.30628788 0.51285 1.30628788 3.52625 0.995515152 3.52625 0.995515152 0.78845 0.283409091 0.78845 0.283409091 0.51285"></polygon>
                                                    <path d="M2.02556061,2.01955 C2.02556061,1.05885 2.53048485,0.48685 3.22956061,0.48685 C3.92863636,0.48685 4.4374697,1.0595 4.4374697,2.01955 C4.4374697,2.9796 3.92798485,3.5516 3.22956061,3.5516 C2.53048485,3.55225 2.02556061,2.9796 2.02556061,2.01955 Z M4.11822727,2.01955 C4.11822727,1.2142 3.75598485,0.7709 3.22956061,0.7709 C2.70313636,0.7709 2.34089394,1.2142 2.34089394,2.01955 C2.34089394,2.82425 2.70378788,3.26755 3.22956061,3.26755 C3.75598485,3.26755 4.11822727,2.8249 4.11822727,2.01955 Z" id="Shape"></path>
                                                    <path d="M4.87984848,2.01955 C4.87984848,1.05885 5.38477273,0.48685 6.08384848,0.48685 C6.78292424,0.48685 7.29175758,1.0595 7.29175758,2.01955 C7.29175758,2.9796 6.78227273,3.5516 6.08384848,3.5516 C5.38477273,3.55225 4.87984848,2.9796 4.87984848,2.01955 Z M6.97251515,2.01955 C6.97251515,1.2142 6.61027273,0.7709 6.08384848,0.7709 C5.55742424,0.7709 5.19518182,1.2142 5.19518182,2.01955 C5.19518182,2.82425 5.55807576,3.26755 6.08384848,3.26755 C6.60962121,3.26755 6.97251515,2.8249 6.97251515,2.01955 Z" id="Shape"></path>
                                                </g>
                                            </g>
                                        </g>
                                        <path d="M99.0381212,158.77355 C98.944303,158.77355 98.8687273,147.6176 98.8687273,133.8597 C98.8687273,120.0966 98.9449545,108.94325 99.0381212,108.94325 C99.1319394,108.94325 99.2075152,120.0966 99.2075152,133.8597 C99.2075152,147.6176 99.1312879,158.77355 99.0381212,158.77355 Z" id="Path" fill="#4A4A4A"></path>
                                        <path d="M141.167045,112.19325 C141.167045,112.28685 134.272712,112.36225 125.770439,112.36225 C117.264909,112.36225 110.37253,112.2862 110.37253,112.19325 C110.37253,112.09965 117.264909,112.02425 125.770439,112.02425 C134.273364,112.02425 141.167045,112.1003 141.167045,112.19325 Z" id="Path" fill="#263238"></path>
                                    </g>
                                </g>
                                <g id="0008" transform="translate(375.000000, 115.000000)" fill-rule="nonzero">
                                    <path d="M64.8067481,144.814815 C95.1075463,154.381914 170.005025,166.925298 170.005025,166.925298 L169.577952,168.201058 L53.0703518,168.201058 L64.8067481,144.814815 Z" id="Path" fill="#263238"></path>
                                    <polygon id="Path" fill="#1D2528" points="57.7658891 156.507937 53.0703518 168.201058 169.98204 168.201058 170.005025 168.132486"></polygon>
                                    <path d="M59.7786935,128.326816 C35.8171991,114.24515 33.7923992,110.908981 29.5591325,102.136478 C25.3258657,93.3639753 21.7826519,75.2351774 30.8752895,74.6640277 C39.9679271,74.0921343 56.3522236,104.594355 63.4654204,103.994946 C70.5786173,103.395536 73.0175976,136.1065 59.7786935,128.326816 Z" id="Path" fill="#455A64"></path>
                                    <path d="M65.4936703,104.08349 C64.0331004,106.906741 58.3730205,109.819303 55.1633365,106.660214 C41.7281762,93.4378028 40.0036032,81.3040966 33.1186971,77.7073115 C32.3579217,77.309473 26.6413227,78.2498186 26.2865917,77.3544974 C23.5647558,83.023881 26.3631898,94.8734168 29.5572567,101.44255 C33.7909757,110.149236 35.8159918,113.460374 59.780046,127.435652 C71.6616775,134.364981 70.9128008,108.946125 65.4936703,104.08349 Z" id="Path" fill="#2D393D"></path>
                                    <path d="M39.435628,83.6068259 C34.1655523,74.0723029 27.2018428,70.3303068 27.2018428,70.3303068 C27.2018428,70.3303068 8.2739592,64.4383692 2.03641196,80.2928893 C-4.20113528,96.1474093 17.0921752,145.21029 20.7490537,154.422841 C24.4059321,163.635392 28.4925496,166.634776 49.1408791,165.135455 L66.5628141,146.281552 C46.9899494,130.64069 42.8884363,89.8533777 39.435628,83.6068259 Z" id="Path" fill="#455A64"></path>
                                    <path d="M49.3062207,118.574323 C50.7272643,129.193593 38.6647789,140.045071 34.1730001,139.699355 C26.9903248,139.145912 17.4705244,112.514648 9.67638325,90.1128409 C7.5388596,83.9693331 6.55351334,78.4816471 6.38966135,73.7566138 C4.65804376,75.355365 3.14464722,77.474916 2.03641196,80.2918342 C-4.20113528,96.1465505 17.0921752,145.210039 20.7490537,154.422704 C24.4059321,163.635369 28.4925496,166.63479 49.1408791,165.13545 L66.5628141,146.281314 C58.5623684,139.887792 53.1492946,129.293747 49.3062207,118.574323 Z" id="Path" fill="#2D393D"></path>
                                    <polygon id="Path" fill="#CBCBCB" points="46.9820022 98.6097156 79.7092237 95.3439153 112.437186 100.569045 78.2345174 102.539683 46.7738693 99.8453219"></polygon>
                                    <polygon id="Path" fill="#A0A0A0" points="84.5527638 96.0586993 79.6584579 95.3439153 46.9816814 98.3270021 46.7738693 99.4556446 51.6911011 99.8412698"></polygon>
                                    <polygon id="Path" fill="#E3E2E2" points="88.3502006 44.0740741 80.0552764 95.6086792 112.597185 100.740741 123.231156 54.7654369"></polygon>
                                    <polygon id="Path" fill="#E9E9E9" points="88.1507538 44.0740741 112.536381 100.740741 123.231156 54.7654369"></polygon>
                                    <polygon id="Path" fill="#A0A0A0" points="90.8492462 44.9119356 88.1774358 44.0740741 80.0552764 95.7253815 83.2643334 96.2433862"></polygon>
                                    <path d="M26.9854623,129.302032 C6.68755817,110.751055 5.38042678,108.795324 3.0533812,99.3996823 C0.725602926,90.0040404 0.93735235,71.6401338 9.8242339,72.9207863 C18.7111155,74.2021782 28.2332453,105.805163 35.2158474,106.659917 C42.1991822,107.513932 38.2001222,139.552428 26.9854623,129.302032 Z" id="Path" fill="#455A64"></path>
                                    <path d="M35.1835278,106.745586 C30.7104718,106.201275 25.2053429,93.2276631 19.486401,83.4857582 C16.1911659,77.8725972 27.2916839,106.249543 34.3423329,107.107223 C39.8777952,107.780743 38.5764215,127.749457 32.2818861,131.322751 C39.2918441,129.137339 40.9579576,107.448067 35.1835278,106.745586 Z" id="Path" fill="#2D393D"></path>
                                    <path d="M27.0902053,114.331105 C6.78465813,95.9234501 5.49902373,92.2953321 3.17036894,82.9722794 C2.94607925,82.073504 2.74597766,81.0910874 2.57446201,80.0529101 C1.25291194,85.8556978 1.75939618,93.7671227 3.05162734,98.9411345 C5.38028213,108.264187 6.66591653,111.892305 26.9714637,130.29996 C36.579272,139.009644 40.901613,115.722923 37.5592567,108.318481 C35.7891273,114.560017 32.1850997,118.950444 27.0902053,114.331105 Z" id="Path" fill="#2D393D"></path>
                                    <path d="M64.481245,104.7747 C76.8804515,99.9860076 102.542714,100.791836 102.542714,100.791836 L99.3236465,105.26613 C99.3236465,105.26613 69.5828718,130.241668 62.4203374,127.517131 C54.9649604,124.680938 59.4456728,106.719119 64.481245,104.7747 Z" id="Path" fill="#FCA57E"></path>
                                    <path d="M26.4182717,104.772507 C33.1094227,93.1646588 45.2707579,85.2014052 48.4573292,83.263516 C50.58171,81.9715898 52.7190492,83.3738181 54.8693467,87.4702008 C54.8693467,87.4702008 39.26931,129.690846 32.267282,131.248519 C25.265254,132.806193 23.760493,109.383398 26.4182717,104.772507 Z" id="Path" fill="#FFBE9D"></path>
                                    <path d="M32.1468984,117.778984 C28.7904219,118.529048 26.700196,113.509052 25.722957,107.57099 C24.1355823,114.830768 25.9951827,133.548893 32.2651304,132.147636 C39.267825,130.582836 54.8693467,88.1481481 54.8693467,88.1481481 C54.8693467,88.1481481 36.7958993,116.739749 32.1468984,117.778984 Z" id="Path" fill="#FCA57E"></path>
                                    <g id="Group">
                                        <path d="M56.153175,15.2342628 C56.153175,15.2342628 56.260624,15.8326385 56.3761686,16.8171582 C56.3666012,15.8657997 56.153175,15.2342628 56.153175,15.2342628 Z" id="Path" fill="#CE5230"></path>
                                        <path d="M56.3761686,16.8171582 C56.384264,17.6167119 56.2510566,18.6395512 55.703508,19.7360821 C54.5046414,22.1376911 48.0599054,23.0382023 51.2068383,12.532729 C54.3545071,2.02799261 45.3619036,0.677225728 45.3619036,0.677225728 C45.3619036,0.677225728 51.0574399,5.63003761 44.4625697,8.33083445 C37.8676994,11.0323682 41.0153682,2.47824823 34.2710996,1.42740613 C27.526831,0.376564034 25.4286304,10.5821126 25.4286304,10.5821126 C25.4286304,10.5821126 22.7306286,4.27927073 13.2883582,7.88057882 C3.84608771,11.4826238 9.991291,18.9859017 9.991291,18.9859017 C9.991291,18.9859017 1.14882184,20.4869994 0.549020557,32.1921719 C-0.0507807218,43.8980812 6.39395523,39.5458558 6.39395523,39.5458558 C5.34448698,46.7492089 11.4896903,50.0513291 11.4896903,50.0513291 C11.4896903,50.0513291 13.1382238,53.0527877 14.1876921,60.7063964 L41.0161042,36.0948786 C57.9709776,40.8177727 57.034846,22.4221406 56.3761686,16.8171582 Z" id="Path" fill="#40484B"></path>
                                        <path d="M37.1972467,32.3764008 C25.2571535,26.7500478 14.1479507,19.8178798 16.4750324,8.00143303 C16.5464198,7.63739657 16.6560767,7.29104609 16.7465989,6.9351157 C15.706698,7.10018487 14.5637638,7.39421432 13.2883582,7.88057882 C3.84608771,11.4818869 9.991291,18.9859017 9.991291,18.9859017 C9.991291,18.9859017 1.14882184,20.4869994 0.549020557,32.1921719 C-0.0500447693,43.8980812 6.39469118,39.5458558 6.39469118,39.5458558 C5.34522293,46.7492089 11.4904262,50.0513291 11.4904262,50.0513291 C11.4904262,50.0513291 13.1389598,53.0527877 14.188428,60.7063964 L41.0161042,36.0941416 C49.9064102,38.570916 53.8739301,34.688843 55.5452782,29.6291783 C51.9494143,34.7396902 48.6619146,37.7787314 37.1972467,32.3764008 Z" id="Path" fill="#263238"></path>
                                    </g>
                                    <path d="M16.3098146,44.973545 L9.89447236,70.8086133 C16.4275477,71.7328362 22.2853239,75.2014164 27.5359232,80.952381 L30.5829146,53.2154477 L16.3098146,44.973545 Z" id="Path" fill="#FCA57E"></path>
                                    <path d="M81.9505767,103.248825 L74.245168,99.8412698 C57.5507334,104.31364 30.5829146,158.617724 30.5829146,158.617724 C30.5829146,158.617724 37.4315903,168.201058 45.136999,168.201058 C55.8387497,168.201058 64.6135924,168.201058 64.6135924,168.201058 L74.6727933,121.563051 L95.433745,166.497649 L97.1457286,165.859055 C97.1472109,165.859055 86.0170937,112.619048 81.9505767,103.248825 Z" id="Path" fill="#263238"></path>
                                    <path d="M73.6393348,106.137566 C73.6393348,106.137566 63.2425011,112.622671 54.5663849,118.222907 C41.9995971,135.550252 30.5829146,158.601921 30.5829146,158.601921 C30.5829146,158.601921 37.4228588,168.201058 45.1168709,168.201058 C55.8038212,168.201058 64.5665284,168.201058 64.5665284,168.201058 L74.6118176,121.486141 L95.3440572,166.49484 L96.2462312,166.15729 L73.6393348,106.137566 Z" id="Path" fill="#1D2528"></path>
                                    <path d="M111.537688,167.301587 L95.2994191,167.301587 C95.2994191,167.301587 93.0309131,164.553158 95.896317,163.053945 C98.761721,161.553963 111.537688,167.301587 111.537688,167.301587 Z" id="Path" fill="#007E7E"></path>
                                    <path d="M179,155.608466 L171.467573,169.919397 C171.467573,169.919397 168.126922,170.686356 168.207463,167.488616 C168.28873,164.290142 179,155.608466 179,155.608466 Z" id="Path" fill="#007E7E"></path>
                                    <path d="M27.5487872,93.3744788 C33.7883576,92.007246 35.8926224,85.4241355 35.9798995,77.1857579 C34.9052082,76.3722655 33.8697176,75.7373991 32.8919186,75.3615403 C31.2099861,73.611006 29.6863356,72.3725328 28.5916742,71.5754145 L30.557627,53.3563119 L16.2996613,44.973545 L9.89145385,71.2501664 C9.93287347,71.2561206 9.97355346,71.268029 10.0149731,71.2747275 C8.94619887,71.7942313 7.90922901,72.4447274 6.93069041,73.2485442 C5.00541756,73.7754908 3.63413217,75.4582961 2.69849246,77.7848991 C12.5127243,79.7356433 18.5932729,95.3378757 27.5487872,93.3744788 Z" id="Path" fill="#4A4A4A" opacity="0.300000012"></path>
                                    <path d="M19.6078489,26.8598259 C15.1510629,44.7265719 17.9693784,61.7942554 17.9693784,61.7942554 C17.9693784,61.7942554 30.0355431,69.110443 37.4832691,69.2592593 C37.4832691,69.2592593 44.3355867,40.7437215 41.6540542,29.3977659 C38.9732532,18.0518104 20.501693,23.2772398 19.6078489,26.8598259 Z" id="Path" fill="#FFBE9D"></path>
                                    <path d="M21.3691023,44.973545 C22.7307406,29.0079715 23.7436395,18.655232 18.8116806,21.0248183 C13.8797217,23.3944046 15.5715887,41.3564993 15.5715887,41.3564993 L21.3691023,44.973545 Z" id="Path" fill="#263238"></path>
                                    <path d="M40.4499482,43.2742934 C40.5712846,42.2823207 40.2788501,41.4337499 39.7969126,41.3784941 C39.3149751,41.3232383 38.826221,42.0830052 38.7055662,43.074978 C38.5849114,44.0669507 38.8773459,44.9155215 39.3586017,44.9707773 C39.8398576,45.0253752 40.3286117,44.2656083 40.4499482,43.2742934 Z" id="Path" fill="#633D37"></path>
                                    <path d="M32.3544742,42.3747882 C32.4757955,41.3828334 32.1833975,40.5342779 31.70152,40.4790232 C31.2196425,40.4237684 30.7309492,41.1835216 30.6103095,42.1754763 C30.4889881,43.1674311 30.7820678,44.0159866 31.2632637,44.0712414 C31.7444596,44.1264962 32.2331528,43.366743 32.3544742,42.3747882 Z" id="Path" fill="#633D37"></path>
                                    <polygon id="Path" fill="#DEDEDE" points="46.7738693 43.9443143 44.515038 52.1693122 26.543266 50.2988551 26.1499481 42.9121346 12.9902778 40.9915431 9.84812916 44.9580623 7.1959799 42.5928962 11.3210571 39.5767196"></polygon>
                                    <polygon id="Path" fill="#FFB882" points="40.7420741 44.0740741 45.8743719 44.8403043 44.2342816 51.2698413 40.4773869 50.6797204"></polygon>
                                    <polygon id="Path" fill="#C5896D" points="40.7420741 44.0740741 45.8743719 44.8410767 44.2342816 51.2698413 40.4773869 50.6797204"></polygon>
                                    <polygon id="Path" fill="#FFC69F" points="40.4773869 51.0670076 41.8547004 51.2698413 45.8743719 45.2132575 44.1690567 44.973545"></polygon>
                                    <path d="M18.1635668,43.3286657 C16.6321508,39.0982714 10.7829627,40.0250124 11.8147065,43.1706902 C12.8464503,46.316368 17.195902,52.0995813 18.3320441,51.1699283 C19.4689063,50.2402754 18.5826002,44.487638 18.1635668,43.3286657 Z" id="Path" fill="#FFBE9D"></path>
                                    <path d="M39.27549,44.9743982 C39.45552,44.8599749 42.1150542,56.2908638 42.2735103,57.2871094 C42.4319665,58.2833551 35.9798995,56.2916266 35.9798995,56.2916266 C35.9798995,56.2916266 38.7785477,45.2917322 39.27549,44.9743982 Z" id="Path" fill="#FFB882"></path>
                                    <path d="M16.6365013,43.9389713 C15.6797322,41.4712239 12.0240409,42.0121102 12.6687004,43.8469687 C13.3133599,45.6818272 16.0319364,49.0555035 16.7418481,48.5131333 C17.4525459,47.9707631 16.8990821,44.6148937 16.6365013,43.9389713 Z" id="Path" fill="#E7926B"></path>
                                    <path d="M16.8185358,46.8239371 C16.2443757,45.4137799 14.0508472,45.722481 14.4373295,46.7712646 C14.8238119,47.8200482 16.4550494,49.7475964 16.8815895,49.4375618 C17.3073877,49.1275273 16.9757992,47.2099802 16.8185358,46.8239371 Z" id="Path" fill="#FFBE9D"></path>
                                    <polygon id="Path" fill="#C5896D" points="38.678392 44.4467012 36.8516086 51.2698413 28.382438 50.113595 27.8844221 43.1746032"></polygon>
                                    <polygon id="Path" fill="#FFC69F" points="37.7788945 44.4729954 34.1872436 44.0740741 28.7839196 49.914764 32.3237055 50.3703704"></polygon>
                                    <path d="M39.27549,44.9743982 C39.1817554,45.0339001 39.006189,45.4748243 38.7830113,46.1484161 C39.625879,49.4400907 41.0780218,55.7427131 41.1940742,56.4712297 C41.3086388,57.1936436 37.955022,56.3461232 36.0989276,55.8251003 C36.0230472,56.1203212 35.9798995,56.2911984 35.9798995,56.2911984 C35.9798995,56.2911984 42.4319665,58.2829857 42.2735103,57.2874735 C42.1150542,56.2911984 39.45552,44.8599715 39.27549,44.9743982 Z" id="Path" fill="#FF9566"></path>
                                    <path d="M42.5188597,46.7702923 C43.1406725,46.8149135 43.7529555,46.1747479 44.0753769,45.244247 L41.3768844,44.973545 C41.4380333,45.9706802 41.8803701,46.7238862 42.5188597,46.7702923 Z" id="Path" fill="#633D37"></path>
                                    <path d="M31.73847,45.8713864 C32.4164272,45.91992 33.0593176,44.8789083 33.281407,43.4679153 L30.5834589,43.1746032 C30.5644644,44.6489009 31.0444405,45.8221493 31.73847,45.8713864 Z" id="Path" fill="#633D37"></path>
                                    <path d="M25.2522317,38.6261559 C30.4473481,38.9204418 36.4338161,37.8474085 36.4338161,37.8474085 L36.879397,33.2804233 C36.879397,33.2804233 26.6873586,34.9961661 25.7969098,35.8429323 C24.9057481,36.6896986 25.2522317,38.6261559 25.2522317,38.6261559 Z" id="Path" fill="#263238"></path>
                                    <path d="M44.7009851,40.4761905 C41.3775396,40.2561436 37.7788945,38.4260742 37.7788945,38.4260742 L38.242758,33.2804233 C38.242758,33.2804233 44.3883645,36.2718076 44.8116887,37.3117444 C45.2350128,38.3516811 44.7009851,40.4761905 44.7009851,40.4761905 Z" id="Path" fill="#263238"></path>
                                    <path d="M37.7788945,58.4399941 L27.8935547,55.7671958 C27.8935547,55.7671958 27.4688916,61.8828949 32.411183,62.8472436 C37.3542314,63.8108276 37.7788945,58.4399941 37.7788945,58.4399941 Z" id="Path" fill="#472922"></path>
                                    <path d="M36.4029175,60.2645503 C36.8129786,59.4553796 36.879397,58.683876 36.879397,58.683876 L28.7900754,56.6666667 C28.7900754,56.6666667 28.7366519,57.442206 28.9445702,58.4040631 L36.4029175,60.2645503 Z" id="Path" fill="#FFF6E3"></path>
                                    <path d="M104.194072,76.6394591 C102.899853,76.4260468 102.159343,74.3923091 102.538901,72.0983125 C102.730168,70.9412756 103.170753,69.9411377 103.72595,69.2592593 C102.815011,69.7864695 102.019427,71.1242004 101.742573,72.7950628 C101.363015,75.0890594 102.104269,77.1227971 103.397744,77.3362095 C104.039272,77.4425438 104.695684,77.0789249 105.241206,76.4082005 C104.900348,76.6052536 104.545349,76.6974597 104.194072,76.6394591 Z" id="Path" fill="#D8D8D8"></path>
                                    <path d="M105.721634,66.5840499 C104.54747,66.381392 103.33342,67.5234461 102.542714,69.336393 C103.291436,68.1716588 104.233286,67.494913 105.153445,67.6536739 C106.807631,67.9397362 107.738985,70.7579249 107.234473,73.947775 C107.088227,74.8732705 106.828623,75.7138984 106.505343,76.4550265 C107.102222,75.5258729 107.578745,74.2938298 107.802662,72.8788826 C108.307175,69.6875692 107.37512,66.8701121 105.721634,66.5840499 Z" id="Path" fill="#D8D8D8"></path>
                                    <path d="M70.0840526,85.2156034 C70.4267133,87.8956571 69.5572211,89.5909598 68.7581688,89.8923006 C67.9591164,90.1943373 65.2449801,89.1880123 64.7907896,88.3334015 C64.3358654,87.4787908 69.7824819,82.852201 70.0840526,85.2156034 Z" id="Path" fill="#FCA57E"></path>
                                    <path d="M69.2613065,82.7513228 C69.0317693,87.9545992 68.4010715,88.4225197 67.4257146,88.8897204 C66.4503578,89.357641 63.4105781,88.7140702 63.0666253,87.8955692 C62.7226725,87.0770682 63.2961626,85.0311756 64.0991899,85.2061059 C64.9022172,85.3817561 65.877574,85.4400662 65.877574,85.4400662 L69.2613065,82.7513228 Z" id="Path" fill="#FFBE9D"></path>
                                    <path d="M65.7510867,81.503851 C64.3467565,79.2521152 53.4655858,79.3460659 47.6733668,83.7555867 L53.5816948,89.9470899 C55.5121895,86.663437 60.5732162,86.945289 63.7324079,87.2263709 C66.8923346,87.5082229 67.1554168,83.7555867 65.7510867,81.503851 Z" id="Path" fill="#FFBE9D"></path>
                                    <path d="M66.5628141,84.5502646 C66.3332768,89.753541 65.702579,90.2214615 64.7272222,90.6886622 C63.7518653,91.1565828 60.7120856,90.513012 60.3681328,89.694511 C60.0241801,88.87601 60.5976701,86.8301174 61.4006974,87.0050477 C62.2037247,87.1806979 63.1790816,87.239008 63.1790816,87.239008 L66.5628141,84.5502646 Z" id="Path" fill="#FFBE9D"></path>
                                    <path d="M63.8643216,80.952381 C67.3910125,81.6255369 69.9071395,82.9783493 71.0801028,84.2892701 C72.252357,85.6001908 73.7096966,88.9435803 73.75792,89.7070201 C73.8068526,90.4704599 71.7864338,91.4151896 71.3545507,90.4112337 C70.9233768,89.4072779 69.5717032,86.4040777 69.2057726,86.2791249 C68.8391329,86.1541722 65.2479078,84.6020131 65.0769984,84.6265703 C64.9053798,84.6525721 63.8643216,80.952381 63.8643216,80.952381 Z" id="Path" fill="#FFBE9D"></path>
                                    <path d="M96.2462312,107.936508 C104.330815,104.222314 108.683772,105.841362 110.638191,99.8412698 L98.3785894,100.349421 L96.2462312,107.936508 Z" id="Path" fill="#FCA57E"></path>
                                    <path d="M105.241206,103.439153 C107.852621,101.929542 108.476816,99.7823487 108.476816,98.3885313 C108.476816,96.994714 110.577272,96.6473319 110.633889,97.9825374 C110.690507,99.3177429 110.179548,100.943148 109.611971,101.813748 C109.044393,102.684348 105.241206,103.439153 105.241206,103.439153 Z" id="Path" fill="#FCA57E"></path>
                                    <path d="M102.542714,103.439153 C105.154128,101.930202 105.778324,99.7822166 105.778324,98.388349 C105.778324,96.9951962 107.878779,96.6470867 107.935397,97.9823404 C107.992015,99.3175941 107.481056,100.943058 106.913478,101.813689 C106.3466,102.685035 102.542714,103.439153 102.542714,103.439153 Z" id="Path" fill="#FCA57E"></path>
                                    <path d="M98.9447236,103.439153 C101.556138,101.929519 102.180334,99.7815779 102.180334,98.3884541 C102.180334,96.9953303 104.280789,96.647228 104.337407,97.9817391 C104.394025,99.3169651 103.883066,100.942395 103.315488,101.813008 C102.747911,102.684336 98.9447236,103.439153 98.9447236,103.439153 Z" id="Path" fill="#FCA57E"></path>
                                </g>
                            </g>
                        </g>
                    </g>
                </g>
            </g>
        </g>
    </g>
</svg>