<?xml version="1.0" encoding="UTF-8"?>
<svg width="270px" height="260px" viewBox="0 0 270 260" version="1.1" xmlns="http://www.w3.org/2000/svg" xmlns:xlink="http://www.w3.org/1999/xlink">
    <!-- Generator: Sketch 54.1 (76490) - https://sketchapp.com -->
    <title>img/003</title>
    <desc>Created with Sketch.</desc>
    <g id="Design-&amp;-Wareframe" stroke="none" stroke-width="1" fill="none" fill-rule="evenodd">
        <g id="1.-Maine-v.3" transform="translate(-891.000000, -2381.000000)">
            <g id="Block-03" transform="translate(0.000000, 1538.000000)">
                <g id="all-info" transform="translate(104.000000, 80.000000)">
                    <g id="Group-7" transform="translate(0.000000, 763.000000)">
                        <g id="Group-4" transform="translate(105.000000, 0.000000)">
                            <g id="img/003-New" transform="translate(682.000000, 0.000000)">
                                <g id="img/003">
                                    <g id="Group" transform="translate(157.506685, 89.957379)">
                                        <path d="M16.6105154,94.183148 C18.5593628,93.0941356 25.9212216,96.2158069 21.8071696,97.6678235 C17.2620362,99.2717761 14.661668,95.2721604 16.6105154,94.183148 Z" id="Path" fill="#FCA57E" fill-rule="nonzero"></path>
                                        <path d="M13.8680862,91.4967531 C15.8169336,90.4077407 23.1787924,93.529412 19.0647405,94.9814286 C14.5196071,96.5853813 11.9192388,92.5857655 13.8680862,91.4967531 Z" id="Path" fill="#FF9566" fill-rule="nonzero"></path>
                                        <path d="M51.7820264,48.3805672 C35.2392758,53.2909784 25.8828488,73.8877674 24.2556796,87.6638565 L39.3067905,93.529412 L51.7820264,48.3805672 Z" id="Path" fill="#2D393D" fill-rule="nonzero"></path>
                                        <path d="M33.1140769,91.1156809 L24.2556796,87.6638565 C25.8828488,73.8877674 35.2392758,53.2909784 51.7820264,48.3805672 L50.6594185,52.4425999 C40.6359583,61.6343246 34.7641064,78.2290341 33.1140769,91.1156809 Z" id="Path" fill="#455A64" fill-rule="nonzero"></path>
                                        <path d="M86.4048884,103.031579 C90.9361423,78.5312637 85.1394031,46.4710997 73.8847481,45.6522872 C62.6300932,44.8334747 49.3416809,46.7437635 43.7817099,52.4721659 C38.2225553,58.2005682 37.8151507,97.8936744 37.8151507,97.8936744 L50.2903867,115.216856 L79.5345278,116.85366 C79.5345278,116.85366 85.3198368,108.897135 86.4048884,103.031579 Z" id="Path" fill="#455A64" fill-rule="nonzero"></path>
                                        <path d="M39.1345212,72.4176828 C38.9842959,89.0288178 42.7415626,97.8854617 52.6972581,97.8854617 C64.7748867,97.8854617 76.9480391,82.5464837 76.9480391,60.1330314 C76.9480391,56.9727601 81.7993383,54.8448332 81.4311229,51.8923448 C87.4425864,62.5533328 91.1345377,85.0907978 87.7740619,103.258251 C86.6890103,109.123807 79.5345278,116.85366 79.5345278,116.85366 L50.2903867,115.216856 L36.5300708,97.3048193 C36.5300708,97.3048193 37.9531294,84.6933 39.1345212,72.4176828 Z" id="Path" fill="#3A4A51" fill-rule="nonzero"></path>
                                        <path d="M87.6777217,77.5892598 L82.2892035,82.3485561 L38.3335915,83.2158239 C38.4887155,80.4070589 38.6920096,77.4077577 38.9516382,74.4166693 L87.6434311,77.0907451 C87.6556778,77.2566429 87.6662915,77.423362 87.6777217,77.5892598 Z" id="Path" fill="#3A4A51" fill-rule="nonzero"></path>
                                        <path d="M34.6955253,81.4155862 C38.1564235,84.5627171 44.6259111,91.008915 37.704931,100.396103 L20.101622,94.2472075 C15.7377387,80.3668163 34.6955253,81.4155862 34.6955253,81.4155862 Z" id="Path" fill="#FFBE9D" fill-rule="nonzero"></path>
                                        <path d="M33.2822639,86.8499717 C29.0318661,86.8499717 25.2827638,85.6993635 23.0277506,83.944296 C27.5345113,81.0238374 34.6955253,81.4147649 34.6955253,81.4147649 C35.9512133,82.5571603 37.6020593,84.1364747 38.8667282,86.1305336 C37.1848574,86.5871632 35.2923445,86.8499717 33.2822639,86.8499717 Z" id="Path" fill="#FFBE9D" fill-rule="nonzero"></path>
                                        <path d="M73.2071012,46.3347679 C75.6482632,44.2889685 84.1906973,49.0630478 91.7836092,61.8848139 C99.3773376,74.7065799 98.8344036,101.440767 86.0889253,108.534131 L73.7492187,86.2997165 C81.7111625,80.1713526 70.7659391,48.3805672 73.2071012,46.3347679 Z" id="Path" fill="#455A64" fill-rule="nonzero"></path>
                                        <path d="M87.7422206,57.5279429 C86.1305638,54.8062332 84.4772685,52.4688808 82.84765,50.4608601 C85.6905015,53.0873018 88.8084941,56.8586027 91.7844257,61.8839926 C99.378154,74.7057586 98.83522,101.439946 86.0889253,108.533309 L83.2517888,103.420864 C94.8183247,95.3567519 95.088567,69.9325006 87.7422206,57.5279429 Z" id="Path" fill="#2D393D" fill-rule="nonzero"></path>
                                        <path d="M94.8469001,89.6094601 C100.909799,97.3048193 90.516491,119.811897 75.2155488,108.050399 L70.3079151,87.4314353 C74.6383242,81.4780032 88.7848172,81.9132797 94.8469001,89.6094601 Z" id="Path" fill="#007E7E" fill-rule="nonzero"></path>
                                        <path d="M87.6295516,96.1435346 C78.9344428,96.1435346 71.8485414,91.7792722 71.3652077,86.283291 C76.5888045,81.5823053 89.2085507,82.4520369 94.8469001,89.6086388 C95.851124,90.884081 96.3956909,92.5701613 96.549182,94.4352798 C93.9847372,95.5119731 90.9238956,96.1435346 87.6295516,96.1435346 Z" id="Path" fill="#069494" fill-rule="nonzero"></path>
                                        <path d="M37.2648687,104.159192 C44.8585971,99.657776 38.7393632,85.9876315 31.1627801,85.4726913 C21.1287062,84.7910319 16.7893162,92.156238 18.9594194,97.8854617 C21.1295226,103.614685 30.8492664,107.962522 37.2648687,104.159192 Z" id="Path" fill="#FFBE9D" fill-rule="nonzero"></path>
                                        <path d="M20.6323094,89.1199794 C23.7854089,94.0336757 32.3090649,97.3015342 38.1311138,93.8505311 C38.7124206,93.505595 39.2047352,93.1015271 39.630918,92.6596804 C41.4581156,96.8605088 41.2703339,101.785703 37.2648687,104.160013 C30.8492664,107.963343 21.1287062,103.614685 18.9594194,97.8854617 C17.850691,94.9584328 18.4515924,91.6100893 20.6323094,89.1199794 Z" id="Path" fill="#FCA57E" fill-rule="nonzero"></path>
                                        <path d="M85.1394031,110.851772 L78.0886087,128.856613 C59.6476301,125.764508 40.4832836,121.217922 40.4832836,121.217922 L32.8895553,100.120976 C54.4036222,100.667125 78.3596675,107.441833 85.1394031,110.851772 Z" id="Path" fill="#263238" fill-rule="nonzero"></path>
                                        <path d="M83.15055,169.595204 L17.7020985,169.595204 C17.7020985,169.595204 -7.79049092,149.772058 2.51545824,128.675111 C12.820591,107.578165 34.3354743,114.126201 34.3354743,114.126201 C34.3354743,114.126201 64.5283212,126.675303 75.0147041,125.583827 C85.5010869,124.492351 107.739338,119.218936 111.17411,141.224213 C114.608882,163.229491 101.953213,167.958401 83.15055,169.595204 Z" id="Path" fill="#007E7E" fill-rule="nonzero"></path>
                                        <path d="M6.48744926,124.15727 C17.2073346,109.527875 34.6449059,114.82675 34.6449059,114.82675 C34.6449059,114.82675 64.149492,127.089227 74.3958409,126.02321 C83.4510007,125.081206 101.465797,120.960041 107.852007,134.85193 C99.1119939,144.156991 80.9167643,150.558019 59.8754174,150.558019 C31.4656802,150.558019 8.2395341,138.890967 6.48744926,124.15727 Z" id="Path" fill="#008E8E" fill-rule="nonzero"></path>
                                        <g transform="translate(26.126149, 112.514857)" fill="#007E7E" fill-rule="nonzero" id="Path">
                                            <path d="M8.30240015,1.62448458 C8.30240015,1.62448458 15.6781385,4.82664098 24.3348745,7.89000168 C24.518574,16.3803564 24.5863387,28.371812 24.6067497,38.5318215 C20.8119267,38.1811365 17.1501836,37.6152771 13.6713237,36.8490263 C5.71591144,18.9000321 1.21160014,6.72789568 0.120833437,0.659484891 C4.87171026,0.538757271 8.30240015,1.62448458 8.30240015,1.62448458 Z"></path>
                                            <path d="M48.0533352,13.3194595 C53.4843083,12.7289618 62.1369621,10.949256 69.5723007,12.7462086 C69.7151781,13.7744466 69.7821264,14.7805101 69.7535509,15.7151225 C69.6270024,19.8034361 62.8195078,27.1070465 50.998242,37.3261878 C45.5215481,38.3683875 39.6537784,38.9490298 33.5329117,38.9490298 C33.3418642,38.9490298 33.1532661,38.9424596 32.9630351,38.9416384 C37.1530161,30.5137007 42.2157739,20.8752017 46.9086833,13.383519 C47.3103728,13.3761276 47.6957335,13.3580595 48.0533352,13.3194595 Z"></path>
                                        </g>
                                        <path d="M86.0889253,108.533309 C97.6211705,98.5441253 87.5977104,87.0306525 80.1223661,85.3453934 C72.6470218,83.6601344 62.6300932,92.3016039 53.7529178,93.0292548 C50.5091931,93.2953483 55.3588595,104.047498 55.3588595,104.047498 C55.3588595,104.047498 80.0497028,113.764018 86.0889253,108.533309 Z" id="Path" fill="#FFBE9D" fill-rule="nonzero"></path>
                                        <path d="M55.5841975,93.0941356 C50.3156964,92.1504891 48.2223387,90.5531066 46.2016444,91.9328509 C44.1809501,93.3125951 44.5418175,96.6519046 44.5418175,96.6519046 L56.523106,102.459971 L55.5841975,93.0941356 Z" id="Path" fill="#FFBE9D" fill-rule="nonzero"></path>
                                        <path d="M86.3093647,97.467432 C87.8948953,96.0967218 89.113027,94.7366882 90.0217271,93.404578 C92.2440826,97.8123681 92.0432378,103.374873 86.0881088,108.533309 C80.0497028,113.764018 55.3588595,104.047498 55.3588595,104.047498 C55.3588595,104.047498 55.3588595,104.046677 55.358043,104.045855 C53.9251871,100.856018 56.6496545,97.3598448 60.0713635,97.9979765 C68.8097438,99.6265675 81.9275197,101.256801 86.3093647,97.467432 Z" id="Path" fill="#FCA57E" fill-rule="nonzero"></path>
                                        <path d="M65.4002814,108.194943 L16.8995359,90.9161108 C18.6312097,87.1407035 38.8397856,82.2040115 65.4002814,108.194943 Z" id="Path" fill="#D8D8D8" fill-rule="nonzero"></path>
                                        <path d="M24.8753592,88.491703 C21.8569726,86.1880229 20.7621237,85.2410913 19.5978772,83.6412451 C18.4336307,82.0413988 15.2927778,83.5558323 16.2692426,84.9749978 C17.2457074,86.3941633 19.7162613,88.8933072 19.7521848,90.744464 C19.7889247,92.5947996 24.8753592,88.491703 24.8753592,88.491703 Z" id="Path" fill="#FFBE9D" fill-rule="nonzero"></path>
                                        <path d="M29.1478009,95.2795519 L16.8995359,90.9161108 C18.2025776,88.0769585 29.9577115,84.5848916 47.0033906,94.082131 C37.4526504,91.4983957 30.9676505,93.3298419 29.1478009,95.2795519 Z" id="Path" fill="#EDEDED" fill-rule="nonzero"></path>
                                        <polygon id="Path" fill="#D8D8D8" fill-rule="nonzero" points="69.2171484 112.274223 70.3789456 110.033781 36.251664 92.5414166 15.4536169 89.7425069 14.3008006 92.1644508 53.3863353 110.478913"></polygon>
                                        <polygon id="Path" fill="#C1C1C1" fill-rule="nonzero" points="69.2171484 112.274223 70.3789456 110.033781 36.251664 92.5414166 33.210417 98.7568359 53.3863353 110.478913"></polygon>
                                        <polygon id="Path" fill="#C1C1C1" fill-rule="nonzero" points="69.2171484 112.274223 34.5093765 96.4334451 14.3008006 92.1644508 53.3863353 110.478913"></polygon>
                                        <path d="M45.3207033,164.866295 C28.9338931,131.714655 21.1017636,111.935857 21.6798047,106.759352 C22.5819732,98.6886699 41.2058349,96.6658663 45.5452249,106.214025 C46.6057833,108.547271 46.3935083,164.866295 46.3935083,164.866295 L45.3207033,164.866295 L45.3207033,164.866295 Z" id="Path" fill="#263238" fill-rule="nonzero"></path>
                                        <path d="M21.6798047,106.760174 C21.8488082,105.24574 22.6423899,103.944017 23.8490914,102.891962 C24.7928985,108.498816 32.3082485,123.154492 46.4033056,146.183901 C46.4245331,156.553336 46.3935083,164.867116 46.3935083,164.867116 L45.3215198,164.867116 C28.9338931,131.715476 21.1009472,111.935857 21.6798047,106.760174 Z" id="Path" fill="#1D2528" fill-rule="nonzero"></path>
                                        <path d="M48.9840792,164.866295 C76.200178,144.279361 93.2238132,130.317664 93.4246579,124.104708 C93.6230534,117.976344 89.7980219,108.772301 81.8842482,109.761117 C72.6772302,110.910904 47.4426365,164.867116 47.4426365,164.867116 L48.9840792,164.867116 L48.9840792,164.866295 Z" id="Path" fill="#263238" fill-rule="nonzero"></path>
                                        <path d="M56.7010904,146.212646 C73.2389424,133.625765 85.5664023,123.710496 92.0015993,116.753464 C93.0213355,119.180336 93.4981377,121.850305 93.4246579,124.104708 C93.2229967,130.318485 76.200178,144.279361 48.9840792,164.866295 L47.4426365,164.866295 C47.4434529,164.866295 51.3762547,156.458889 56.7010904,146.212646 Z" id="Path" fill="#1D2528" fill-rule="nonzero"></path>
                                        <path d="M46.9625685,169.954923 L60.7816682,169.954923 C60.7816682,169.954923 52.8425848,167.147801 49.1089949,164.829338 C46.4220838,163.161325 46.9625685,169.954923 46.9625685,169.954923 Z" id="Path" fill="#3A4A51" fill-rule="nonzero"></path>
                                        <path d="M48.3603174,168.25406 L33.4986211,169.954923 C33.4986211,169.954923 41.9839043,165.375486 45.0463788,162.646385 C47.2507726,160.681892 48.3603174,168.25406 48.3603174,168.25406 Z" id="Path" fill="#3A4A51" fill-rule="nonzero"></path>
                                        <path d="M49.2943272,48.8560862 C55.9034264,45.9561595 65.462331,45.0396151 73.8847481,45.6522872 C74.3052158,45.6826745 74.7158862,45.770551 75.1208415,45.886351 C64.0980562,56.7411602 62.2912697,56.6261815 59.337382,56.5021688 C56.946023,56.4027944 52.0800278,51.7371235 49.2943272,48.8560862 Z" id="Path" fill="#D8D8D8" fill-rule="nonzero"></path>
                                        <path d="M71.6934174,46.332304 L67.4691458,27.5858506 L53.3055075,29.4181181 L52.5960193,48.3805672 C52.5960193,48.3805672 55.5417425,52.2479574 59.5169993,52.7481147 C63.4930725,53.2474507 71.6934174,46.332304 71.6934174,46.332304 Z" id="Path" fill="#EF9D7D" fill-rule="nonzero"></path>
                                        <path d="M13.6541784,91.4967531 C14.9662009,90.4077407 19.9236376,93.529412 17.1534494,94.9814286 C14.0934243,96.5853813 12.3421559,92.5857655 13.6541784,91.4967531 Z" id="Path" fill="#FFBE9D" fill-rule="nonzero"></path>
                                        <g transform="translate(42.399451, 0.000000)" id="Path">
                                            <path d="M4.54597207,23.8079795 L3.58910187,17.4036667 C2.35627424,11.1586815 7.19940903,7.85715063 11.4342944,7.85715063 L26.1033104,7.85715063 C30.5953751,7.85715063 35.9455204,11.1340432 33.6684633,18.1723813 L32.3580737,25.452996 L4.54597207,23.8079795 Z" fill="#263238" fill-rule="nonzero"></path>
                                            <g transform="translate(31.080342, 21.353185)">
                                                <path d="M0.561712194,11.1718219 C3.46906266,13.3309574 8.49834626,3.50931375 5.66529203,1.18345919 C2.83223779,-1.14239537 1.27691551,3.11674366 1.27691551,3.11674366 L0.888289051,6.73364461 L0.472720001,10.1164818 L0.311880898,11.1578602 L0.561712194,11.1718219 Z" fill="#FFBE9D" fill-rule="nonzero"></path>
                                                <g transform="translate(0.816442, 4.047456)" stroke="#EB996E" stroke-linecap="round" stroke-linejoin="round" stroke-width="0.5">
                                                    <path d="M4.06343254,0.0958830906 C4.06343254,0.0958830906 1.95619537,-0.611235828 0.460473368,2.51043549"></path>
                                                    <path d="M1.48347537,0.982861525 C1.48347537,0.982861525 3.77686135,2.21641857 2.26154473,4.07086052"></path>
                                                </g>
                                            </g>
                                            <g transform="translate(0.000000, 21.353185)">
                                                <path d="M5.97556226,11.1718219 C3.06821179,13.3309574 -1.96107181,3.50931375 0.871982424,1.18345919 C3.70503666,-1.14239537 5.26035894,3.11674366 5.26035894,3.11674366 L5.6489854,6.73364461 L6.06455445,10.1164818 L6.22539355,11.1578602 L5.97556226,11.1718219 Z" fill="#FFBE9D" fill-rule="nonzero"></path>
                                                <g transform="translate(1.632884, 4.047456)" stroke="#EB996E" stroke-linecap="round" stroke-linejoin="round" stroke-width="0.5">
                                                    <path d="M0.0245154804,0.0958830906 C0.0245154804,0.0958830906 2.13175265,-0.611235828 3.62747466,2.51043549"></path>
                                                    <path d="M2.60447265,0.982861525 C2.60447265,0.982861525 0.311086672,2.21641857 1.82640329,4.07086052"></path>
                                                </g>
                                            </g>
                                            <path d="M32.3197009,19.8518914 C32.3197009,25.9350852 31.5163218,31.1838622 30.7129427,34.9099929 C29.9275254,38.557281 27.7157836,41.7421906 24.5912595,43.7945602 L24.0221994,44.1682409 C20.7164251,46.3388742 16.4447999,46.3897934 13.0875898,44.2980026 L13.0875898,44.2980026 C9.7018042,42.1881437 7.33167266,38.7699916 6.60258982,34.8566099 C5.27587134,27.7377867 5.13054464,19.8527127 5.13054464,19.8527127 C5.13054464,19.8527127 3.86832509,4.49648789 18.5308095,4.7946112 C33.1941104,5.09191323 32.3197009,19.8518914 32.3197009,19.8518914 Z" fill="#FFBE9D" fill-rule="nonzero"></path>
                                            <g transform="translate(7.403520, 17.246803)">
                                                <path d="M10.01203,7.50564436 L10.01203,12.765098 C10.01203,12.9416724 10.0463206,13.1116766 10.1075537,13.2668978 C10.350037,13.8771061 11.0489115,14.1694805 11.6800213,14.0002976 L13.0377646,13.6372934" stroke="#EC966A" stroke-width="0.961734694" stroke-linecap="round" stroke-linejoin="round"></path>
                                                <path d="M6.17638481,6.03884484 C6.17638481,6.7894914 5.57140118,7.39887844 4.82435662,7.39887844 C4.0781285,7.39887844 3.47232843,6.79031268 3.47232843,6.03884484 C3.47232843,5.28819827 4.07731206,4.67881124 4.82435662,4.67881124 C5.57140118,4.67963252 6.17638481,5.28819827 6.17638481,6.03884484 Z" fill="#1A1A1A" fill-rule="nonzero"></path>
                                                <path d="M18.6924429,6.03884484 C18.6924429,6.7894914 18.0874592,7.39887844 17.3404147,7.39887844 C16.5941865,7.39887844 15.9883865,6.79031268 15.9883865,6.03884484 C15.9883865,5.28819827 16.5933701,4.67881124 17.3404147,4.67881124 C18.0874592,4.67963252 18.6924429,5.28819827 18.6924429,6.03884484 Z" fill="#1A1A1A" fill-rule="nonzero"></path>
                                                <path d="M7.27531593,7.52699754 L3.91320719,9.75840533" stroke="#EB996E" stroke-width="0.5" stroke-linecap="round" stroke-linejoin="round"></path>
                                                <path d="M15.21195,7.51549968 L18.1862487,9.7699032" stroke="#EB996E" stroke-width="0.5" stroke-linecap="round" stroke-linejoin="round"></path>
                                                <path d="M6.68556978,16.8441712 C6.68556978,16.8441712 8.2099369,17.6065219 11.1099941,17.6065219 C13.7474454,17.6065219 15.8163921,16.8441712 15.8163921,16.8441712" stroke="#EC966A" stroke-width="0.961734694" stroke-linecap="round" stroke-linejoin="round"></path>
                                                <path d="M0.532320277,2.47122047 C0.532320277,2.47122047 6.94873908,1.5472846 9.09516547,0.823740157 C9.09434903,0.82291888 4.23978405,-1.47665484 0.532320277,2.47122047 Z" fill="#263238" fill-rule="nonzero"></path>
                                                <path d="M21.2764822,2.43672686 C21.2764822,2.43672686 14.8527155,1.56288885 12.7013904,0.855769934 C12.7013904,0.85659121 17.5379937,-1.4815825 21.2764822,2.43672686 Z" fill="#263238" fill-rule="nonzero"></path>
                                                <path d="M9.5646197,19.8970616 C10.0177451,19.8970616 12.9373422,19.8970616 12.9373422,19.8970616" stroke="#EB996E" stroke-width="0.5" stroke-linecap="round" stroke-linejoin="round"></path>
                                            </g>
                                            <path d="M32.5172799,1.74439092 C27.8578446,-1.57110162 18.6532758,1.86922492 13.6354224,4.18193906 C13.7407435,2.674897 12.8181639,1.71893135 12.8181639,1.71893135 C3.99405718,4.10391781 6.30948709,11.0987283 6.30948709,11.0987283 C6.30948709,11.0987283 6.34377766,11.1159751 6.39521352,11.1406134 C5.4726339,13.1527404 4.33451355,17.4044879 5.46528592,25.1671918 C5.46528592,25.1671918 8.65839114,17.8611176 7.81092419,11.7943493 C11.7257643,13.5305275 22.4562633,17.7518878 29.453989,15.3915397 C29.8140399,20.4136444 31.8935181,25.1671918 31.8935181,25.1671918 C32.6266831,20.1368743 32.4054273,16.5848542 31.908214,14.1571613 C32.338479,13.8516465 32.748333,13.5157445 33.1198142,13.1231744 C33.1214471,13.1239957 39.119031,6.44209152 32.5172799,1.74439092 Z" fill="#263238" fill-rule="nonzero"></path>
                                        </g>
                                    </g>
                                    <path d="M264.032946,259.580404 C264.032946,259.661213 204.922376,259.726013 132.022615,259.726013 C59.0974672,259.726013 0,259.660451 0,259.580404 C0,259.499595 59.0974672,259.434795 132.022615,259.434795 C204.922376,259.434795 264.032946,259.500357 264.032946,259.580404 Z" id="Path" fill="#263238" fill-rule="nonzero"></path>
                                    <g id="Group">
                                        <g transform="translate(12.935332, 0.000000)">
                                            <g fill-rule="nonzero">
                                                <g>
                                                    <rect id="Rectangle" fill="#F2F2F2" x="0.699981554" y="0.899938862" width="127.852654" height="50.4572279"></rect>
                                                    <path d="M128.552636,51.3571668 C128.552636,51.3571668 128.545267,51.0506302 128.541174,50.4621456 C128.538718,49.8703825 128.534624,48.997491 128.529712,47.8549457 C128.523981,45.5624785 128.514157,42.1872979 128.502695,37.8351346 C128.488778,29.1365452 128.46831,16.5357619 128.44375,0.900758479 L128.552636,1.00976747 C96.3313795,1.0212421 50.945558,1.03845404 0.708168472,1.05730522 L0.699981554,1.05730522 L0.856351702,0.900758479 C0.853895626,18.5511987 0.852258242,35.6016797 0.849802167,51.3571668 L0.699981554,51.207177 C37.716316,51.2358635 69.6592169,51.260452 92.3541744,51.277664 C103.710249,51.2956955 112.751064,51.309629 118.958386,51.3194644 C122.061228,51.3276606 124.455083,51.3342175 126.078549,51.3383156 C126.886598,51.3424137 127.501435,51.3456921 127.920606,51.3473314 C128.335682,51.3506098 128.552636,51.3571668 128.552636,51.3571668 C128.552636,51.3571668 128.348781,51.3637237 127.940254,51.3661825 C127.525177,51.3686414 126.916071,51.3711002 126.116209,51.3751983 C124.500111,51.3792964 122.116899,51.3858533 119.027156,51.3940495 C112.827202,51.4038849 103.798668,51.4178184 92.4573296,51.4358499 C69.7369926,51.4530619 37.7580693,51.4776504 0.700800245,51.506337 L0.55016094,51.506337 L0.55016094,51.3555275 C0.547704865,35.6000405 0.546067481,18.5487399 0.543611405,0.899119246 L0.543611405,0.742572504 L0.699981554,0.742572504 L0.708168472,0.742572504 C50.945558,0.761423682 96.3313795,0.777816011 128.551817,0.790110258 L128.660703,0.790110258 L128.660703,0.899119246 C128.635324,16.5619896 128.615675,29.1857222 128.601757,37.8990647 C128.590295,42.2413926 128.58129,45.6075574 128.57474,47.8951069 C128.569828,49.029456 128.565735,49.8957906 128.563279,50.4834556 C128.560004,51.0653833 128.552636,51.3571668 128.552636,51.3571668 Z" id="Path" fill="#263238"></path>
                                                </g>
                                                <path d="M73.1976032,26.8088345 C73.1976032,26.8957138 59.506619,26.9653812 42.6227364,26.9653812 C25.7323043,26.9653812 12.0445949,26.8948942 12.0445949,26.8088345 C12.0445949,26.7219551 25.7323043,26.6522877 42.6227364,26.6522877 C59.506619,26.6522877 73.1976032,26.7227747 73.1976032,26.8088345 Z" id="Path" fill="#263238"></path>
                                                <path d="M73.3728033,32.9207143 C73.3728033,33.0075937 59.6032246,33.0772611 42.6219177,33.0772611 C25.63488,33.0772611 11.8685761,33.0067741 11.8685761,32.9207143 C11.8685761,32.833835 25.63488,32.7641676 42.6219177,32.7641676 C59.6040433,32.7641676 73.3728033,32.833835 73.3728033,32.9207143 Z" id="Path" fill="#263238"></path>
                                                <polygon id="Path" fill="#007E7E" points="15.9096392 9.06741679 17.2768546 11.8409989 20.3338501 12.285231 18.1217447 14.4441007 18.6440701 17.4922543 15.9096392 16.0530078 13.1752084 17.4922543 13.6975338 14.4441007 11.4854283 12.285231 14.5424238 11.8409989"></polygon>
                                                <polygon id="Path" fill="#007E7E" points="26.0245773 9.06741679 27.3917928 11.8409989 30.4479695 12.285231 28.2366828 14.4441007 28.7581895 17.4922543 26.0245773 16.0530078 23.2901465 17.4922543 23.8124719 14.4441007 21.6003664 12.285231 24.6573619 11.8409989"></polygon>
                                                <polygon id="Path" fill="#007E7E" points="36.1386968 9.06741679 37.5059122 11.8409989 40.5629077 12.285231 38.3508022 14.4441007 38.8731276 17.4922543 36.1386968 16.0530078 33.4050846 17.4922543 33.9265913 14.4441007 31.7153046 12.285231 34.7714813 11.8409989"></polygon>
                                                <polygon id="Path" fill="#007E7E" points="46.2536349 9.06741679 47.6208503 11.8409989 50.6778458 12.285231 48.4657403 14.4441007 48.9880658 17.4922543 46.2536349 16.0530078 43.519204 17.4922543 44.0415294 14.4441007 41.829424 12.285231 44.8864195 11.8409989"></polygon>
                                                <polygon id="Path" stroke="#4A4A4A" stroke-width="0.5" points="56.368573 9.06741679 57.7349698 11.8409989 60.7919652 12.285231 58.5798598 14.4441007 59.1021852 17.4922543 56.368573 16.0530078 53.6341421 17.4922543 54.1564676 14.4441007 51.9443621 12.285231 55.0013576 11.8409989"></polygon>
                                                <path d="M33.75221,41.0070502 C33.75221,41.0939296 29.0283578,41.163597 23.2017278,41.163597 C17.3734603,41.163597 12.6504269,41.09311 12.6504269,41.0070502 C12.6504269,40.9209905 17.3734603,40.8505035 23.2017278,40.8505035 C29.0283578,40.8505035 33.75221,40.9201709 33.75221,41.0070502 Z" id="Path" fill="#E0E0E0"></path>
                                                <ellipse id="Oval" fill="#007E7E" cx="103.704519" cy="27.0997983" rx="17.2735799" ry="17.2930875"></ellipse>
                                            </g>
                                            <g transform="translate(91.693490, 4.098082)" id="Path">
                                                <g>
                                                    <g transform="translate(18.829913, 13.933480)">
                                                        <path d="M0.61974975,6.51349193 C2.34718961,7.79045436 5.33623364,1.98183258 3.65300315,0.605696557 C1.96895396,-0.769619847 1.04546952,1.7490615 1.04546952,1.7490615 L0.814598416,3.88826044 L0.56735347,5.88894419 L0.472385212,6.50529576 L0.61974975,6.51349193 Z" fill="#FFBE9D" fill-rule="nonzero"></path>
                                                        <g transform="translate(0.818692, 1.639233)" stroke="#1A1A1A" stroke-linecap="round" stroke-linejoin="round" stroke-width="0.5">
                                                            <path d="M2.36683821,0.717164394 C2.36683821,0.717164394 1.11423964,0.299160004 0.225958958,2.14493625"></path>
                                                            <path d="M0.834247021,1.24171892 C0.834247021,1.24171892 2.1965503,1.97117756 1.29680793,3.06782437"></path>
                                                        </g>
                                                    </g>
                                                    <g transform="translate(0.000000, 13.933480)">
                                                        <path d="M4.19579586,6.51349193 C2.468356,7.79045436 -0.520688033,1.98183258 1.16254246,0.605696557 C2.84659165,-0.769619847 3.77007609,1.7490615 3.77007609,1.7490615 L4.0009472,3.88826044 L4.24819214,5.88894419 L4.34397909,6.50529576 L4.19579586,6.51349193 Z" fill="#FFBE9D" fill-rule="nonzero"></path>
                                                        <g transform="translate(1.579594, 1.639233)" stroke="#EB996E" stroke-linecap="round" stroke-linejoin="round" stroke-width="0.5">
                                                            <path d="M0.049603096,0.717164394 C0.049603096,0.717164394 1.30220167,0.299160004 2.19048235,2.14493625"></path>
                                                            <path d="M1.58301298,1.24171892 C1.58301298,1.24171892 0.220709698,1.97117756 1.12045207,3.06782437"></path>
                                                        </g>
                                                    </g>
                                                    <path d="M19.8516406,12.9507595 C19.8516406,16.5488757 19.3743432,19.6535829 18.8970459,21.8567119 C18.4303915,24.0139424 17.116391,25.897421 15.2587792,27.1112729 L14.9206594,27.3325694 C12.9557989,28.6169084 10.4170354,28.6464145 8.42270201,27.4087937 L8.42270201,27.4087937 C6.41035739,26.1605179 5.00220736,24.1393437 4.56830067,21.8247468 C3.77990039,17.6143771 3.69393774,12.9507595 3.69393774,12.9507595 C3.69393774,12.9507595 2.94401598,3.86858964 11.6581723,4.04480718 C20.3715099,4.22184433 19.8516406,12.9507595 19.8516406,12.9507595 Z" fill="#FFBE9D" fill-rule="nonzero"></path>
                                                    <g transform="translate(4.912151, 11.474630)">
                                                        <path d="M6.08206194,4.37511261 L6.08206194,7.48637666 C6.08206194,7.59128756 6.10252924,7.69128077 6.13937037,7.78307781 C6.28346014,8.14370905 6.69853693,8.31664812 7.0734978,8.21665491 L7.88072799,8.0019154" stroke="#EB996E" stroke-width="0.5" stroke-linecap="round" stroke-linejoin="round"></path>
                                                        <path d="M3.80282376,3.50795841 C3.80282376,3.95219052 3.44341803,4.31200214 2.99968703,4.31200214 C2.55595604,4.31200214 2.1965503,3.95219052 2.1965503,3.50795841 C2.1965503,3.06372629 2.55595604,2.70391467 2.99968703,2.70391467 C3.44341803,2.70309505 3.80282376,3.06372629 3.80282376,3.50795841 Z" fill="#1A1A1A" fill-rule="nonzero"></path>
                                                        <path d="M11.2414581,3.50795841 C11.2414581,3.95219052 10.8820524,4.31200214 10.4383214,4.31200214 C9.99459042,4.31200214 9.63518468,3.95219052 9.63518468,3.50795841 C9.63518468,3.06372629 9.99459042,2.70391467 10.4383214,2.70391467 C10.8820524,2.70391467 11.2414581,3.06372629 11.2414581,3.50795841 Z" fill="#1A1A1A" fill-rule="nonzero"></path>
                                                        <path d="M4.45613988,4.38822647 L2.45771301,5.70780896" stroke="#EB996E" stroke-width="0.5" stroke-linecap="round" stroke-linejoin="round"></path>
                                                        <path d="M9.17262377,4.38084993 L10.9401795,5.71436589" stroke="#EB996E" stroke-width="0.5" stroke-linecap="round" stroke-linejoin="round"></path>
                                                        <path d="M3.28950396,9.62803444 C3.28950396,9.62803444 4.22854354,10.3484773 6.69935562,10.3484773 C8.94584612,10.3484773 10.349084,9.62803444 10.349084,9.62803444" stroke="#EB996E" stroke-width="0.5" stroke-linecap="round" stroke-linejoin="round"></path>
                                                        <path d="M0.483846898,2.28918875 C0.483846898,2.28918875 4.26538467,1.55153394 5.51716455,1.05976407 C5.51716455,1.05976407 2.56741772,-0.154087893 0.483846898,2.28918875 Z" fill="#263238" fill-rule="nonzero"></path>
                                                        <path d="M12.7372082,2.28918875 C12.7372082,2.28918875 8.95567043,1.55153394 7.70389055,1.05976407 C7.70389055,1.05976407 10.6528187,-0.154087893 12.7372082,2.28918875 Z" fill="#263238" fill-rule="nonzero"></path>
                                                        <path d="M5.81680578,11.7041229 C6.0861554,11.7041229 7.82096349,11.7041229 7.82096349,11.7041229" stroke="#EB996E" stroke-width="0.5" stroke-linecap="round" stroke-linejoin="round"></path>
                                                    </g>
                                                    <path d="M17.4708846,5.15866594 C17.4708846,5.15866594 18.3927317,-0.309815018 12.6152231,0.70650938 C8.26469448,1.47121153 4.53800907,3.33747819 2.65256168,5.6250277 C1.83632588,6.61430475 1.88299131,8.7739941 2.25304004,10.2345506 L3.32061425,14.8645639 L3.62189286,15.048158 C3.67183306,15.776797 3.76516394,15.2210971 3.89287987,16.0956278 C3.89287987,16.0956278 5.12419245,12.7983109 5.05951579,9.57312014 C5.50406548,10.4665021 6.73374068,12.0893426 9.36829113,10.4886317 C12.6946362,8.46745755 17.3726416,6.64708941 18.2248998,11.060724 L18.2248998,11.060724 C18.5638383,13.7384109 19.5994835,16.0948082 19.5994835,16.0948082 C19.6436929,15.7915501 19.680534,15.5005863 19.7132817,15.2145402 L20.482852,14.9817691 C20.482852,14.9825887 24.726132,4.04234833 17.4708846,5.15866594 Z" fill="#263238" fill-rule="nonzero"></path>
                                                </g>
                                                <path d="M21.7804787,35.3869402 C21.7804787,35.3869402 21.7624674,34.8951704 17.0402527,32.1576514 L17.0402527,32.1576514 L17.0402527,25.7228427 C17.0402527,25.7228427 16.1315047,26.8801411 14.6570406,27.6177959 C14.6570406,27.6177959 13.3577766,28.5136367 11.7310359,28.3415172 C10.1042951,28.1693978 8.88035077,27.9571171 7.97978971,27.1465164 C7.07922865,26.3359158 6.4291873,25.9097152 6.4291873,25.9097152 L6.4291873,32.1568318 C4.84911198,33.2329882 3.26903666,34.3099642 1.68896134,35.3861206 C3.1642441,36.6368553 5.79470109,38.4801727 9.43133041,39.0809516 C15.5092989,40.086621 21.845974,37.2032103 21.7804787,35.3869402 Z" fill="#FFBE9D" fill-rule="nonzero"></path>
                                                <path d="M6.4291873,25.9105348 C6.4291873,25.9105348 7.72435785,29.1701495 10.4194915,30.7077499 C12.3769838,31.8240675 14.9083791,31.39131 16.2362973,29.5701223 C16.898619,28.6619873 17.105748,27.5178027 17.105748,25.5515428 C17.105748,25.5515428 15.2448614,28.2038217 12.0274023,28.3374191 C8.80912458,28.4710166 6.4291873,25.9105348 6.4291873,25.9105348 Z" fill="#FF9566" fill-rule="nonzero"></path>
                                                <path d="M6.4291873,35.3508771 C6.4291873,35.3508771 10.9950319,39.1948783 17.0255162,35.3508771" stroke="#EB996E" stroke-width="0.5" stroke-linecap="round" stroke-linejoin="round"></path>
                                            </g>
                                        </g>
                                        <g transform="translate(12.935332, 122.942468)">
                                            <g fill-rule="nonzero">
                                                <g>
                                                    <rect id="Rectangle" fill="#F2F2F2" x="0.623024517" y="0.292603073" width="127.852654" height="50.4572279"></rect>
                                                    <path d="M128.475679,50.7490114 C128.475679,50.7490114 128.46831,50.4424748 128.464217,49.8539902 C128.461761,49.2622271 128.457667,48.3893356 128.452755,47.2467903 C128.446206,44.9543231 128.4372,41.5791425 128.425738,37.2269792 C128.411821,28.5283898 128.391353,15.9276065 128.366793,0.292603073 L128.475679,0.401612061 C96.2552412,0.413906307 50.8694197,0.430298636 0.632030128,0.449149815 L0.623843209,0.449149815 L0.780213357,0.292603073 C0.777757282,17.9430433 0.776119898,34.9935243 0.773663822,50.749831 L0.623843209,50.5998412 C37.6401777,50.6285277 69.5830786,50.6531162 92.2780361,50.6703282 C103.634111,50.6883597 112.674925,50.7022932 118.882247,50.7121286 C121.985089,50.7203248 124.378944,50.7268817 126.00241,50.7309798 C126.810459,50.7350779 127.425297,50.7383563 127.844467,50.7399956 C128.259544,50.743274 128.475679,50.7490114 128.475679,50.7490114 C128.475679,50.7490114 128.271824,50.7555683 127.863297,50.7580271 C127.44822,50.760486 126.839114,50.7629448 126.039252,50.7670429 C124.423154,50.771141 122.039942,50.7776979 118.950199,50.7858941 C112.750245,50.7957295 103.721711,50.809663 92.3803725,50.8276945 C69.6600356,50.8449065 37.6811123,50.869495 0.623843209,50.8981816 L0.474022596,50.8981816 L0.474022596,50.7473721 C0.472385212,34.9918851 0.469929137,17.9405845 0.467473061,0.290144223 L0.467473061,0.133597481 L0.623843209,0.133597481 L0.632030128,0.133597481 C50.8694197,0.15244866 96.2552412,0.169660605 128.475679,0.181135235 L128.584565,0.181135235 L128.584565,0.290144223 C128.559185,15.9530146 128.539537,28.5767472 128.525619,37.2900896 C128.514157,41.6324176 128.505152,44.9985823 128.498602,47.2861319 C128.49369,48.420481 128.489596,49.285996 128.48714,49.873661 C128.483047,50.4572279 128.475679,50.7490114 128.475679,50.7490114 Z" id="Path" fill="#263238"></path>
                                                </g>
                                                <path d="M73.1976032,27.2309369 C73.1976032,27.3178163 59.506619,27.3874837 42.6227364,27.3874837 C25.7323043,27.3874837 12.0445949,27.3169967 12.0445949,27.2309369 C12.0445949,27.1440576 25.7323043,27.0743902 42.6227364,27.0743902 C59.506619,27.0743902 73.1976032,27.1440576 73.1976032,27.2309369 Z" id="Path" fill="#263238"></path>
                                                <path d="M73.3728033,33.3419972 C73.3728033,33.4288765 59.6032246,33.4985439 42.6219177,33.4985439 C25.63488,33.4985439 11.8685761,33.4280569 11.8685761,33.3419972 C11.8685761,33.2551178 25.63488,33.1854505 42.6219177,33.1854505 C59.6040433,33.1854505 73.3728033,33.2559375 73.3728033,33.3419972 Z" id="Path" fill="#263238"></path>
                                                <polygon id="Path" fill="#007E7E" points="15.9096392 9.48951926 17.2768546 12.2622817 20.3338501 12.7073334 18.1217447 14.8662032 18.6440701 17.9135371 15.9096392 16.4751103 13.1752084 17.9135371 13.6975338 14.8662032 11.4854283 12.7073334 14.5424238 12.2622817"></polygon>
                                                <polygon id="Path" fill="#007E7E" points="26.0245773 9.48951926 27.3917928 12.2622817 30.4479695 12.7073334 28.2366828 14.8662032 28.7581895 17.9135371 26.0245773 16.4751103 23.2901465 17.9135371 23.8124719 14.8662032 21.6003664 12.7073334 24.6573619 12.2622817"></polygon>
                                                <polygon id="Path" fill="#007E7E" points="36.1386968 9.48951926 37.5059122 12.2622817 40.5629077 12.7073334 38.3508022 14.8662032 38.8731276 17.9135371 36.1386968 16.4751103 33.4050846 17.9135371 33.9265913 14.8662032 31.7153046 12.7073334 34.7714813 12.2622817"></polygon>
                                                <polygon id="Path" fill="#007E7E" points="46.2536349 9.48951926 47.6208503 12.2622817 50.6778458 12.7073334 48.4657403 14.8662032 48.9880658 17.9135371 46.2536349 16.4751103 43.519204 17.9135371 44.0415294 14.8662032 41.829424 12.7073334 44.8864195 12.2622817"></polygon>
                                                <polygon id="Path" stroke="#4A4A4A" stroke-width="0.5" points="56.368573 9.48951926 57.7349698 12.2622817 60.7919652 12.7073334 58.5798598 14.8662032 59.1021852 17.9135371 56.368573 16.4751103 53.6341421 17.9135371 54.1564676 14.8662032 51.9443621 12.7073334 55.0013576 12.2622817"></polygon>
                                                <path d="M33.75221,41.4291527 C33.75221,41.516032 29.0283578,41.5856994 23.2017278,41.5856994 C17.3734603,41.5856994 12.6504269,41.5152124 12.6504269,41.4291527 C12.6504269,41.3422734 17.3734603,41.272606 23.2017278,41.272606 C29.0283578,41.2717863 33.75221,41.3422734 33.75221,41.4291527 Z" id="Path" fill="#E0E0E0"></path>
                                                <ellipse id="Oval" fill="#007E7E" cx="103.704519" cy="27.5219008" rx="17.2735799" ry="17.2930875"></ellipse>
                                            </g>
                                            <g transform="translate(91.693490, 5.737315)" id="Path">
                                                <path d="M21.5021234,34.0034277 C21.5021234,34.0034277 21.4841122,33.5116578 16.7618975,30.7741389 L16.7618975,30.7741389 L16.7618975,24.3393301 C16.7618975,24.3393301 15.8531495,25.4966285 14.3786854,26.2342833 C14.3786854,26.2342833 13.0794214,27.1301241 11.4526806,26.9580047 C9.82593989,26.7858852 8.60199554,26.5736045 7.70143447,25.7630039 C6.80087341,24.9524032 6.15083206,24.5262027 6.15083206,24.5262027 L6.15083206,30.7733192 C4.57075674,31.8494756 2.99068142,32.9264517 1.4106061,34.0026081 C2.88588886,35.2533428 5.51634586,37.0966602 9.15297517,37.697439 C15.2309437,38.7031084 21.5676188,35.8196977 21.5021234,34.0034277 Z" fill="#FFBE9D" fill-rule="nonzero"></path>
                                                <path d="M6.15083206,24.5270223 C6.15083206,24.5270223 7.44600261,27.7866369 10.1411363,29.3242374 C12.0986285,30.440555 14.6300238,30.0077975 15.957942,28.1866097 C16.6202638,27.2784747 16.8273928,26.1342901 16.8273928,24.1680303 C16.8273928,24.1680303 14.9665062,26.8203091 11.7490471,26.9539066 C8.53076934,27.0866844 6.15083206,24.5270223 6.15083206,24.5270223 Z" fill="#FF9566" fill-rule="nonzero"></path>
                                                <path d="M6.15083206,33.9673645 C6.15083206,33.9673645 10.7166767,37.8113657 16.747161,33.9673645" stroke="#EB996E" stroke-width="0.5" stroke-linecap="round" stroke-linejoin="round"></path>
                                                <g>
                                                    <path d="M3.27313012,14.0785518 L2.88261409,9.90424518 C2.63946261,7.30524142 4.64771378,5.04555887 7.25442871,4.98408763 L15.8023906,4.7832816 C18.5556514,4.7185319 20.719454,7.1249258 20.3674165,9.85916628 L19.7730462,14.4686892 L3.27313012,14.0785518 Z" fill="#1A1A1A" fill-rule="nonzero"></path>
                                                    <path d="M3.23301422,14.3154209 L2.64109999,9.83621702 C2.44297656,6.33973324 4.54046514,3.3579686 7.19957635,3.3579686 L16.40986,3.3579686 C19.2302535,3.3579686 21.0190952,6.69298793 20.5622651,10.3632304 L20.3371249,15.0497973 L3.23301422,14.3154209 Z" fill="#263238" fill-rule="nonzero"></path>
                                                    <g transform="translate(18.829913, 12.294247)">
                                                        <path d="M0.519050649,6.93149632 C2.24403443,8.2059999 5.22816632,2.40721351 3.5465732,1.03353634 C1.86579878,-0.340140827 0.943133041,2.17444244 0.943133041,2.17444244 L0.712261932,4.31036291 L0.465835677,6.3077682 L0.37086742,6.92248054 L0.519050649,6.93149632 Z" fill="#FFBE9D" fill-rule="nonzero"></path>
                                                        <g transform="translate(0.818692, 2.458849)" stroke="#EB996E" stroke-linecap="round" stroke-linejoin="round" stroke-width="0.5">
                                                            <path d="M2.26204565,0.322109265 C2.26204565,0.322109265 1.01190316,-0.0958951247 0.124441165,1.74742227"></path>
                                                            <path d="M0.731910537,0.845844177 C0.731910537,0.845844177 2.09257643,1.5744832 1.19365275,2.66949078"></path>
                                                        </g>
                                                    </g>
                                                    <g transform="translate(0.000000, 12.294247)">
                                                        <path d="M4.12047621,6.93149632 C2.39549243,8.2059999 -0.587820767,2.40721351 1.09295365,1.03353634 C2.77372807,-0.340140827 3.69639382,2.17444244 3.69639382,2.17444244 L3.92726493,4.31036291 L4.17369118,6.3077682 L4.26865944,6.92248054 L4.12047621,6.93149632 Z" fill="#FFBE9D" fill-rule="nonzero"></path>
                                                        <g transform="translate(0.818692, 2.458849)" stroke="#EB996E" stroke-linecap="round" stroke-linejoin="round" stroke-width="0.5">
                                                            <path d="M0.740097455,0.322109265 C0.740097455,0.322109265 1.99023995,-0.0958951247 2.87770194,1.74742227"></path>
                                                            <path d="M2.27105126,0.845844177 C2.27105126,0.845844177 0.910385366,1.5744832 1.80930904,2.66949078"></path>
                                                        </g>
                                                    </g>
                                                    <path d="M19.7509415,11.7418253 C19.7509415,15.3333845 19.2744628,18.433174 18.7979842,20.6330245 C18.3321485,22.7869765 17.0197854,24.6671767 15.166267,25.8785698 L14.8289659,26.0990466 C12.8673802,27.3809268 10.3335289,27.4104329 8.34165152,26.175271 L8.34165152,26.175271 C6.33340035,24.9294539 4.92688771,22.9115582 4.4937997,20.6002399 C3.70703681,16.3964271 3.62025547,11.7410056 3.62025547,11.7410056 C3.62025547,11.7410056 2.87115241,2.67358886 11.5705723,2.8498064 C20.2691735,3.02766317 19.7509415,11.7418253 19.7509415,11.7418253 Z" fill="#FFBE9D" fill-rule="nonzero"></path>
                                                    <g transform="translate(4.912151, 10.655014)">
                                                        <path d="M5.9960993,4.3398691 L5.9960993,7.44539583 C5.9960993,7.54948712 6.01656659,7.65029995 6.05258904,7.74209699 C6.19667881,8.10272823 6.61093689,8.27484768 6.98589777,8.17567409 L7.79149058,7.96093458" stroke="#EB996E" stroke-width="0.5" stroke-linecap="round" stroke-linejoin="round"></path>
                                                        <path d="M3.72013588,3.47353452 C3.72013588,3.91694702 3.36073015,4.27675864 2.91781784,4.27675864 C2.47490554,4.27675864 2.11549981,3.91694702 2.11549981,3.47353452 C2.11549981,3.03012202 2.47490554,2.67031039 2.91781784,2.67031039 C3.36154884,2.67113001 3.72013588,3.03012202 3.72013588,3.47353452 Z" fill="#1A1A1A" fill-rule="nonzero"></path>
                                                        <path d="M11.1456712,3.47353452 C11.1456712,3.91694702 10.7862655,4.27675864 10.3433532,4.27675864 C9.90044085,4.27675864 9.54103512,3.91694702 9.54103512,3.47353452 C9.54103512,3.03012202 9.90044085,2.67031039 10.3433532,2.67031039 C10.7870842,2.67113001 11.1456712,3.03012202 11.1456712,3.47353452 Z" fill="#1A1A1A" fill-rule="nonzero"></path>
                                                        <path d="M4.37181462,4.35298297 L2.37748121,5.6701066" stroke="#EB996E" stroke-width="0.5" stroke-linecap="round" stroke-linejoin="round"></path>
                                                        <path d="M9.08093028,4.34560642 L10.8452113,5.67666353" stroke="#EB996E" stroke-width="0.5" stroke-linecap="round" stroke-linejoin="round"></path>
                                                        <path d="M4.44304081,9.70999608 C4.44304081,9.70999608 5.05214756,10.1771775 6.65350887,10.1771775 C8.10996172,10.1771775 9.01952839,9.70999608 9.01952839,9.70999608" stroke="#EB996E" stroke-width="0.5" stroke-linecap="round" stroke-linejoin="round"></path>
                                                        <path d="M0.406889862,2.08100617 C0.406889862,2.08100617 4.1818781,1.34499059 5.43202059,0.854040341 C5.43202059,0.854040341 2.48718592,-0.357352772 0.406889862,2.08100617 Z" fill="#263238" fill-rule="nonzero"></path>
                                                        <path d="M12.6389652,2.08100617 C12.6389652,2.08100617 8.86397694,1.34499059 7.61383444,0.854040341 C7.61465313,0.854040341 10.5586691,-0.357352772 12.6389652,2.08100617 Z" fill="#263238" fill-rule="nonzero"></path>
                                                        <path d="M6.71900422,14.0375709 L6.71900422,14.9063644" stroke="#EB996E" stroke-width="0.5" stroke-linecap="round" stroke-linejoin="round"></path>
                                                    </g>
                                                    <path d="M3.81837891,14.8817759 C3.81837891,14.8817759 6.2073218,9.80671083 4.91215125,6.07171866 C4.91215125,6.07089905 2.79255799,7.8773337 3.81837891,14.8817759 Z" fill="#263238" fill-rule="nonzero"></path>
                                                    <path d="M19.6052143,15.1997871 C19.6052143,15.1997871 16.7504358,9.80589121 18.0456063,6.07089905 C18.046425,6.07089905 21.2556972,8.12895595 19.6052143,15.1997871 Z" fill="#263238" fill-rule="nonzero"></path>
                                                    <path d="M20.6253044,9.62557559 C21.620015,3.84482077 17.9490007,1.20319695 17.9490007,1.20319695 L17.9490007,1.20401657 C17.5593033,0.77125908 17.0443462,0.419643622 16.3648319,0.212280661 C14.2010293,-0.449969431 12.3573352,0.674544338 9.74898285,2.05149997 C9.74652678,2.05231959 9.7440707,2.05313921 9.74161463,2.05477844 C6.77876873,3.43419293 6.20486572,3.50304071 6.20486572,3.50304071 L5.98873107,4.05710143 C5.97890677,4.06201913 5.97071985,4.06693683 5.96089555,4.07185452 L3.53756759,7.23885249 C3.53756759,7.23885249 11.5451928,10.2730726 18.8479244,6.67413675 L20.6253044,9.62557559 Z" fill="#263238" fill-rule="nonzero"></path>
                                                </g>
                                            </g>
                                        </g>
                                        <g transform="translate(0.000000, 56.413950)">
                                            <g fill-rule="nonzero">
                                                <rect id="Rectangle" fill="#F2F2F2" x="0.839977864" y="0.649353186" width="153.423185" height="60.8454807"></rect>
                                                <path d="M154.263163,61.4948339 C154.263163,61.4948339 154.254321,61.1251869 154.249409,60.4155437 C154.246461,59.701947 154.241549,58.6493425 154.235655,57.2715673 C154.228778,54.5071215 154.216989,50.4370509 154.203235,45.1888539 C154.186533,34.6993785 154.161972,19.5043162 154.1325,0.650341547 L154.263163,0.781793562 C115.597655,0.795630616 61.1346696,0.816386197 0.849802167,0.8391185 L0.839977864,0.8391185 L1.02762204,0.650341547 C1.02467475,21.934696 1.02270989,42.4955701 1.0197626,61.4958223 L0.839977864,61.3149522 C45.2595792,61.3495448 83.5910603,61.3791957 110.825009,61.3999512 C124.452299,61.4216952 135.301277,61.4384973 142.750063,61.4503576 C146.473473,61.4602413 149.346099,61.4681481 151.294259,61.47309 C152.263917,61.4780318 153.001722,61.4819852 153.504727,61.4839619 C154.002819,61.486927 154.263163,61.4948339 154.263163,61.4948339 C154.263163,61.4948339 154.018538,61.5027408 153.528305,61.5057059 C153.030213,61.5086709 152.299285,61.511636 151.33945,61.5165778 C149.400133,61.5215196 146.540279,61.5294265 142.832587,61.5393101 C135.392643,61.5511705 124.558402,61.5679726 110.948795,61.5897166 C83.6843912,61.6104721 45.3096832,61.640123 0.840960294,61.6747156 L0.660193128,61.6747156 L0.660193128,61.4928572 C0.657245838,42.4935934 0.655280977,21.9317309 0.652333686,0.647376464 L0.652333686,0.45859951 L0.839977864,0.45859951 L0.849802167,0.45859951 C61.1346696,0.481331814 115.597655,0.501099034 154.26218,0.515924449 L154.392844,0.515924449 L154.392844,0.647376464 C154.363371,19.5369322 154.339792,34.7596685 154.323091,45.2669344 C154.309337,50.5032711 154.29853,54.5624697 154.290671,57.3209853 C154.284776,58.688877 154.279864,59.7335746 154.276917,60.4422294 C154.272005,61.1429774 154.263163,61.4948339 154.263163,61.4948339 Z" id="Path" fill="#263238"></path>
                                            </g>
                                            <path d="M87.8371238,33.0814315 C87.8371238,33.1861977 71.4079428,33.2702084 51.1472837,33.2702084 C30.8787652,33.2702084 14.4535138,33.1852094 14.4535138,33.0814315 C14.4535138,32.9766652 30.8787652,32.8926545 51.1472837,32.8926545 C71.4079428,32.8926545 87.8371238,32.9776536 87.8371238,33.0814315 Z" id="Path" fill="#263238" fill-rule="nonzero"></path>
                                            <path d="M88.0473639,40.4516396 C88.0473639,40.5564058 71.5238695,40.6404165 51.1463013,40.6404165 C30.761856,40.6404165 14.2422913,40.5554175 14.2422913,40.4516396 C14.2422913,40.3478617 30.761856,40.2628626 51.1463013,40.2628626 C71.524852,40.2628626 88.0473639,40.3468733 88.0473639,40.4516396 Z" id="Path" fill="#263238" fill-rule="nonzero"></path>
                                            <polygon id="Path" fill="#007E7E" fill-rule="nonzero" points="19.0915671 11.687369 20.7322256 15.0319827 24.4006201 15.5676743 21.7460936 18.1710172 22.3728841 21.8467318 19.0915671 20.1111699 15.81025 21.8467318 16.4370405 18.1710172 13.782514 15.5676743 17.4509085 15.0319827"></polygon>
                                            <polygon id="Path" fill="#007E7E" fill-rule="nonzero" points="31.2294928 11.687369 32.8701513 15.0319827 36.5375634 15.5676743 33.8840193 18.1710172 34.5098274 21.8467318 31.2294928 20.1111699 27.9481758 21.8467318 28.5749663 18.1710172 25.9204397 15.5676743 29.5888343 15.0319827"></polygon>
                                            <polygon id="Path" fill="#007E7E" fill-rule="nonzero" points="43.3664361 11.687369 45.0070946 15.0319827 48.6754892 15.5676743 46.0209627 18.1710172 46.6477532 21.8467318 43.3664361 20.1111699 40.0861015 21.8467318 40.7119096 18.1710172 38.0583655 15.5676743 41.7257776 15.0319827"></polygon>
                                            <polygon id="Path" fill="#007E7E" fill-rule="nonzero" points="55.5043619 11.687369 57.1450204 15.0319827 60.8134149 15.5676743 58.1588884 18.1710172 58.7856789 21.8467318 55.5043619 20.1111699 52.2230448 21.8467318 52.8498353 18.1710172 50.1953088 15.5676743 53.8637033 15.0319827"></polygon>
                                            <polygon id="Path" fill="#007E7E" fill-rule="nonzero" points="67.6422876 11.687369 69.2819637 15.0319827 72.9503583 15.5676743 70.2958317 18.1710172 70.9226222 21.8467318 67.6422876 20.1111699 64.3609706 21.8467318 64.9877611 18.1710172 62.3332345 15.5676743 66.0016291 15.0319827"></polygon>
                                            <path d="M40.5026519,50.2028093 C40.5026519,50.3075756 34.8340294,50.3915863 27.8420733,50.3915863 C20.8481523,50.3915863 15.1805122,50.3065872 15.1805122,50.2028093 C15.1805122,50.098043 20.8481523,50.0140324 27.8420733,50.0140324 C34.8340294,50.0140324 40.5026519,50.0990314 40.5026519,50.2028093 Z" id="Path" fill="#E0E0E0" fill-rule="nonzero"></path>
                                            <ellipse id="Oval" fill="#007E7E" fill-rule="nonzero" transform="translate(124.447936, 33.433896) rotate(-76.879555) translate(-124.447936, -33.433896) " cx="124.447936" cy="33.4338959" rx="20.8471063" ry="20.7348685"></ellipse>
                                            <g transform="translate(108.067328, 7.906888)">
                                                <g fill="#1A1A1A" fill-rule="nonzero" id="Path">
                                                    <path d="M4.683245,9.78675075 C4.683245,9.78675075 3.19191588,15.5854648 1.07281383,17.6461975 C-2.07980484,20.7130818 12.0102098,43.1241677 12.0102098,43.1241677 L12.0102098,10.222618 L4.683245,9.78675075 Z"></path>
                                                    <path d="M28.0739268,9.78675075 C28.0739268,9.78675075 29.565256,15.5854648 31.684358,17.6461975 C34.8369767,20.7130818 20.746962,43.1241677 20.746962,43.1241677 L20.746962,10.222618 L28.0739268,9.78675075 Z"></path>
                                                    <path d="M28.2036076,11.6359742 C28.2036076,18.4754324 22.9132207,24.0191493 16.387919,24.0191493 C9.86261729,24.0191493 4.57223039,18.4744441 4.57223039,11.6359742 C4.57223039,4.796516 9.86261729,0.144300708 16.387919,0.144300708 C22.9132207,0.144300708 28.2036076,4.796516 28.2036076,11.6359742 Z"></path>
                                                </g>
                                                <path d="M26.1414865,42.1308649 C24.2650448,41.2739559 23.3228941,39.2695598 21.7323396,35.8112846 C21.5260292,35.3625687 21.422874,34.9662359 21.3698228,34.7161806 L21.3698228,28.1692772 C21.3698228,28.1692772 19.5650984,29.6280981 17.1709159,29.980943 C14.775751,30.3337879 12.4572156,29.2228701 12.4277427,29.2100214 C12.3982698,29.1961843 10.471724,27.9241637 10.471724,27.9241637 L10.471724,34.6677509 C10.471724,34.8812369 10.4383214,35.0927461 10.3724986,35.2933834 C10.3724986,35.2933834 10.275238,35.5859383 10.0777695,35.8518074 C9.56887064,36.5367416 6.92023869,41.0545398 5.69907788,42.1308649 C8.7622954,43.8595083 11.5936594,45.1898423 15.6619031,45.1898423 C21.3698228,45.1898423 27.1199871,42.5776041 26.1414865,42.1308649 Z" id="Path" fill="#FFBE9D" fill-rule="nonzero"></path>
                                                <path d="M10.6495439,28.1692772 C10.6495439,28.1692772 12.4886533,32.4152762 15.6167113,33.3354403 C16.4527594,33.5815422 17.3448061,33.4975315 18.1503989,33.1654422 C19.3273503,32.6801569 21.1163558,31.5801111 21.3698228,29.3226945 L21.3698228,28.1692772 C21.3698228,28.1692772 16.3299556,32.2689987 10.6495439,28.1692772 Z" id="Path" fill="#FF9566" fill-rule="nonzero"></path>
                                                <g transform="translate(1.964861, 0.988361)">
                                                    <path d="M24.1864503,11.2851061 C24.1864503,15.5488955 23.5969922,19.2285635 23.0085165,21.8398133 C22.4318299,24.3967033 20.81082,26.1826716 18.5188102,27.6217252 L18.1012774,27.8836409 C15.6766395,29.4057169 12.5436694,29.4403095 10.0816992,27.9745701 L10.0816992,27.9745701 C7.59909799,26.495982 5.86019644,24.5459458 5.32477196,21.8022556 C4.35216601,16.8120208 4.24508111,11.2860944 4.24508111,11.2860944 C4.24508111,11.2860944 3.31963182,0.521854615 14.0733133,0.730398789 C24.8279773,0.939931324 24.1864503,11.2851061 24.1864503,11.2851061 Z" id="Path" fill="#FFBE9D" fill-rule="nonzero"></path>
                                                    <g transform="translate(0.000000, 13.837054)" id="Path">
                                                        <path d="M5.00253484,7.71909951 C2.98855282,9.21547809 -0.495144846,2.41061251 1.46676836,0.798595699 C3.429664,-0.813421114 4.50640756,2.13782487 4.50640756,2.13782487 L5.44462845,7.56788028 L5.00253484,7.71909951 Z" fill="#FFBE9D" fill-rule="nonzero"></path>
                                                        <g transform="translate(1.964861, 1.976722)" stroke="#EB996E" stroke-linecap="round" stroke-linejoin="round" stroke-width="0.547842573">
                                                            <path d="M0.136557805,0.872722775 C0.136557805,0.872722775 1.59644916,0.382495712 2.63291307,2.54502961"></path>
                                                            <path d="M1.92359843,1.48649496 C1.92359843,1.48649496 0.335008715,2.34142724 1.38424422,3.62629656"></path>
                                                        </g>
                                                    </g>
                                                    <g transform="translate(22.595896, 13.837054)" id="Path">
                                                        <path d="M0.870433202,7.71909951 C2.88441522,9.21547809 6.36811288,2.41061251 4.40619967,0.798595699 C2.44330403,-0.813421114 1.36656048,2.13782487 1.36656048,2.13782487 L0.408690984,7.47991615 L0.870433202,7.71909951 Z" fill="#FFBE9D" fill-rule="nonzero"></path>
                                                        <g transform="translate(0.982430, 1.976722)" stroke="#EB996E" stroke-linecap="round" stroke-linejoin="round" stroke-width="0.547842573">
                                                            <path d="M2.78911948,0.872722775 C2.78911948,0.872722775 1.32922813,0.382495712 0.292764215,2.54502961"></path>
                                                            <path d="M1.00207886,1.48649496 C1.00207886,1.48649496 2.59066857,2.34142724 1.54143306,3.62629656"></path>
                                                        </g>
                                                    </g>
                                                    <g transform="translate(3.929721, 10.645961)">
                                                        <path d="M9.60423813,6.4279757 L9.60423813,8.05679465 C9.60423813,8.18626994 9.62879889,8.31080343 9.67399068,8.42545331 C9.85181055,8.87318085 10.3636567,9.08765519 10.8273638,8.96411006 L11.380472,8.69725259" id="Path" stroke="#EB996E" stroke-width="0.547842573" stroke-linecap="round" stroke-linejoin="round"></path>
                                                        <path d="M6.51253013,4.10631568 C6.51253013,4.65683276 6.06847166,5.10357194 5.52125801,5.10357194 C4.97404436,5.10357194 4.52998589,4.65683276 4.52998589,4.10631568 C4.52998589,3.5557986 4.97404436,3.10905942 5.52125801,3.10905942 C6.06847166,3.10905942 6.51253013,3.55481023 6.51253013,4.10631568 Z" id="Path" fill="#1A1A1A" fill-rule="nonzero"></path>
                                                        <path d="M15.6923584,4.10631568 C15.6923584,4.65683276 15.2482999,5.10357194 14.7010863,5.10357194 C14.1538726,5.10357194 13.7098141,4.65683276 13.7098141,4.10631568 C13.7098141,3.5557986 14.1538726,3.10905942 14.7010863,3.10905942 C15.2482999,3.10905942 15.6923584,3.55481023 15.6923584,4.10631568 Z" id="Path" fill="#1A1A1A" fill-rule="nonzero"></path>
                                                        <path d="M7.31812294,5.19746624 L4.85222301,6.83419208" id="Path" stroke="#EB996E" stroke-width="0.547842573" stroke-linecap="round" stroke-linejoin="round"></path>
                                                        <path d="M13.1390222,5.18955935 L15.3200173,6.84308733" id="Path" stroke="#EB996E" stroke-width="0.547842573" stroke-linecap="round" stroke-linejoin="round"></path>
                                                        <path d="M2.31657053,1.49901933 C2.31657053,1.49901933 7.06269107,1.22722005 8.67584154,0.832864004 C8.67682397,0.832864004 5.27172072,-1.15275327 2.31657053,1.49901933 Z" id="Path" fill="#1A1A1A" fill-rule="nonzero"></path>
                                                        <path d="M18.0334897,1.49012408 C18.0334897,1.49012408 13.2863867,1.23117349 11.6722538,0.841759253 C11.6712714,0.841759253 15.07048,-1.15374163 18.0334897,1.49012408 Z" id="Path" fill="#1A1A1A" fill-rule="nonzero"></path>
                                                        <path d="M6.43393571,10.6710095 C6.43393571,10.6710095 8.31528964,11.5753599 10.2133449,11.5753599 C12.1114001,11.5753599 13.9927541,10.6710095 13.9927541,10.6710095" id="Path" stroke="#EB996E" stroke-width="0.547842573" stroke-linecap="round" stroke-linejoin="round"></path>
                                                        <g transform="translate(0.000000, 0.226010)" stroke="#1A1A1A" stroke-linecap="round" stroke-linejoin="round" stroke-width="0.5">
                                                            <ellipse id="Oval" cx="5.32378953" cy="4.01669916" rx="3.97786008" ry="4.00187374"></ellipse>
                                                            <ellipse id="Oval" cx="15.0960232" cy="4.01669916" rx="3.97786008" ry="4.00187374"></ellipse>
                                                            <path d="M9.30164961,4.01669916 C9.30164961,4.01669916 10.2438002,3.13211605 11.1181631,4.01669916" id="Path"></path>
                                                            <path d="M1.34494701,4.01669916 L0.0923484436,3.98408325" id="Path"></path>
                                                            <path d="M19.0738833,4.01669916 L20.3353238,3.98408325" id="Path"></path>
                                                        </g>
                                                    </g>
                                                    <path d="M25.4685218,8.65112395 C24.82503,5.42214852 21.6272195,2.50450681 20.6565784,1.7948636 C19.452119,0.59499333 17.8546874,0.640457937 15.7375502,0.365693575 C15.7375502,0.365693575 8.97351791,-0.424995236 6.45260189,2.77136428 C5.46034733,3.6480405 4.15862725,6.19998864 3.66937699,8.65211231 C2.83824099,12.8220074 4.38360378,14.6376266 4.38360378,14.6376266 C4.38360378,14.6376266 7.02437629,11.0449343 7.68948157,6.63783257 C9.7103406,8.32002301 13.7884086,10.4232552 21.5103103,10.3461631 C22.5890188,12.7795079 23.8710902,14.4419311 23.8710902,14.4419311 C23.8710902,14.4419311 26.2996578,12.8220074 25.4685218,8.65112395 Z" id="Path" fill="#1A1A1A" fill-rule="nonzero"></path>
                                                </g>
                                            </g>
                                        </g>
                                        <g transform="translate(143.049550, 45.741040)" fill-rule="nonzero">
                                            <ellipse id="Oval" fill="#007E7E" cx="10.5083001" cy="10.7025181" rx="10.2526371" ry="10.2721589"></ellipse>
                                            <path d="M9.89388417,14.2596955 C9.73581294,14.2596955 9.58049078,14.2046096 9.45678287,14.1027005 L6.00601929,11.2568208 C5.71324389,11.0151311 5.67132066,10.581329 5.91186382,10.2873075 C6.15309426,9.99328608 6.5853847,9.95197159 6.87953463,10.1936613 L9.79697964,12.6002303 L14.0401611,7.39804766 C14.2807043,7.10402622 14.7123075,7.05858028 15.0071447,7.30027003 C15.3012946,7.54127122 15.3445924,7.97438476 15.1047365,8.26909478 L10.4251409,14.0056114 C10.3096802,14.1474579 10.1426745,14.2369726 9.96054899,14.2548755 C9.93924374,14.2583184 9.91656395,14.2596955 9.89388417,14.2596955 Z" id="Path" fill="#FFFFFF"></path>
                                        </g>
                                    </g>
                                    <g id="0005" transform="translate(66.198462, 51.839846)" fill="#007E7E" fill-rule="nonzero">
                                        <g id="Group" transform="translate(0.000000, 135.698420)">
                                            <path d="M5.17717626,12.0428536 L6.84431224,12.0428536 L10.4829449,17.1239208 L10.4829449,20.4584426 C10.4829449,20.4584426 13.0601195,20.6170116 12.7572806,16.2510293 C12.4536808,11.8842846 12.7816295,12.9965543 12.7816295,12.9965543 C12.7816295,12.9965543 18.2540356,12.9752084 18.709055,12.4987393 C19.0400473,12.1526321 19.189184,6.70639886 19.2462517,3.75229001 C19.2751659,2.2657062 18.3643664,0.882802078 16.9840904,0.531358418 C16.7877778,0.481043274 16.5899433,0.452073948 16.3951524,0.452073948 C15.0300945,0.452073948 8.0564289,1.56358123 8.0564289,1.56358123 L5.17641536,1.56358123 L5.17717626,12.0428536 Z" id="Path"></path>
                                            <polygon id="Path" points="0.403277986 12.9584367 1.42897369 1.53232485 4.28463838 1.53232485 4.28463838 12.7282068"></polygon>
                                        </g>
                                        <g id="Group" transform="translate(117.939788, 0.000000)">
                                            <path d="M14.2402783,8.48038888 L12.6408626,8.48038888 L9.14984488,3.60591868 L9.14984488,0.406332908 C9.14984488,0.406332908 6.67691383,0.253862774 6.96757834,4.44374207 C7.25900375,8.63362136 6.94399038,7.56633042 6.94399038,7.56633042 C6.94399038,7.56633042 1.69300664,7.58691389 1.25700987,8.04356194 C0.939713798,8.37594683 0.795903346,13.6010983 0.741118412,16.4355181 C0.713725945,17.8618762 1.58648038,19.1891288 2.91121052,19.5260878 C3.09915328,19.5741159 3.28937874,19.6023228 3.4765606,19.6023228 C4.7860727,19.6023228 11.4774437,18.5357942 11.4774437,18.5357942 L14.2410392,18.5357942 L14.2402783,8.48038888 Z" id="Path"></path>
                                            <polygon id="Path" points="18.8201466 7.60139855 17.8363005 18.5647636 15.0962929 18.5647636 15.0962929 7.82248025"></polygon>
                                        </g>
                                    </g>
                                </g>
                            </g>
                        </g>
                    </g>
                </g>
            </g>
        </g>
    </g>
</svg>