<svg width="14px" height="18px" viewBox="0 0 14 18" version="1.1" xmlns="http://www.w3.org/2000/svg" xmlns:xlink="http://www.w3.org/1999/xlink">
  <defs>
    <path d="M13,17.5857864 L17.2928932,13.2928932 C17.6834175,12.9023689 18.3165825,12.9023689 18.7071068,13.2928932 C19.0976311,13.6834175 19.0976311,14.3165825 18.7071068,14.7071068 L12.7071068,20.7071068 C12.3165825,21.0976311 11.6834175,21.0976311 11.2928932,20.7071068 L5.29289322,14.7071068 C4.90236893,14.3165825 4.90236893,13.6834175 5.29289322,13.2928932 C5.68341751,12.9023689 6.31658249,12.9023689 6.70710678,13.2928932 L11,17.5857864 L11,4 C11,3.44771525 11.4477153,3 12,3 C12.5522847,3 13,3.44771525 13,4 L13,17.5857864 Z" id="path-1"></path>
  </defs>
  <g id="Symbols" stroke="none" stroke-width="1" fill="none" fill-rule="evenodd">
    <g id="footer/black_1440" transform="translate(-1384.000000, -40.000000)">
      <g id="footer">
        <g id="Scroll-to-explore" transform="translate(1248.000000, 37.000000)">
          <g id="arrow-down" transform="translate(131.000000, 0.000000)">
            <mask id="mask-2" fill="white">
              <use xlink:href="#path-1"></use>
            </mask>
            <use id="Combined-Shape" fill="#000000" fill-rule="nonzero" xlink:href="#path-1"></use>
            <g id="COLOR/-white" mask="url(#mask-2)" fill="#4a4a4a" fill-rule="evenodd">
              <rect id="Rectangle" x="0" y="0" width="24" height="24"></rect>
            </g>
          </g>
        </g>
      </g>
    </g>
  </g>
</svg>
