<svg width="46px" height="60px" viewBox="0 0 46 60" version="1.1" xmlns="http://www.w3.org/2000/svg"
     xmlns:xlink="http://www.w3.org/1999/xlink">
    <g id="Main-New" stroke="none" stroke-width="1" fill="none" fill-rule="evenodd">
        <g id="1.-Main-Pasive-v.1-Copy-7" transform="translate(-196.000000, -4629.000000)" fill-rule="nonzero">
            <g id="02" transform="translate(133.000000, 4533.000000)">
                <g id="Group-5">
                    <g id="Group-2" transform="translate(0.000000, 56.000000)">
                        <g id="001">
                            <g id="layers-2" transform="translate(63.000000, 40.000000)">
                                <polygon id="Path" fill="#007E7E"
                                         points="19.3781421 40.4084766 19.3760406 41.1297656 9.77009645 46.7329687 0.10122335 41.1297656 0.103208122 40.4085937 9.70926904 34.8052734"></polygon>
                                <polygon id="Path" fill="#035858"
                                         points="19.3781421 40.4084766 19.3760406 41.1297656 9.77009645 46.7329687 9.77208122 46.0117969"></polygon>
                                <polygon id="Path" fill="#035858"
                                         points="9.77208122 46.0117969 9.77009645 46.7329687 0.10122335 41.1297656 0.103208122 40.4085937"></polygon>
                                <polygon id="Path" fill="#007E7E"
                                         points="19.3781421 36.5411719 19.3760406 37.2624609 9.77009645 42.8656641 0.10122335 37.2625781 0.103208122 36.5412891 9.70926904 30.9379687"></polygon>
                                <polygon id="Path" fill="#035858"
                                         points="19.3781421 36.5411719 19.3760406 37.2624609 9.77009645 42.8656641 9.77208122 42.1444922"></polygon>
                                <polygon id="Path" fill="#035858"
                                         points="9.77208122 42.1444922 9.77009645 42.8656641 0.10122335 37.2625781 0.103208122 36.5412891"></polygon>
                                <polygon id="Path" fill="#5CDFDF"
                                         points="19.3781421 32.6739844 19.3760406 33.3951562 9.77009645 38.9984766 0.10122335 33.3952734 0.103208122 32.6741016 9.70926904 27.0707812"></polygon>
                                <polygon id="Path" fill="#007E7E"
                                         points="19.3781421 32.6739844 19.3760406 33.3951562 9.77009645 38.9984766 9.77208122 38.2773047"></polygon>
                                <polygon id="Path" fill="#007E7E"
                                         points="9.77208122 38.2773047 9.77009645 38.9984766 0.10122335 33.3952734 0.103208122 32.6741016"></polygon>
                                <polygon id="Path" fill="#5CDFDF"
                                         points="19.3781421 28.8066797 19.3760406 29.5278516 9.77009645 35.1311719 0.10122335 29.5279688 0.103208122 28.8067969 9.70926904 23.2034766"></polygon>
                                <polygon id="Path" fill="#007E7E"
                                         points="19.3781421 28.8066797 19.3760406 29.5278516 9.77009645 35.1311719 9.77208122 34.41"></polygon>
                                <polygon id="Path" fill="#007E7E"
                                         points="9.77208122 34.41 9.77009645 35.1311719 0.10122335 29.5279687 0.103208122 28.8067969"></polygon>
                                <polygon id="Path" fill="#5CDFDF"
                                         points="19.3781421 24.9394922 19.3760406 25.6606641 9.77009645 31.2639844 0.10122335 25.6607813 0.103208122 24.9396094 9.70926904 19.3362891"></polygon>
                                <polygon id="Path" fill="#007E7E"
                                         points="19.3781421 24.9394922 19.3760406 25.6606641 9.77009645 31.2639844 9.77208122 30.5426953"></polygon>
                                <polygon id="Path" fill="#007E7E"
                                         points="9.77208122 30.5426953 9.77009645 31.2639844 0.10122335 25.6607812 0.103208122 24.9396094"></polygon>
                                <polygon id="Path" fill="#5CDFDF"
                                         points="19.3781421 21.0721875 19.3760406 21.7933594 9.77009645 27.3966797 0.10122335 21.7934766 0.103208122 21.0723047 9.70926904 15.4689844"></polygon>
                                <polygon id="Path" fill="#007E7E"
                                         points="19.3781421 21.0721875 19.3760406 21.7933594 9.77009645 27.3966797 9.77208122 26.6755078"></polygon>
                                <polygon id="Path" fill="#007E7E"
                                         points="9.77208122 26.6755078 9.77009645 27.3966797 0.10122335 21.7934766 0.103208122 21.0723047"></polygon>
                                <polygon id="Path" fill="#5CDFDF"
                                         points="19.3781421 17.2048828 19.3760406 17.9261719 9.77009645 23.5294922 0.10122335 17.9262891 0.103208122 17.2051172 9.70926904 11.6017969"></polygon>
                                <polygon id="Path" fill="#007E7E"
                                         points="19.3781421 17.2048828 19.3760406 17.9261719 9.77009645 23.5294922 9.77208122 22.8080859"></polygon>
                                <polygon id="Path" fill="#007E7E"
                                         points="9.77208122 22.8080859 9.77009645 23.5294922 0.10122335 17.9262891 0.103208122 17.2051172"></polygon>
                                <polygon id="Path" fill="#5CDFDF"
                                         points="19.3781421 13.3376953 19.3760406 14.0588672 9.77009645 19.6621875 0.10122335 14.0589844 0.103208122 13.3378125 9.70926904 7.73449219"></polygon>
                                <polygon id="Path" fill="#007E7E"
                                         points="19.3781421 13.3376953 19.3760406 14.0588672 9.77009645 19.6621875 9.77208122 18.9408984"></polygon>
                                <polygon id="Path" fill="#007E7E"
                                         points="9.77208122 18.9408984 9.77009645 19.6621875 0.10122335 14.0589844 0.103208122 13.3378125"></polygon>
                                <polygon id="Path" fill="#5CDFDF"
                                         points="19.3781421 9.47039062 19.3760406 10.1916797 9.77009645 15.795 0.10122335 10.1917969 0.103208122 9.47050781 9.70926904 3.86730469"></polygon>
                                <polygon id="Path" fill="#007E7E"
                                         points="19.3781421 9.47039062 19.3760406 10.1916797 9.77009645 15.795 9.77208122 15.0735937"></polygon>
                                <polygon id="Path" fill="#007E7E"
                                         points="9.77208122 15.0735937 9.77009645 15.795 0.10122335 10.1917969 0.103208122 9.47050781"></polygon>
                                <polygon id="Path" fill="#5CDFDF"
                                         points="19.3781421 5.60320312 19.3760406 6.324375 9.77009645 11.9276953 0.10122335 6.32449219 0.103208122 5.60332031 9.70926904 0"></polygon>
                                <polygon id="Path" fill="#007E7E"
                                         points="19.3781421 5.60320313 19.3760406 6.324375 9.77009645 11.9276953 9.77208122 11.2064063"></polygon>
                                <polygon id="Path" fill="#007E7E"
                                         points="9.77208122 11.2064063 9.77009645 11.9276953 0.10122335 6.32449219 0.103208122 5.60332031"></polygon>
                                <polygon id="Path" fill="#007171"
                                         points="32.6385178 47.0419922 32.6364162 47.7632812 23.0304721 53.3666016 13.3614822 47.7633984 13.3635838 47.0419922 22.9695279 41.4387891"></polygon>
                                <polygon id="Path" fill="#005E5E"
                                         points="32.6385178 47.0419922 32.6364162 47.7632812 23.0304721 53.3666016 23.0323401 52.6451953"></polygon>
                                <polygon id="Path" fill="#005E5E"
                                         points="23.0323401 52.6451953 23.0304721 53.3666016 13.3614822 47.7633984 13.3635838 47.0419922"></polygon>
                                <polygon id="Path" fill="#007171"
                                         points="32.6385178 43.1748047 32.6364162 43.8959766 23.0304721 49.4991797 13.3614822 43.8960937 13.3635838 43.1748047 22.9695279 37.5716016"></polygon>
                                <polygon id="Path" fill="#005E5E"
                                         points="32.6385178 43.1748047 32.6364162 43.8959766 23.0304721 49.4991797 23.0323401 48.7780078"></polygon>
                                <polygon id="Path" fill="#005E5E"
                                         points="23.0323401 48.7780078 23.0304721 49.4991797 13.3614822 43.8960937 13.3635838 43.1748047"></polygon>
                                <polygon id="Path" fill="#007171"
                                         points="32.6385178 39.3075 32.6364162 40.0287891 23.0304721 45.631875 13.3614822 40.0289062 13.3635838 39.3075 22.9695279 33.7042969"></polygon>
                                <polygon id="Path" fill="#005E5E"
                                         points="32.6385178 39.3075 32.6364162 40.0287891 23.0304721 45.631875 23.0323401 44.9107031"></polygon>
                                <polygon id="Path" fill="#005E5E"
                                         points="23.0323401 44.9107031 23.0304721 45.631875 13.3614822 40.0289062 13.3635838 39.3075"></polygon>
                                <polygon id="Path" fill="#007171"
                                         points="32.6385178 35.4403125 32.6364162 36.1614844 23.0304721 41.7646875 13.3614822 36.1616016 13.3635838 35.4403125 22.9695279 29.8371094"></polygon>
                                <polygon id="Path" fill="#005E5E"
                                         points="32.6385178 35.4403125 32.6364162 36.1614844 23.0304721 41.7646875 23.0323401 41.0433984"></polygon>
                                <polygon id="Path" fill="#005E5E"
                                         points="23.0323401 41.0433984 23.0304721 41.7646875 13.3614822 36.1616016 13.3635838 35.4403125"></polygon>
                                <polygon id="Path" fill="#1CA9A9"
                                         points="32.6385178 31.5728906 32.6364162 32.2941797 23.0304721 37.8973828 13.3614822 32.2942969 13.3635838 31.5730078 22.9695279 25.9698047"></polygon>
                                <polygon id="Path" fill="#005E5E"
                                         points="32.6385178 31.5728906 32.6364162 32.2941797 23.0304721 37.8973828 23.0323401 37.1762109"></polygon>
                                <polygon id="Path" fill="#005E5E"
                                         points="23.0323401 37.1762109 23.0304721 37.8973828 13.3614822 32.2942969 13.3635838 31.5730078"></polygon>
                                <polygon id="Path" fill="#1CA9A9"
                                         points="32.6385178 27.7057031 32.6364162 28.4269922 23.0304721 34.0301953 13.3614822 28.4271094 13.3635838 27.7058203 22.9695279 22.1026172"></polygon>
                                <polygon id="Path" fill="#005E5E"
                                         points="32.6385178 27.7057031 32.6364162 28.4269922 23.0304721 34.0301953 23.0323401 33.3089062"></polygon>
                                <polygon id="Path" fill="#005E5E"
                                         points="23.0323401 33.3089062 23.0304721 34.0301953 13.3614822 28.4271094 13.3635838 27.7058203"></polygon>
                                <polygon id="Path" fill="#1CA9A9"
                                         points="32.6385178 23.8383984 32.6364162 24.5596875 23.0304721 30.1628906 13.3614822 24.5596875 13.3635838 23.8385156 22.9695279 18.2353125"></polygon>
                                <polygon id="Path" fill="#005E5E"
                                         points="32.6385178 23.8383984 32.6364162 24.5596875 23.0304721 30.1628906 23.0323401 29.4417187"></polygon>
                                <polygon id="Path" fill="#005E5E"
                                         points="23.0323401 29.4417187 23.0304721 30.1628906 13.3614822 24.5596875 13.3635838 23.8385156"></polygon>
                                <polygon id="Path" fill="#1CA9A9"
                                         points="32.6385178 19.9710937 32.6364162 20.6925 23.0304721 26.2957031 13.3614822 20.6925 13.3635838 19.9712109 22.9695279 14.368125"></polygon>
                                <polygon id="Path" fill="#005E5E"
                                         points="32.6385178 19.9710937 32.6364162 20.6925 23.0304721 26.2957031 23.0323401 25.5744141"></polygon>
                                <polygon id="Path" fill="#005E5E"
                                         points="23.0323401 25.5744141 23.0304721 26.2957031 13.3614822 20.6925 13.3635838 19.9712109"></polygon>
                                <polygon id="Path" fill="#1CA9A9"
                                         points="32.6385178 16.1039062 32.6364162 16.8251953 23.0304721 22.4283984 13.3614822 16.8251953 13.3635838 16.1040234 22.9695279 10.5008203"></polygon>
                                <polygon id="Path" fill="#005E5E"
                                         points="32.6385178 16.1039062 32.6364162 16.8251953 23.0304721 22.4283984 23.0323401 21.7072266"></polygon>
                                <polygon id="Path" fill="#005E5E"
                                         points="23.0323401 21.7072266 23.0304721 22.4283984 13.3614822 16.8251953 13.3635838 16.1040234"></polygon>
                                <polygon id="Path" fill="#1CA9A9"
                                         points="32.6385178 12.2366016 32.6364162 12.9580078 23.0304721 18.5612109 13.3614822 12.9580078 13.3635838 12.2367187 22.9695279 6.63339844"></polygon>
                                <polygon id="Path" fill="#005E5E"
                                         points="32.6385178 12.2366016 32.6364162 12.9580078 23.0304721 18.5612109 23.0323401 17.8399219"></polygon>
                                <polygon id="Path" fill="#005E5E"
                                         points="23.0323401 17.8399219 23.0304721 18.5612109 13.3614822 12.9580078 13.3635838 12.2367187"></polygon>
                                <polygon id="Path" fill="#035858"
                                         points="45.8987766 53.6755078 45.8967919 54.3966797 36.290731 60 26.6218579 54.3967969 26.6239594 53.675625 36.2299036 48.0723047"></polygon>
                                <polygon id="Path" fill="#007E7E"
                                         points="45.8987766 53.6755078 45.8967919 54.3966797 36.290731 60 36.2927157 59.2788281"></polygon>
                                <polygon id="Path" fill="#007E7E"
                                         points="36.2927157 59.2788281 36.290731 60 26.6218579 54.3967969 26.6239594 53.675625"></polygon>
                                <polygon id="Path" fill="#035858"
                                         points="45.8987766 49.8082031 45.8967919 50.5294922 36.290731 56.1326953 26.6218579 50.5296094 26.6239594 49.8083203 36.2299036 44.205"></polygon>
                                <polygon id="Path" fill="#007E7E"
                                         points="45.8987766 49.8082031 45.8967919 50.5294922 36.290731 56.1326953 36.2927157 55.4115234"></polygon>
                                <polygon id="Path" fill="#007E7E"
                                         points="36.2927157 55.4115234 36.290731 56.1326953 26.6218579 50.5296094 26.6239594 49.8083203"></polygon>
                                <polygon id="Path" fill="#035858"
                                         points="45.8987766 45.9410156 45.8967919 46.6621875 36.290731 52.2655078 26.6218579 46.6623047 26.6239594 45.9411328 36.2299036 40.3378125"></polygon>
                                <polygon id="Path" fill="#007E7E"
                                         points="45.8987766 45.9410156 45.8967919 46.6621875 36.290731 52.2655078 36.2927157 51.5443359"></polygon>
                                <polygon id="Path" fill="#007E7E"
                                         points="36.2927157 51.5443359 36.290731 52.2655078 26.6218579 46.6623047 26.6239594 45.9411328"></polygon>
                                <polygon id="Path" fill="#035858"
                                         points="45.8987766 42.0737109 45.8967919 42.795 36.290731 48.3982031 26.6218579 42.7951172 26.6239594 42.0738281 36.2299036 36.4705078"></polygon>
                                <polygon id="Path" fill="#007E7E"
                                         points="45.8987766 42.0737109 45.8967919 42.795 36.290731 48.3982031 36.2927157 47.6770312"></polygon>
                                <polygon id="Path" fill="#007E7E"
                                         points="36.2927157 47.6770312 36.290731 48.3982031 26.6218579 42.7951172 26.6239594 42.0738281"></polygon>
                                <polygon id="Path" fill="#035858"
                                         points="45.8987766 38.2065234 45.8967919 38.9276953 36.290731 44.5310156 26.6218579 38.9278125 26.6239594 38.2066406 36.2299036 32.6033203"></polygon>
                                <polygon id="Path" fill="#007E7E"
                                         points="45.8987766 38.2065234 45.8967919 38.9276953 36.290731 44.5310156 36.2927157 43.8097266"></polygon>
                                <polygon id="Path" fill="#007E7E"
                                         points="36.2927157 43.8097266 36.290731 44.5310156 26.6218579 38.9278125 26.6239594 38.2066406"></polygon>
                                <polygon id="Path" fill="#035858"
                                         points="45.8987766 34.3392188 45.8967919 35.0603906 36.290731 40.6637109 26.6218579 35.0605078 26.6239594 34.3393359 36.2299036 28.7360156"></polygon>
                                <polygon id="Path" fill="#007E7E"
                                         points="45.8987766 34.3392188 45.8967919 35.0603906 36.290731 40.6637109 36.2927157 39.9424219"></polygon>
                                <polygon id="Path" fill="#007E7E"
                                         points="36.2927157 39.9424219 36.290731 40.6637109 26.6218579 35.0605078 26.6239594 34.3393359"></polygon>
                                <polygon id="Path" fill="#46D6D6"
                                         points="45.8987766 30.4719141 45.8967919 31.1932031 36.290731 36.7965234 26.6218579 31.1933203 26.6239594 30.4721484 36.2299036 24.8688281"></polygon>
                                <polygon id="Path" fill="#007E7E"
                                         points="45.8987766 30.4719141 45.8967919 31.1932031 36.290731 36.7965234 36.2927157 36.0751172"></polygon>
                                <polygon id="Path" fill="#007E7E"
                                         points="36.2927157 36.0751172 36.290731 36.7965234 26.6218579 31.1933203 26.6239594 30.4721484"></polygon>
                                <polygon id="Path" fill="#46D6D6"
                                         points="45.8987766 26.6047266 45.8967919 27.3258984 36.290731 32.9292188 26.6218579 27.3260156 26.6239594 26.6048438 36.2299036 21.0015234"></polygon>
                                <polygon id="Path" fill="#007E7E"
                                         points="45.8987766 26.6047266 45.8967919 27.3258984 36.290731 32.9292188 36.2927157 32.2079297"></polygon>
                                <polygon id="Path" fill="#007E7E"
                                         points="36.2927157 32.2079297 36.290731 32.9292187 26.6218579 27.3260156 26.6239594 26.6048438"></polygon>
                                <polygon id="Path" fill="#46D6D6"
                                         points="45.8987766 22.7374219 45.8967919 23.4587109 36.290731 29.0620313 26.6218579 23.4588281 26.6239594 22.7375391 36.2299036 17.1343359"></polygon>
                                <polygon id="Path" fill="#007E7E"
                                         points="45.8987766 22.7374219 45.8967919 23.4587109 36.290731 29.0620312 36.2927157 28.340625"></polygon>
                                <polygon id="Path" fill="#007E7E"
                                         points="36.2927157 28.340625 36.290731 29.0620313 26.6218579 23.4588281 26.6239594 22.7375391"></polygon>
                                <polygon id="Path" fill="#46D6D6"
                                         points="45.8987766 18.8702344 45.8967919 19.5914062 36.290731 25.1947266 26.6218579 19.5915234 26.6239594 18.8702344 36.2299036 13.2670313"></polygon>
                                <polygon id="Path" fill="#007E7E"
                                         points="45.8987766 18.8702344 45.8967919 19.5914062 36.290731 25.1947266 36.2927157 24.4734375"></polygon>
                                <polygon id="Path" fill="#007E7E"
                                         points="36.2927157 24.4734375 36.290731 25.1947266 26.6218579 19.5915234 26.6239594 18.8702344"></polygon>
                            </g>
                        </g>
                    </g>
                </g>
            </g>
        </g>
    </g>
</svg>
