<svg width="60px" height="47px" viewBox="0 0 60 47" version="1.1" xmlns="http://www.w3.org/2000/svg"
     xmlns:xlink="http://www.w3.org/1999/xlink">
    <g id="Main-New" stroke="none" stroke-width="1" fill="none" fill-rule="evenodd">
        <g id="1.-Main-Pasive-v.1-Copy-7" transform="translate(-581.000000, -5067.000000)" fill-rule="nonzero">
            <g id="02" transform="translate(133.000000, 4533.000000)">
                <g id="Group-2" transform="translate(0.000000, 494.000000)">
                    <g id="002" transform="translate(399.000000, 0.000000)">
                        <g id="coin" transform="translate(49.000000, 40.000000)">
                            <path
                                d="M59.9998828,17.5167363 C59.9997656,17.5782338 59.9969531,17.6396144 59.9955469,17.7011119 C60.0944531,13.1679502 57.1464844,8.61175622 51.1542188,5.1601791 C39.4155469,-1.60139055 20.3770313,-1.60139055 8.71347656,5.16099751 C2.61011719,8.69967662 -0.279960937,13.3997935 0.0322265625,18.0457786 L9.37800998e-16,29.4989303 C-0.0127734375,33.961709 2.93964844,38.4313856 8.85082031,41.8361965 C20.5978125,48.6025597 39.5820703,48.6024428 51.2528906,41.8359627 C57.0512109,38.4741766 59.9534766,34.0751169 59.9660156,29.66951 L59.9921484,20.8761841 C60.0005859,20.6541617 60,20.4321393 59.9936719,20.21 L59.9998828,17.5167363 Z"
                                id="Path" fill="#FECE00"></path>
                            <path
                                d="M51.1485937,8.18641791 C62.8955859,14.9527811 62.95875,25.9229552 51.286875,32.6902537 C39.6161719,39.4568507 20.6319141,39.4569677 8.88480469,32.6904876 C-2.86230469,25.9240075 -2.92417969,14.9531318 8.74652344,8.18665174 C20.4183984,1.41935323 39.4016016,1.41993781 51.1485937,8.18641791 Z"
                                id="Path" fill="#43C0C0"></path>
                            <path
                                d="M59.9998828,17.5167363 L59.9661328,29.6696269 C59.9535937,34.0752338 57.0513281,38.4742935 51.2530078,41.8360796 C39.5823047,48.6026766 20.5980469,48.6027935 8.8509375,41.8363134 C2.93976562,38.4312687 -0.0125390625,33.961709 1.67887376e-12,29.4989303 L0.03375,17.3460398 C0.0209765625,21.8088184 2.97339844,26.278495 8.8846875,29.683306 C20.6316797,36.4496692 39.6159375,36.4495522 51.2867578,29.6830721 C57.0850781,26.3212861 59.9874609,21.9223433 59.9998828,17.5167363 Z"
                                id="Path" fill="#007E7E"></path>
                            <g id="Group" transform="translate(14.765625, 9.470149)">
                                <g id="Path">
                                    <path
                                        d="M29.1161719,5.3375398 L29.1359766,5.32608209 L29.1479297,1.1181791 L27.2505469,0.0252537313 L24.4937109,1.62360448 C23.521875,1.1704403 22.5072656,0.811276119 21.4460156,0.548567164 C20.3866406,0.284572139 19.3116797,0.144156716 18.2271094,0.128840796 C17.1384375,0.113291045 16.0626562,0.22400995 14.9960156,0.460646766 C13.929375,0.699738806 12.9232031,1.09210697 11.9775,1.6404403 C11.2492969,2.06262189 10.7167969,2.49310448 10.3817578,2.93071891 C10.0467187,3.36833333 9.88476563,3.83213682 9.89765625,4.32329851 C9.8971875,4.30307214 9.89695312,4.28272886 9.89695312,4.2626194 L9.885,8.47052239 C9.88488281,8.49063184 9.88511719,8.51097512 9.88570313,8.53120149 C9.89460937,9.02236318 10.0726172,9.54918408 10.4131641,10.1151716 C10.4163281,10.1205498 10.4206641,10.1263955 10.4239453,10.1317736 L9.1790625,10.8534925 C8.61070313,10.4193856 8.12039063,9.964 7.70613281,9.48347761 C7.291875,9.00295522 6.95179688,8.55587065 6.68402344,8.13848259 C6.41835938,7.72226368 6.22898438,7.35959204 6.118125,7.05385821 C6.03597656,6.82727612 5.98851563,6.65891791 5.9765625,6.54831592 L5.97679688,6.45326368 L0.09328125,7.57600249 L0.081328125,11.7839055 C0.418125,12.7340771 1.00171875,13.6820274 1.83832031,14.6262363 C1.86410156,14.6553483 1.89328125,14.6828234 1.91941406,14.7118184 L1.64085938,14.8732786 L1.62890625,19.0811816 L3.52628906,20.174107 L6.69339844,18.3379502 C7.60980469,18.8231493 8.58550781,19.2263905 9.61839844,19.5486095 C10.6512891,19.8708284 11.7060938,20.073092 12.7828125,20.157505 C13.8636328,20.2419179 14.9478516,20.1789005 16.0435547,19.9683358 C17.1371484,19.756602 18.2029688,19.3510224 19.2408984,18.7493756 C20.1331641,18.2320249 20.7537891,17.7075423 21.1067578,17.1735896 C21.3971484,16.7379627 21.5429297,16.2934502 21.5441016,15.840403 L21.5560547,11.6325 C21.5560547,11.643607 21.5534766,11.654597 21.5533594,11.665704 C21.5554687,11.553699 21.5510156,11.4413433 21.5353125,11.3281692 C21.4661719,10.8274204 21.2397656,10.3065622 20.8715625,9.76676368 L22.0877344,9.06164677 C22.53,9.39941542 22.9148437,9.76325622 23.2463672,10.1532861 C23.5757812,10.544602 23.8536328,10.9131194 24.0737109,11.2629303 C24.2937891,11.6101692 24.4559766,11.9074851 24.5582813,12.1560473 C24.6371484,12.3476716 24.6771094,12.4842289 24.6846094,12.5716816 L24.684375,12.638908 L30.375,11.625602 L30.3869531,7.417699 C30.0869531,6.78670647 29.6565234,6.09094279 29.1161719,5.3375398 Z"
                                        fill="#EEBF00"></path>
                                    <polygon fill="#035858"
                                             points="29.1478125 1.1181791 29.1359766 5.32608209 26.3791406 6.92443284 26.3909766 2.71652985"></polygon>
                                </g>
                                <path
                                    d="M16.7110547,8.90077114 L16.7230078,4.69286816 C16.7238281,4.40151493 16.9267969,4.1375199 17.3305078,3.90345522 C18.2760938,3.35512189 19.4453906,3.41942537 20.8383984,4.09367662 L20.8264453,8.3015796 C19.4335547,7.62721144 18.2642578,7.56314179 17.3185547,8.11135821 C16.9149609,8.34530597 16.711875,8.60941791 16.7110547,8.90077114 Z"
                                    id="Path" fill="#007E7E"></path>
                                <path
                                    d="M5.96121094,10.7044254 L5.97316406,6.49652239 C5.97316406,6.48015423 5.97433594,6.46577363 5.97679688,6.45326368 L5.96484375,10.6611667 C5.96261719,10.6736766 5.96132812,10.6881741 5.96121094,10.7044254 Z"
                                    id="Path" fill="#D2EDDA"></path>
                                <polygon id="Path" fill="#035858"
                                         points="22.0999219 4.85374378 22.0879687 9.06152985 18.3752344 11.2140597 18.3873047 7.00627363"></polygon>
                                <g transform="translate(9.843750, 4.208955)" id="Path">
                                    <path
                                        d="M0.0411328125,4.26145025 L0.0530859375,0.0535472637 C0.05296875,0.0736567164 0.053203125,0.094 0.0537890625,0.114226368 C0.0626953125,0.60538806 0.240703125,1.13220896 0.58125,1.69831343 C0.921914063,2.26196269 1.40496094,2.88161443 2.03015625,3.55703483 L2.01820313,7.76493781 C1.39289062,7.08951741 0.909960938,6.46986567 0.569296875,5.90621642 C0.228632812,5.34011194 0.0507421875,4.81329104 0.0418359375,4.32212935 C0.0413671875,4.30190299 0.0411328125,4.28167662 0.0411328125,4.26145025 Z"
                                        fill="#007E7E"></path>
                                    <path
                                        d="M14.8563281,4.1860398 L14.844375,8.39394279 C14.8446094,8.30964677 14.8027734,8.16081343 14.7146484,7.94709204 C14.6124609,7.69852985 14.4501562,7.40121393 14.2300781,7.05397512 C14.0098828,6.70428109 13.7320312,6.33564677 13.4027344,5.94433085 C13.0712109,5.554301 12.6863672,5.19034328 12.2441016,4.85269154 L12.2560547,0.644788557 C12.6983203,0.982557214 13.0831641,1.34639801 13.4146875,1.73642786 C13.7441016,2.12774378 14.0219531,2.49637811 14.2420312,2.84607214 C14.4621094,3.19331095 14.6242969,3.49062687 14.7266016,3.73918905 C14.8147266,3.95302736 14.8565625,4.10174378 14.8563281,4.1860398 Z"
                                        fill="#035858"></path>
                                </g>
                                <polygon id="Path" fill="#035858"
                                         points="30.3873047 7.417699 30.3753516 11.6254851 24.6847266 12.638791 24.6966797 8.43100498"></polygon>
                                <g transform="translate(11.835938, 7.716418)" fill="#007E7E" id="Path">
                                    <polygon
                                        points="0.9759375 1.0309602 0.963984375 5.23874627 0.02625 4.25759204 0.038203125 0.0498059701"></polygon>
                                    <path
                                        d="M2.7084375,3.54206965 L2.69648437,7.74997264 C2.69671875,7.67771891 2.68464844,7.6033607 2.66027344,7.52689801 C2.53875,7.15113184 2.26675781,6.71702488 1.84417969,6.2199005 L1.85613281,2.01199751 C2.27871094,2.50912189 2.55082031,2.94311194 2.67222656,3.31911194 C2.69660156,3.39557463 2.70867188,3.46993284 2.7084375,3.54206965 Z"></path>
                                </g>
                                <polygon id="Path" fill="#007E7E"
                                         points="13.6920703 9.72853234 13.68 13.9363184 10.4042578 15.8356095 10.4162109 11.6277065"></polygon>
                                <g transform="translate(0.000000, 7.482587)" id="Path">
                                    <path
                                        d="M21.5562891,4.14991294 L21.5443359,8.35781592 C21.5431641,8.8109801 21.3972656,9.25537562 21.1069922,9.69100249 L21.1189453,5.4830995 C21.4092188,5.04735572 21.555,4.6029602 21.5562891,4.14991294 Z"
                                        fill="#007E7E"></path>
                                    <path
                                        d="M4.83679688,5.53781592 L4.82484375,9.74571891 C3.66996094,8.95478607 2.67527344,8.08797512 1.83855469,7.14353234 C1.00183594,6.19932338 0.418242187,5.25137313 0.0815625,4.30120149 L0.093515625,0.0932985075 C0.4303125,1.04347015 1.01390625,1.9914204 1.85050781,2.93562935 C2.68722656,3.88007214 3.68191406,4.74688308 4.83679688,5.53781592 Z"
                                        fill="#035858"></path>
                                    <polygon fill="#007E7E"
                                             points="3.53847656 8.48361692 3.52640625 12.6915199 1.62902344 11.5985945 1.64109375 7.39069154"></polygon>
                                </g>
                                <polygon id="Path" fill="#007E7E"
                                         points="6.70546875 14.1300473 6.69351562 18.3378333 3.52640625 20.174107 3.53847656 15.966204"></polygon>
                                <path
                                    d="M21.1189453,12.9656866 C20.7659766,13.4996393 20.1453516,14.0241219 19.2530859,14.5414726 C18.2151562,15.1432363 17.1493359,15.548699 16.0557422,15.7604328 C14.9600391,15.9708806 13.8759375,16.0340149 12.795,15.949602 C11.7181641,15.8651891 10.6633594,15.6630423 9.63058594,15.3407065 C8.59769531,15.0184876 7.62199219,14.6152463 6.70558594,14.1300473 L3.53847656,15.9663209 L1.64109375,14.8733955 L4.83691406,13.0205199 C3.68203125,12.2295871 2.68734375,11.3627761 1.850625,10.4184502 C1.01390625,9.47424129 0.4303125,8.52629104 0.0936328125,7.5761194 L5.97714844,6.4533806 C5.95910156,6.5473806 6.00761719,6.74824129 6.11847656,7.05397512 C6.22933594,7.35959204 6.41859375,7.7223806 6.684375,8.1385995 C6.95214844,8.55598756 7.29222656,9.00318905 7.70648438,9.48359453 C8.12074219,9.964 8.61105469,10.4195025 9.17941406,10.8536095 L12.8121094,8.74749502 L11.874375,7.7663408 C11.2490625,7.0909204 10.7661328,6.47126866 10.4254687,5.9076194 C10.0848047,5.34151493 9.90691406,4.81469403 9.89800781,4.32353234 C9.88488281,3.83237065 10.0469531,3.36856716 10.381875,2.93095274 C10.7169141,2.49333831 11.2495312,2.06285572 11.9777344,1.64067413 C12.9233203,1.0923408 13.9294922,0.699972637 14.99625,0.460880597 C16.0630078,0.224243781 17.1386719,0.113524876 18.2273437,0.129074627 C19.3119141,0.144507463 20.3869922,0.28480597 21.44625,0.548800995 C22.5075,0.811626866 23.5219922,1.17079104 24.4939453,1.62383831 L27.2507812,0.0253706468 L29.1481641,1.11829602 L26.3913281,2.71676368 C27.4698047,3.46595771 28.3263281,4.26273632 28.9524609,5.10721642 C29.5746094,5.9515796 30.0563672,6.72228607 30.3874219,7.41793284 L24.6967969,8.43112189 C24.7128516,8.35734826 24.6727734,8.19682338 24.5705859,7.94837811 C24.4683984,7.69981592 24.3060937,7.4025 24.0860156,7.05526119 C23.8659375,6.70556716 23.5880859,6.33693284 23.2586719,5.94561692 C22.9271484,5.55558706 22.5423047,5.19162935 22.1000391,4.85397761 L18.3873047,7.00650746 L19.0494141,7.63925373 C19.7282812,8.32671642 20.2937109,8.97232338 20.7458203,9.5788806 C21.1958203,10.186607 21.4583203,10.7694303 21.5356641,11.3282861 C21.6128906,11.886908 21.4739063,12.4327861 21.1189453,12.9656866 Z M10.4162109,11.6277065 C11.8816406,12.4102214 13.0679297,12.5362562 13.9785937,12.0082662 C14.4525,11.7335149 14.6275781,11.41001 14.5081641,11.0354129 C14.3866406,10.6596468 14.1146484,10.2255398 13.6920703,9.72829851 L10.4162109,11.6277065 Z M17.4803906,6.04055224 L20.8382813,4.09367662 C19.4453906,3.41930846 18.2760938,3.35523881 17.3303906,3.90345522 C16.875,4.16745025 16.6750781,4.4695597 16.7325,4.8061592 C16.7880469,5.14392786 17.0374219,5.55535323 17.4803906,6.04055224 Z"
                                    id="Shape" fill="#2DB1B1"></path>
                                <path
                                    d="M21.1189453,12.9656866 L21.1069922,17.1735896 C20.7540234,17.7075423 20.1333984,18.2320249 19.2411328,18.7493756 C18.2032031,19.3511393 17.1373828,19.756602 16.0437891,19.9683358 C14.9480859,20.1787836 13.8638672,20.2419179 12.7830469,20.157505 C11.7062109,20.073092 10.6514063,19.8709453 9.61863281,19.5486095 C8.58574219,19.2263905 7.61003906,18.8231493 6.69363281,18.3379502 L6.70558594,14.1300473 C7.62199219,14.6152463 8.59769531,15.0184876 9.63058594,15.3407065 C10.6634766,15.6629254 11.7182813,15.8651891 12.795,15.949602 C13.8758203,16.0340149 14.9600391,15.9709975 16.0557422,15.7604328 C17.1493359,15.548699 18.2151563,15.1432363 19.2530859,14.5414726 C20.1452344,14.0241219 20.7658594,13.4996393 21.1189453,12.9656866 Z"
                                    id="Path" fill="#035858"></path>
                            </g>
                            <path
                                d="M52.6086328,17.488092 L52.6000781,20.4950398 C52.6095703,17.1265896 50.3861719,13.7527612 45.9343359,11.1885721 C37.0887891,6.09339801 22.7397656,6.09351493 13.9504688,11.1893905 C9.58476563,13.7204925 7.39933594,17.0407736 7.38996094,20.3658483 L7.39851563,17.3589005 C7.40789063,14.033709 9.59332031,10.7135448 13.9591406,8.18244279 C22.7483203,3.08645025 37.0971094,3.08645025 45.9427734,8.18162438 C50.3947266,10.7459303 52.6182422,14.1196418 52.6086328,17.488092 Z"
                                id="Path" fill="#007E7E"></path>
                            <path
                                d="M51.1543359,5.16006219 C62.8941797,11.9223333 62.9562891,22.9245423 51.2927344,29.6869303 C39.6304687,36.4486169 20.5919531,36.4487338 8.85210937,29.6864627 C-2.8865625,22.924893 -2.94867188,11.9226841 8.71359375,5.16099751 C20.3771484,-1.60150746 39.4156641,-1.60150746 51.1543359,5.16006219 Z M14.0634375,26.6649005 C22.9102734,31.7606592 37.2589453,31.7606592 46.0471875,26.6653682 C54.8364844,21.5694925 54.7896094,13.2772662 45.9428906,8.18150746 C37.0973438,3.08645025 22.7484375,3.08645025 13.9591406,8.18232587 C5.17101563,13.2776169 5.21789063,21.5697264 14.0634375,26.6649005 Z"
                                id="Shape" fill="#43C0C0"></path>
                        </g>
                    </g>
                </g>
            </g>
        </g>
    </g>
</svg>
