<svg width="31px" height="60px" viewBox="0 0 31 60" version="1.1" xmlns="http://www.w3.org/2000/svg"
     xmlns:xlink="http://www.w3.org/1999/xlink">
    <g id="Main-New" stroke="none" stroke-width="1" fill="none" fill-rule="evenodd">
        <g id="1.-Main-Pasive-v.1-Copy-7" transform="translate(-995.000000, -5067.000000)" fill-rule="nonzero">
            <g id="02" transform="translate(133.000000, 4533.000000)">
                <g id="Group-2" transform="translate(0.000000, 494.000000)">
                    <g id="003" transform="translate(798.000000, 0.000000)">
                        <g id="businessman" transform="translate(64.000000, 40.000000)">
                            <path
                                d="M27.0780084,27.5038147 C15.55151,26.6166687 7.73508923,29.7102356 7.73508923,29.7102356 C4.79992132,31.7578125 2.29852207,34.5753479 0.83816759,37.5736999 L0.839071216,37.5750732 C0.343400187,38.4178161 0.0578358209,39.5713806 0.0578358209,40.982666 L0.0578358209,54.5333862 L4.72898199,57.2653198 C9.47603778,60.0421143 15.1349114,60.7392884 20.4002303,59.196167 C24.9213649,57.8709411 28.7344624,54.7741699 30.9945779,50.5915833 L30.9945779,37.0404053 C30.9945779,33.6474609 29.3494199,29.8118591 27.0780084,27.5038147 Z"
                                id="Path" fill="#D6D6D6"></path>
                            <path
                                d="M30.5626166,8.42605594 C29.4745802,2.81616211 22.1569933,0.597381562 22.1569933,0.597381562 C16.2247551,-0.948028594 8.27820368,0.17578125 4.32322761,7.90420535 C-1.26922513,18.8328552 7.73508923,27.1243287 7.73508923,27.1243287 L7.73554104,27.1238708 L7.73508923,30.9617614 C7.73508923,30.9617614 13.6668756,32.5369263 16.1497494,32.8207397 C17.0209014,33.234558 17.9842292,33.4547425 18.9692456,33.4373474 C19.1897447,33.4332275 19.4111474,33.4176635 19.6325501,33.38974 C20.4449627,33.2867432 21.26099,33.0189514 22.0413217,32.5621032 C26.3537051,30.0398255 29.0100863,25.378418 29.0100863,20.3338623 L29.0100863,11.6395569 L29.3114652,11.4179993 C30.317718,10.794983 30.7898933,9.59838867 30.5626166,8.42605594 Z"
                                id="Path" fill="#CD8B74"></path>
                            <path
                                d="M4.82929104,39.628601 L4.31193158,39.3260193 C2.3956682,38.2054138 0.842685955,39.3951416 0.842685955,41.9828796 L0.842685955,54.9778747 L5.15552116,57.5006104 C6.16855177,58.0604554 7.21908521,58.5310364 8.29808474,58.903656 L8.29808474,46.3435364 C8.29808474,43.7557983 6.74510261,40.7492065 4.82929104,39.628601 Z"
                                id="Path" fill="#A7A7A7"></path>
                            <path
                                d="M29.0100863,11.6395569 L27.9816931,12.2410583 L26.525857,13.0924987 C25.1396048,13.903656 23.4135669,13.8208008 22.1095499,12.8805541 C21.100586,15.2847291 19.3474376,17.291565 17.1139809,18.5975647 L16.4208548,19.0031433 C14.3243063,20.2294922 11.8997201,20.7563782 9.49094855,20.5091858 C8.61211521,19.9951172 7.51368642,20.6378174 7.51368642,21.6654968 C7.51368642,22.8620911 8.14400653,23.9680481 9.16742943,24.566803 L9.49094855,24.7558594 L7.73554104,27.1238708 C8.70880941,28.216095 9.8542298,29.1654968 11.14921,29.922638 L15.2926043,32.3318482 L15.2926043,32.3313904 C17.1993791,33.6236572 19.7712657,33.8900756 22.0413217,32.5625611 C26.3537051,30.0402832 29.0100863,25.3788757 29.0100863,20.3338623 L29.0100863,11.6395569 Z"
                                id="Path" fill="#FFAD91"></path>
                            <path
                                d="M22.0413217,32.5621032 C21.404224,32.9347229 20.7431786,33.1777955 20.0798741,33.3119202 L22.3201085,35.0024414 L22.9160885,32.0040893 C22.6323315,32.2000123 22.341345,32.3867798 22.0413217,32.5621032 Z"
                                id="Path" fill="#FFFFFF"></path>
                            <path
                                d="M19.5954991,33.3901978 L18.1297225,36.3436889 L18.8246561,36.9314576 L20.6591359,35.8580017 L21.4245569,34.3267822 L20.0821332,33.3114623 C19.9199219,33.3444213 19.7577105,33.3705139 19.5954991,33.3901978 Z"
                                id="Path" fill="#035858"></path>
                            <path
                                d="M16.1569788,32.8216553 C13.671394,32.5378418 11.2142753,32.0269775 8.81544432,31.2927246 L7.73508923,30.9617614 L17.718546,37.166748 L19.6058915,33.3888245 C18.4048944,33.5353089 17.2133862,33.3224487 16.1569788,32.8216553 Z"
                                id="Path" fill="#FFFFFF"></path>
                            <path
                                d="M16.1569788,32.8216553 C16.173245,32.8294372 16.1899633,32.8353881 16.2066814,32.8431702 C15.8890362,32.6971436 15.5822354,32.5277709 15.2926043,32.3313904 L15.2926043,32.3318482 L11.14921,29.922638 C9.8542298,29.1654968 8.70880941,28.216095 7.73554104,27.1238708 L7.73508923,30.9617614 L8.81544432,31.2927246 C11.2142753,32.0269775 13.671394,32.5378418 16.1569788,32.8216553 Z"
                                id="Path" fill="#E69C83"></path>
                            <path
                                d="M20.0080311,19.36203 C20.0080311,20.3141784 19.4369024,21.4201355 18.7320283,21.8321228 C18.0271542,22.2445678 17.4560255,21.8069459 17.4560255,20.8547974 C17.4560255,19.9031067 18.0271542,18.796692 18.7320283,18.3847045 C19.4369024,17.9722595 20.0080311,18.4098816 20.0080311,19.36203 Z"
                                id="Path" fill="#4D352C"></path>
                            <path
                                d="M27.1683769,14.9624634 C27.1683769,15.9146119 26.5972481,17.0201111 25.8923741,17.4325561 C25.1875,17.8450012 24.6163713,17.4073792 24.6163713,16.4552307 C24.6163713,15.5030823 25.1875,14.3971253 25.8923741,13.985138 C26.5972481,13.5726928 27.1683769,14.010315 27.1683769,14.9624634 Z"
                                id="Path" fill="#4D352C"></path>
                            <polygon id="Path" fill="#007E7E"
                                     points="18.8233005 36.9314576 19.7450589 51.8586731 23.2920213 55.1861572 24.8987727 50.2162171 20.6577805 35.8580017"></polygon>
                            <path
                                d="M25.2042181,40.0419616 L29.1158175,37.7540589 C29.4059002,37.5842285 29.7682777,37.7961731 29.7682777,38.1358337 L29.7682777,42.3632812 C29.7682777,43.9736939 28.9201696,45.4618835 27.5434061,46.2675476 C26.265144,47.0150756 24.6669776,46.0803223 24.6669776,44.5848083 L24.6669776,40.9844971 C24.6669776,40.5958557 24.8716622,40.2365112 25.2042181,40.0419616 Z"
                                id="Path" fill="#FFFFFF"></path>
                            <path
                                d="M30.5626166,8.42605594 C29.4745802,2.81616211 22.1569933,0.597381563 22.1569933,0.597381563 C16.2247551,-0.948028594 8.27820368,0.17578125 4.32322761,7.90420535 C-1.26922513,18.8328552 7.73508923,27.1243287 7.73508923,27.1243287 L9.49094855,24.7558594 L9.16742943,24.566803 C8.14445834,23.9680481 7.51413835,22.8625488 7.51413835,21.6654968 C7.51413835,20.6378174 8.61211521,19.9951172 9.49094855,20.5091858 C11.8997201,20.7563782 14.3243063,20.2294922 16.4213066,19.0031433 L17.1139809,18.5975647 C19.3474376,17.291565 21.1010378,15.2847291 22.1095499,12.8805541 C23.4140188,13.8208008 25.1396048,13.903656 26.525857,13.0924987 L29.0100863,11.6395569 L29.3114652,11.4179993 C30.317718,10.794983 30.7898933,9.59838867 30.5626166,8.42605594 Z"
                                id="Path" fill="#805749"></path>
                            <path
                                d="M13.9113223,25.0488281 C12.8928697,24.4532776 12.2652606,23.352356 12.2652606,22.1612549 L12.2652606,20.4528809 C11.3511835,20.5833435 10.4199364,20.6044007 9.49094855,20.5091858 L9.49094855,26.9677734 C9.49094855,28.1730652 10.1027431,29.3083191 11.13204,29.9125671 C11.1379139,29.9157715 11.1433361,29.9194336 11.1496618,29.922638 L15.2930563,32.3318482 L15.2926043,32.3309326 C17.1993791,33.6236572 19.7717176,33.8900756 22.0413217,32.5621032 C26.3537051,30.0398255 29.0100863,25.378418 29.0100863,20.3338623 L29.0100863,17.8335572 L16.6743383,25.0488281 C15.8194526,25.5491638 14.766208,25.5491638 13.9113223,25.0488281 Z"
                                id="Path" fill="#CD8B74"></path>
                            <path
                                d="M20.8416803,26.9865417 C19.5403744,26.9865417 18.6312674,26.5498352 18.5716244,26.5205384 C18.3303405,26.4015198 18.2295796,26.10672 18.3470586,25.8618164 C18.4645376,25.6173705 18.7541686,25.5152893 18.9959042,25.6338502 C19.0781396,25.6736755 20.9392783,26.5466309 23.0593225,25.4576111 C25.4075473,24.2518616 25.9863573,22.2825622 26.0098531,22.1992493 C26.0835034,21.9383239 26.3514459,21.7858887 26.6098997,21.8595886 C26.8674499,21.9332885 27.0183652,22.2029114 26.9465222,22.4642944 C26.9194117,22.5640869 26.2457148,24.9256897 23.499417,26.3365173 C22.5388001,26.8299866 21.6202046,26.9865417 20.8416803,26.9865417 Z"
                                id="Path" fill="#96423A"></path>
                        </g>
                    </g>
                </g>
            </g>
        </g>
    </g>
</svg>
