<?xml version="1.0" encoding="UTF-8"?>
<svg width="64px" height="36px" viewBox="0 0 64 36" version="1.1" xmlns="http://www.w3.org/2000/svg" xmlns:xlink="http://www.w3.org/1999/xlink">
    <defs>
        <linearGradient x1="50.0231394%" y1="99.9937467%" x2="50.0231394%" y2="-0.0162220457%" id="linearGradient-2">
            <stop stop-color="#001820" offset="0%"></stop>
            <stop stop-color="#001820" offset="20.26%"></stop>
            <stop stop-color="#005659" offset="79.23%"></stop>
            <stop stop-color="#005659" offset="100%"></stop>
        </linearGradient>
    </defs>
    <g id="Symbols" stroke="none" stroke-width="1" fill="none" fill-rule="evenodd">
        <g id="Logo/color" fill-rule="nonzero">
            <g id="Logo_legalnodes">
                <g id="Group">
                    <path d="M13.6164948,15.6665158 C13.3979381,15.4140271 13.0969072,15.2837104 12.742268,15.2837104 L12.1938144,15.2837104 C12.0329897,15.2837104 11.8226804,15.238914 11.6,14.9049774 C11.3938144,14.5914027 11.2907216,14.1638009 11.2907216,13.6343891 L11.2907216,1.27873303 C11.2907216,0.916289593 11.1628866,0.598642534 10.9278351,0.362443439 C10.6886598,0.126244344 10.371134,0.00407239819 10,0.00407239819 C9.64948454,0.00407239819 9.33608247,0.126244344 9.09278351,0.358371041 C8.84123711,0.594570136 8.70927835,0.912217195 8.70927835,1.27873303 L8.70927835,13.6303167 C8.70927835,14.8276018 9.02680412,15.8294118 9.65360825,16.6072398 C10.3051546,17.4176471 11.1587629,17.8289593 12.1938144,17.8289593 L12.4783505,17.8289593 C12.8783505,17.8289593 13.2164948,17.7190045 13.4845361,17.4950226 C13.7690722,17.2588235 13.9216495,16.9330317 13.9216495,16.5542986 C13.9257732,16.2 13.8226804,15.9027149 13.6164948,15.6665158 Z" id="Shape" fill="#005659"></path>
                    <path d="M25.7525773,12.1276018 C25.9876289,11.9076923 26.1154639,11.6022624 26.1154639,11.2479638 C26.1154639,10.0547511 25.8639175,8.97149321 25.3731959,8.03076923 C24.8742268,7.07782805 24.1649485,6.32036199 23.2618557,5.78280543 C22.3587629,5.24524887 21.3113402,4.96832579 20.1525773,4.96832579 C18.9649485,4.96832579 17.8845361,5.24932127 16.9443299,5.80316742 C16.0041237,6.35701357 15.2618557,7.13891403 14.7340206,8.12443439 C14.2103093,9.10180995 13.9463918,10.2257919 13.9463918,11.4678733 C13.9463918,12.6977376 14.2268041,13.8176471 14.7835052,14.799095 C15.3402062,15.7846154 16.1278351,16.5665158 17.1175258,17.1162896 C18.1030928,17.6660633 19.2329897,17.9429864 20.4783505,17.9429864 C21.2164948,17.9429864 21.9917526,17.8004525 22.7835052,17.5153846 C23.5752577,17.2303167 24.243299,16.8638009 24.7793814,16.4158371 C25.0350515,16.1877828 25.171134,15.8986425 25.171134,15.5850679 C25.171134,15.2429864 25.0226804,14.9253394 24.7381443,14.6687783 L24.6969072,14.6361991 C24.1690722,14.2574661 23.5917526,14.2941176 23.0556701,14.7054299 C22.7793814,14.941629 22.4,15.1411765 21.9216495,15.3040724 C21.4391753,15.4669683 20.9525773,15.5524887 20.4783505,15.5524887 C19.356701,15.5524887 18.4536082,15.2307692 17.7154639,14.5669683 C17.0927835,14.0090498 16.7051546,13.3167421 16.5319588,12.4696833 L24.8659794,12.4696833 C25.2164948,12.4574661 25.5257732,12.3434389 25.7525773,12.1276018 Z M16.6020619,10.1687783 C16.7958763,9.39502262 17.1587629,8.7678733 17.6989691,8.26289593 C18.3463918,7.660181 19.1505155,7.36696833 20.1525773,7.36696833 C21.1340206,7.36696833 21.9134021,7.6561086 22.5319588,8.25475113 C23.0556701,8.75972851 23.3896907,9.38687783 23.5505155,10.1687783 L16.6020619,10.1687783 Z" id="Shape" fill="#005659"></path>
                    <path d="M52.6391753,8.16108597 C52.0659794,7.17149321 51.2701031,6.38144796 50.2762887,5.81538462 C49.2783505,5.25339367 48.156701,4.96832579 46.9402062,4.96832579 C45.7237113,4.96832579 44.6020619,5.25339367 43.6082474,5.81945701 C42.6103093,6.38552036 41.8185567,7.17556561 41.2453608,8.16515837 C40.6721649,9.15475113 40.3835052,10.2624434 40.3835052,11.4678733 C40.3835052,12.6692308 40.6639175,13.7728507 41.2206186,14.7542986 C41.7773196,15.7357466 42.5484536,16.5217195 43.5134021,17.0877828 C44.4783505,17.6538462 45.571134,17.9429864 46.7628866,17.9429864 C47.7814433,17.9429864 48.7298969,17.7271493 49.5793814,17.2995475 C50.0536082,17.0633484 50.4824742,16.7701357 50.8659794,16.4321267 L50.8659794,16.5624434 C50.8659794,16.9289593 50.9979381,17.2506787 51.2494845,17.4828054 C51.4927835,17.7149321 51.814433,17.8371041 52.1814433,17.8371041 C52.5484536,17.8371041 52.8742268,17.7108597 53.1175258,17.4665158 C53.3649485,17.2262443 53.4927835,16.9126697 53.4927835,16.5624434 L53.4927835,11.4719457 C53.4969072,10.2624434 53.2082474,9.15067873 52.6391753,8.16108597 Z M46.9402062,7.38733032 C47.6865979,7.38733032 48.3670103,7.56651584 48.9649485,7.92081448 C49.5628866,8.27511312 50.0453608,8.7638009 50.3917526,9.37873303 C50.7381443,9.99366516 50.9154639,10.69819 50.9154639,11.4678733 C50.9154639,12.2375566 50.7381443,12.9420814 50.3917526,13.5570136 C50.0453608,14.1678733 49.5670103,14.6524887 48.9690722,15.0027149 C48.371134,15.3488688 47.6865979,15.5239819 46.9402062,15.5239819 C46.1938144,15.5239819 45.5051546,15.3488688 44.8989691,14.9986425 C44.2927835,14.6524887 43.8103093,14.1638009 43.4680412,13.5529412 C43.1216495,12.938009 42.9443299,12.2375566 42.9443299,11.4638009 C42.9443299,10.6941176 43.1216495,9.98959276 43.4680412,9.37466063 C43.814433,8.7638009 44.2969072,8.27104072 44.9030928,7.91674208 C45.5092784,7.56651584 46.1938144,7.38733032 46.9402062,7.38733032 Z" id="Shape" fill="#005659"></path>
                    <path d="M59.3731959,15.6665158 C59.1546392,15.4140271 58.8536082,15.279638 58.4989691,15.279638 L57.9505155,15.279638 C57.7896907,15.279638 57.5793814,15.2348416 57.356701,14.900905 C57.1505155,14.5873303 57.0474227,14.1597285 57.0474227,13.6303167 L57.0474227,1.27873303 C57.0474227,0.916289593 56.9195876,0.598642534 56.6845361,0.362443439 C56.4453608,0.126244344 56.1278351,0.00407239819 55.756701,0.00407239819 C55.4061856,0.00407239819 55.0927835,0.126244344 54.8494845,0.358371041 C54.5979381,0.594570136 54.4659794,0.912217195 54.4659794,1.27873303 L54.4659794,13.6303167 C54.4659794,14.8276018 54.7835052,15.8294118 55.4103093,16.6072398 C56.0618557,17.4176471 56.9154639,17.8289593 57.9505155,17.8289593 L58.2350515,17.8289593 C58.6350515,17.8289593 58.9731959,17.7190045 59.2412371,17.4950226 C59.5257732,17.2588235 59.6783505,16.9330317 59.6783505,16.5542986 C59.6824742,16.2 59.5793814,15.8986425 59.3731959,15.6665158 Z" id="Shape" fill="#005659"></path>
                    <path d="M11.2907216,25.7782805 C10.7793814,24.8742081 10.0659794,24.1737557 9.1628866,23.7013575 C8.27216495,23.2371041 7.26185567,22.9968326 6.15257732,22.9968326 C5.28659794,22.9968326 4.47010309,23.1638009 3.72783505,23.4895928 C3.31546392,23.6728507 2.93608247,23.8927602 2.58969072,24.1533937 C2.5443299,23.9049774 2.42886598,23.6850679 2.2556701,23.5058824 C2.01649485,23.2574661 1.69484536,23.1271493 1.32371134,23.1271493 C0.956701031,23.1271493 0.630927835,23.2533937 0.387628866,23.4977376 C0.140206186,23.7420814 0.012371134,24.0597285 0.012371134,24.4221719 L0.012371134,34.6072398 C0.012371134,34.9737557 0.144329897,35.2954751 0.395876289,35.5276018 C0.643298969,35.7597285 0.956701031,35.8819005 1.32783505,35.8819005 C1.69484536,35.8819005 2.01649485,35.7556561 2.2556701,35.5235294 C2.49484536,35.2914027 2.6185567,34.9737557 2.6185567,34.6072398 L2.6185567,28.1932127 C2.6185567,27.6882353 2.75876289,27.2443439 3.04329897,26.8330317 C3.33608247,26.4135747 3.72783505,26.0877828 4.23505155,25.8475113 C4.74639175,25.6031674 5.33608247,25.4809955 5.97938144,25.4809955 C7.03917526,25.4809955 7.86391753,25.7701357 8.50721649,26.3647059 C9.14226804,26.9511312 9.44742268,27.8063348 9.44742268,28.9710407 L9.44742268,34.6031674 C9.44742268,34.9533937 9.57525773,35.2669683 9.82268041,35.5072398 C10.0659794,35.7515837 10.3917526,35.8778281 10.7587629,35.8778281 C11.1134021,35.8778281 11.4309278,35.7515837 11.6742268,35.5072398 C11.9216495,35.2669683 12.0494845,34.9533937 12.0494845,34.6031674 L12.0494845,28.9710407 C12.0494845,27.7493213 11.7938144,26.6742081 11.2907216,25.7782805 Z" id="Shape" fill="#001820"></path>
                    <path d="M25.0680412,26.1977376 C24.4948454,25.2081448 23.7030928,24.4221719 22.7134021,23.8642534 C21.7278351,23.3063348 20.6020619,23.0253394 19.3690722,23.0253394 C18.1402062,23.0253394 17.0103093,23.3063348 16.0164948,23.8642534 C15.0185567,24.4221719 14.2268041,25.2081448 13.6618557,26.20181 C13.0969072,27.1914027 12.8123711,28.3072398 12.8123711,29.5208145 C12.8123711,30.7343891 13.0969072,31.8502262 13.6618557,32.8316742 C14.2268041,33.8171946 15.0185567,34.599095 16.0164948,35.1570136 C17.0103093,35.7149321 18.1402062,35.9959276 19.3690722,35.9959276 C20.5979381,35.9959276 21.7278351,35.7149321 22.7216495,35.1570136 C23.7195876,34.599095 24.5113402,33.8171946 25.0762887,32.8316742 C25.6412371,31.8502262 25.9257732,30.7343891 25.9257732,29.5208145 C25.9298969,28.3072398 25.6371134,27.1873303 25.0680412,26.1977376 Z M19.3731959,33.5769231 C18.6268041,33.5769231 17.9381443,33.40181 17.3319588,33.0515837 C16.7257732,32.7054299 16.243299,32.2167421 15.9010309,31.6058824 C15.5546392,30.9909502 15.3773196,30.2904977 15.3773196,29.5167421 C15.3773196,28.7307692 15.5546392,28.0221719 15.9010309,27.4072398 C16.2474227,26.7963801 16.7257732,26.3117647 17.3319588,25.9615385 C17.9381443,25.6153846 18.6268041,25.4361991 19.3731959,25.4361991 C20.1360825,25.4361991 20.8247423,25.6113122 21.4226804,25.9574661 C22.0206186,26.3036199 22.4948454,26.7882353 22.8329897,27.399095 C23.1752577,28.0140271 23.3484536,28.7266968 23.3484536,29.5126697 C23.3484536,30.2823529 23.1752577,30.9868778 22.8329897,31.60181 C22.4948454,32.2126697 22.0206186,32.6972851 21.4226804,33.0434389 C20.8247423,33.3977376 20.1319588,33.5769231 19.3731959,33.5769231 Z" id="Shape" fill="#001820"></path>
                    <path d="M38.9896907,8.23846154 C38.4329897,7.24479638 37.6494845,6.44660633 36.6597938,5.86425339 C35.6701031,5.28597285 34.5525773,4.98868778 33.3360825,4.97239819 C32.1113402,4.96425339 30.9938144,5.22895928 29.9917526,5.77873303 C28.9896907,6.33257919 28.1814433,7.11040724 27.6,8.0918552 C27.014433,9.07330317 26.7092784,10.1809955 26.6927835,11.3823529 C26.6762887,12.579638 26.9443299,13.6873303 27.4845361,14.6809955 C28.028866,15.6746606 28.7917526,16.4687783 29.7484536,17.0429864 C30.7092784,17.621267 31.7979381,17.9226244 32.985567,17.938914 C34.0082474,17.9470588 34.956701,17.7475113 35.814433,17.3321267 C36.3010309,17.0959276 36.742268,16.8027149 37.1340206,16.4606335 L37.1752577,24.4425339 C36.7917526,24.1045249 36.3628866,23.8153846 35.8927835,23.5791855 C35.043299,23.1515837 34.0948454,22.9357466 33.0721649,22.9357466 C31.8845361,22.9357466 30.7917526,23.2248869 29.8226804,23.7909502 C28.857732,24.3570136 28.0865979,25.1429864 27.5298969,26.1244344 C26.9731959,27.1058824 26.6927835,28.2095023 26.6927835,29.4108597 C26.6927835,30.6081448 26.9814433,31.7199095 27.5546392,32.7095023 C28.1237113,33.7031674 28.9195876,34.4932127 29.9175258,35.0552036 C30.9154639,35.621267 32.0371134,35.9063348 33.2494845,35.9063348 C34.4659794,35.9063348 35.5835052,35.621267 36.5814433,35.0552036 C37.5793814,34.4891403 38.371134,33.699095 38.9402062,32.7095023 C39.5134021,31.7239819 39.8020619,30.6122172 39.8020619,29.4108597 L39.8020619,11.5452489 C39.8226804,10.3479638 39.5463918,9.2321267 38.9896907,8.23846154 Z M33.2371134,7.38733032 C33.2618557,7.38733032 33.2824742,7.38733032 33.3072165,7.38733032 C34.0536082,7.39954751 34.7340206,7.58687783 35.3237113,7.94524887 C35.9216495,8.31176471 36.3917526,8.80859729 36.7298969,9.42352941 C37.0721649,10.0425339 37.2371134,10.7470588 37.2247423,11.5167421 C37.2206186,11.7122172 37.2164948,11.8547511 37.2041237,11.9524887 C37.1876289,12.0095023 37.1752577,12.0705882 37.171134,12.1357466 C37.0226804,13.141629 36.5896907,13.9479638 35.8515464,14.5873303 C35.1257732,15.2144796 34.2762887,15.5199095 33.2618557,15.5199095 C33.2412371,15.5199095 33.2164948,15.5199095 33.1958763,15.5199095 C32.4371134,15.5076923 31.7690722,15.3285068 31.1628866,14.9701357 C30.5608247,14.6117647 30.0865979,14.1190045 29.7484536,13.5040724 C29.4061856,12.8809955 29.2412371,12.180543 29.2536082,11.4108597 C29.2659794,10.6411765 29.4515464,9.94072398 29.8061856,9.32986425 C30.1608247,8.72307692 30.6515464,8.23846154 31.2618557,7.89230769 C31.8639175,7.55429864 32.5113402,7.38733032 33.2371134,7.38733032 Z M37.2247423,29.4067873 C37.2247423,30.1764706 37.0474227,30.8769231 36.7010309,31.4959276 C36.3546392,32.1067873 35.8762887,32.5995475 35.2742268,32.9538462 C34.6762887,33.3081448 33.9958763,33.4873303 33.2494845,33.4873303 C32.4907216,33.4873303 31.8268041,33.3122172 31.2082474,32.9538462 C30.6020619,32.5995475 30.1195876,32.1108597 29.7731959,31.4959276 C29.4268041,30.8809955 29.2494845,30.1764706 29.2494845,29.4067873 C29.2494845,28.6371041 29.4268041,27.9366516 29.7731959,27.3176471 C30.1195876,26.7067873 30.5979381,26.2221719 31.2041237,25.8760181 C31.8226804,25.5217195 32.4907216,25.3506787 33.2494845,25.3506787 C34.2969072,25.3506787 35.1628866,25.6683258 35.8927835,26.3199095 C36.614433,26.959276 37.0474227,27.7941176 37.1793814,28.7959276 C37.1835052,28.8570136 37.1917526,28.9180995 37.2082474,28.9710407 C37.2206186,29.0606335 37.2247423,29.2113122 37.2247423,29.4067873 Z" id="Shape" fill="url(#linearGradient-2)"></path>
                    <path d="M52.3793814,30.1846154 C52.614433,29.9647059 52.742268,29.659276 52.742268,29.3049774 C52.742268,28.1117647 52.4907216,27.0285068 52,26.0877828 C51.5010309,25.1348416 50.7917526,24.3773756 49.8886598,23.839819 C48.985567,23.3022624 47.9381443,23.0253394 46.7793814,23.0253394 C45.5917526,23.0253394 44.5113402,23.3063348 43.571134,23.860181 C42.6309278,24.4140271 41.8886598,25.1959276 41.3608247,26.181448 C40.8371134,27.1588235 40.5731959,28.2828054 40.5731959,29.5248869 C40.5731959,30.7547511 40.8536082,31.8746606 41.4103093,32.8561086 C41.9670103,33.841629 42.7546392,34.6235294 43.7443299,35.1733032 C44.7298969,35.7230769 45.8639175,36 47.1051546,36 C47.843299,36 48.6185567,35.8574661 49.4103093,35.5723982 C50.2020619,35.2873303 50.8701031,34.9208145 51.4061856,34.4728507 C51.6618557,34.2447964 51.7979381,33.9556561 51.7979381,33.6420814 C51.7979381,33.3 51.6494845,32.9823529 51.3649485,32.7257919 L51.3237113,32.6932127 C50.8,32.3144796 50.2185567,32.3511312 49.6824742,32.758371 C49.4061856,32.9945701 49.0268041,33.1941176 48.5484536,33.3570136 C48.0659794,33.5199095 47.5793814,33.6054299 47.1051546,33.6054299 C45.9835052,33.6054299 45.0804124,33.2837104 44.342268,32.6199095 C43.7195876,32.061991 43.3319588,31.3696833 43.1587629,30.5226244 L51.4927835,30.5226244 C51.843299,30.5144796 52.1525773,30.4004525 52.3793814,30.1846154 Z M43.228866,28.2217195 C43.4226804,27.4479638 43.785567,26.8208145 44.3257732,26.3158371 C44.9731959,25.7131222 45.7773196,25.4199095 46.7752577,25.4199095 C47.756701,25.4199095 48.5360825,25.7090498 49.1546392,26.3076923 C49.6783505,26.8126697 50.0123711,27.4438914 50.1731959,28.2217195 L43.228866,28.2217195 Z" id="Shape" fill="#001820"></path>
                    <path d="M62.8247423,29.6022624 C62.0783505,28.9547511 60.9072165,28.5067873 59.2412371,28.2298643 C57.8927835,28.0099548 57.2865979,27.7411765 57.014433,27.5579186 C56.6845361,27.3339367 56.5319588,27.0529412 56.5319588,26.6823529 C56.5319588,26.4665158 56.585567,26.1488688 57.0556701,25.8312217 C57.4597938,25.558371 58.0206186,25.4239819 58.7298969,25.4239819 C59.843299,25.4239819 60.6927835,25.7701357 61.3360825,26.4950226 C61.6247423,26.8004525 62.0082474,26.9633484 62.4371134,26.9633484 C62.7092784,26.9633484 62.9402062,26.89819 63.0969072,26.7882353 C63.4597938,26.5642534 63.6618557,26.2180995 63.6618557,25.8190045 C63.6618557,25.5868778 63.5835052,25.3466063 63.4185567,25.0859729 L63.3938144,25.0493213 C62.9113402,24.4140271 62.2680412,23.9131222 61.4845361,23.5547511 C60.7092784,23.2045249 59.7979381,23.0253394 58.771134,23.0253394 C57.4391753,23.0253394 56.3051546,23.3470588 55.4020619,23.9742081 C54.4536082,24.638009 53.971134,25.5868778 53.971134,26.7923077 C53.971134,27.7411765 54.3876289,28.5556561 55.2041237,29.2113122 C55.971134,29.8303167 57.1257732,30.2660633 58.6350515,30.5104072 C59.6742268,30.6733032 60.428866,30.9095023 60.8824742,31.2149321 C61.2701031,31.479638 61.4515464,31.7728507 61.4515464,32.1312217 C61.4391753,32.5506787 61.2536082,32.8683258 60.8618557,33.1371041 C60.428866,33.4303167 59.7402062,33.5769231 58.8164948,33.5769231 C58.1731959,33.5769231 57.5835052,33.4791855 57.0597938,33.279638 C56.556701,33.0923077 56.1525773,32.819457 55.8515464,32.4773756 C55.3896907,31.9479638 54.6556701,31.8502262 54.0329897,32.3104072 C53.6041237,32.6565611 53.5134021,33.0434389 53.5134021,33.3122172 C53.5134021,33.5769231 53.6247423,33.8457014 53.8556701,34.1144796 C54.4123711,34.7131222 55.1546392,35.181448 56.0536082,35.5113122 C56.9319588,35.8330317 57.8639175,35.9959276 58.8206186,35.9959276 C59.7814433,35.9959276 60.6597938,35.8371041 61.4268041,35.5276018 C62.214433,35.2099548 62.8453608,34.7538462 63.2948454,34.1714932 C63.756701,33.5728507 63.9917526,32.8846154 63.9917526,32.1190045 C63.9876289,31.121267 63.5958763,30.2742081 62.8247423,29.6022624 Z" id="Shape" fill="#001820"></path>
                </g>
            </g>
        </g>
    </g>
</svg>
