<svg width="18px" height="24px" viewBox="0 0 18 24" version="1.1" xmlns="http://www.w3.org/2000/svg"
     xmlns:xlink="http://www.w3.org/1999/xlink">
  <g id="Symbols" stroke="none" stroke-width="1" fill="none" fill-rule="evenodd">
    <g id="component/search_active_1440" transform="translate(-47.000000, -50.000000)" fill="#007E7E"
       fill-rule="nonzero">
      <g id="Component/Search_notactive">
        <g id="icon/picker_active" transform="translate(40.000000, 46.000000)">
          <path
            d="M16,4 C11.0373732,4 7,7.899161 7,12.6918543 C7,18.6397366 15.0541183,27.3715754 15.3970296,27.7403883 C15.7191186,28.0868419 16.2814639,28.0862325 16.6029704,27.7403883 C16.9458817,27.3715754 25,18.6397366 25,12.6918543 C24.9999029,7.899161 20.9625783,4 16,4 Z M16,17.064969 C13.5031791,17.064969 11.4719216,15.103201 11.4719216,12.6918543 C11.4719216,10.2805077 13.5032277,8.31878651 16,8.31878651 C18.4967723,8.31878651 20.5280299,10.2805545 20.5280299,12.6919012 C20.5280299,15.1032479 18.4967723,17.064969 16,17.064969 Z"
            id="Shape"></path>
        </g>
      </g>
    </g>
  </g>
</svg>
